Division,WeightClassKg,Place,Name,Team,BodyweightKg,Best3SquatKg,Best3BenchKg,Best3DeadliftKg,TotalKg,Equipment,Event,Sex
Boys,51.71,1,Brandon Fernandez,Poteet,46.72,124.74,61.23,117.93,303.91,Single-ply,SBD,M
Boys,51.71,2,George Garcia,San Antonio Memorial,51.71,113.4,63.5,124.74,301.64,Single-ply,SBD,M
Boys,51.71,3,Jacob Forrester,Center Point,41.73,61.23,34.02,70.31,165.56,Single-ply,SBD,M
Boys,55.79,1,Michael Mitchell,San Antonio Southside,52.89,172.37,92.99,199.58,464.93,Single-ply,SBD,M
Boys,55.79,2,Eulicez Gonzalez,San Antonio Southside,55.16,142.88,108.86,172.37,424.11,Single-ply,SBD,M
Boys,55.79,3,Joey Garcia,Marion,55.79,129.27,79.38,158.76,367.41,Single-ply,SBD,M
Boys,59.87,1,Moc Moo,Port Lavaca Calhoun,59.87,185.97,102.06,190.51,478.54,Single-ply,SBD,M
Boys,59.87,2,Nicholas Garcia,San Antonio Southside,59.42,167.83,97.52,190.51,455.86,Single-ply,SBD,M
Boys,59.87,3,Derrick Rodriguez,San Antonio East Central,58.51,156.49,90.72,154.22,401.43,Single-ply,SBD,M
Boys,59.87,4,Joel Huerta,San Antonio East Central,59.42,136.08,77.11,149.69,362.87,Single-ply,SBD,M
Boys,59.87,5,Brityn Brown,Port Lavaca Calhoun,57.15,113.4,65.77,111.13,290.3,Single-ply,SBD,M
Boys,67.13,1,Jose Cumpean,Port Lavaca Calhoun,66.95,185.97,127.01,181.44,494.42,Single-ply,SBD,M
Boys,67.13,2,Dominik Espinoza,Center Point,65.59,136.08,88.45,167.83,392.36,Single-ply,SBD,M
Boys,67.13,3,Justin Guevara,San Antonio Kennedy,63.5,108.86,83.91,172.37,365.14,Single-ply,SBD,M
Boys,67.13,4,John Gomez,San Antonio Brooks Academy,63.96,129.27,72.57,149.69,351.53,Single-ply,SBD,M
Boys,67.13,5,Francisco Ramirez,San Antonio Kennedy,63.87,104.33,74.84,127.01,306.17,Single-ply,SBD,M
Boys,67.13,6,Hunter Young,Marion,62.6,104.33,68.04,124.74,297.1,Single-ply,SBD,M
Boys,67.13,7,Gabriel Martinez,Pearsall,66.22,106.59,61.23,79.38,247.21,Single-ply,SBD,M
Boys,74.84,1,Gilibaldo Garcia,San Antonio Brooks Academy,72.57,210.92,120.2,231.33,562.45,Single-ply,SBD,M
Boys,74.84,2,John Reyes,Pearsall,73.48,183.7,113.4,229.06,526.17,Single-ply,SBD,M
Boys,74.84,3,Cristino Garcia,San Antonio Kennedy,70.49,172.37,92.99,197.31,462.66,Single-ply,SBD,M
Boys,74.84,4,Albert Rodriguez,San Antonio Southwest,72.12,170.1,113.4,156.49,439.98,Single-ply,SBD,M
Boys,74.84,5,Lief Griffin,San Antonio Southwest,74.84,183.7,99.79,156.49,439.98,Single-ply,SBD,M
Boys,74.84,6,Edher Nava,Marion,74.39,156.49,104.33,156.49,417.3,Single-ply,SBD,M
Boys,74.84,7,Aaron Sanchez,Poteet,67.59,147.42,86.18,170.1,403.7,Single-ply,SBD,M
Boys,74.84,8,Ronnie Andrade,San Antonio East Central,72.03,142.88,92.99,161.03,396.89,Single-ply,SBD,M
Boys,74.84,9,Alex Gandara,Pearsall,70.31,158.76,77.11,156.49,392.36,Single-ply,SBD,M
Boys,74.84,10,Johnny Salinas,San Antonio Memorial,70.76,122.47,90.72,179.17,392.36,Single-ply,SBD,M
Boys,74.84,11,Matthew Quigly,Marion,73.84,136.08,92.99,151.95,381.02,Single-ply,SBD,M
Boys,74.84,12,Steven Canales,San Antonio East Central,71.21,108.86,102.06,154.22,365.14,Single-ply,SBD,M
Boys,74.84,13,Tim Holler,San Antonio Southwest,74.84,127.01,92.99,142.88,362.87,Single-ply,SBD,M
Boys,74.84,14,Blake Bently,Pearsall,72.12,127.01,74.84,142.88,344.73,Single-ply,SBD,M
Boys,74.84,15,Roland Vasquez,Pearsall,72.21,124.74,72.57,133.81,331.12,Single-ply,SBD,M
Boys,74.84,16,Rene De La Cruz,San Antonio Kennedy,70.99,90.72,63.5,136.08,290.3,Single-ply,SBD,M
Boys,82.1,1,Daniel Leita,Port Lavaca Calhoun,76.48,215.46,136.08,260.82,612.35,Single-ply,SBD,M
Boys,82.1,2,Xavier Rivera,Port Lavaca Calhoun,79.83,167.83,129.27,204.12,501.22,Single-ply,SBD,M
Boys,82.1,3,Michael Gomez,Poteet,80.83,181.44,99.79,188.24,469.47,Single-ply,SBD,M
Boys,82.1,4,Nicholas Propst,San Antonio Southwest,82.1,183.7,97.52,183.7,464.93,Single-ply,SBD,M
Boys,82.1,5,Jesse Lopez,Port Lavaca Calhoun,81.56,183.7,108.86,170.1,462.66,Single-ply,SBD,M
Boys,82.1,6,Richard Rodriguez,San Antonio East Central,81.65,147.42,86.18,176.9,410.5,Single-ply,SBD,M
Boys,82.1,7,Jonathan Garcia #5,San Antonio East Central,81.19,156.49,86.18,165.56,408.23,Single-ply,SBD,M
Boys,82.1,8,Isaiah Foreman,San Antonio Southside,77.66,142.88,90.72,149.69,383.29,Single-ply,SBD,M
Boys,82.1,9,Paulo Valadez,Center Point,76.2,142.88,86.18,149.69,378.75,Single-ply,SBD,M
Boys,82.1,10,Tim Carrasco,Poteet,79.38,124.74,83.91,165.56,374.21,Single-ply,SBD,M
Boys,82.1,11,Diego Lomeli,San Antonio Southwest,81.01,124.74,92.99,147.42,365.14,Single-ply,SBD,M
Boys,82.1,12,Edgar Fujarte,San Antonio Southwest,77.56,142.88,61.23,158.76,362.87,Single-ply,SBD,M
Boys,82.1,13,Jarret Wallen,Marion,78.83,124.74,86.18,147.42,358.34,Single-ply,SBD,M
Boys,82.1,14,Christian Benevides,San Antonio Southwest,80.56,120.2,86.18,147.42,353.8,Single-ply,SBD,M
Boys,82.1,15,Ricardo Aguilar,Pearsall,77.11,120.2,65.77,131.54,317.51,Single-ply,SBD,M
Boys,82.1,16,Manuel Ortiz,San Antonio Kennedy,76.66,102.06,77.11,131.54,310.71,Single-ply,SBD,M
Boys,89.81,1,Nathon Cantu,San Antonio Brooks Academy,88.99,272.16,176.9,226.8,675.85,Single-ply,SBD,M
Boys,89.81,2,Luis Guzman,San Antonio Southside,88.18,238.14,124.74,213.19,576.06,Single-ply,SBD,M
Boys,89.81,3,Sylias Montgomery,Port Lavaca Calhoun,89.18,226.8,102.06,233.6,562.45,Single-ply,SBD,M
Boys,89.81,4,Edward Kierstead,San Antonio Southwest,82.64,226.8,111.13,206.38,544.31,Single-ply,SBD,M
Boys,89.81,5,Jacob Valdez,San Antonio East Central,86.18,165.56,113.4,174.63,453.59,Single-ply,SBD,M
Boys,89.81,6,Edward Zaragoza,San Antonio Memorial,85.73,158.76,95.25,183.7,437.72,Single-ply,SBD,M
Boys,89.81,7,Tucker Walters,Marion,85.46,151.95,102.06,174.63,428.64,Single-ply,SBD,M
Boys,89.81,8,Moses Carrasco,Poteet,87.09,163.29,74.84,174.63,412.77,Single-ply,SBD,M
Boys,89.81,9,Kage Armstrong,Marion,87.63,174.63,104.33,104.33,383.29,Single-ply,SBD,M
Boys,89.81,10,Bryson Aguirre,Center Point,85.55,140.61,77.11,163.29,381.02,Single-ply,SBD,M
Boys,99.79,1,Eddie Garcia,Port Lavaca Calhoun,99.34,299.37,149.69,233.6,682.66,Single-ply,SBD,M
Boys,99.79,2,Tyler Crisp,Poteet,95.07,238.14,120.2,235.87,594.21,Single-ply,SBD,M
Boys,99.79,3,Mateo Garcia,San Antonio Memorial,99.34,238.14,133.81,217.72,589.67,Single-ply,SBD,M
Boys,99.79,4,Isaac Ovirdo,San Antonio Southside,94.35,204.12,149.69,226.8,580.6,Single-ply,SBD,M
Boys,99.79,5,Phillip Herrera,San Antonio Southwest,97.07,206.38,131.54,206.38,544.31,Single-ply,SBD,M
Boys,99.79,6,Ethan Chapa,Center Point,94.62,195.04,111.13,192.78,498.95,Single-ply,SBD,M
Boys,99.79,7,Xavier Torres,San Antonio Southside,97.89,183.7,106.59,183.7,474,Single-ply,SBD,M
Boys,99.79,8,Andrew Romero,San Antonio Kennedy,91.4,124.74,102.06,142.88,369.68,Single-ply,SBD,M
Boys,99.79,9,Max Eguia,San Antonio Kennedy,91.85,133.81,86.18,142.88,362.87,Single-ply,SBD,M
Boys,109.77,1,Patrick Zaiontz,San Antonio Brooks Academy,104.42,226.8,167.83,224.53,619.15,Single-ply,SBD,M
Boys,109.77,2,Leo Colom,Port Lavaca Calhoun,104.87,219.99,142.88,244.94,607.81,Single-ply,SBD,M
Boys,109.77,3,Jorge Flores,San Antonio Memorial,109.04,215.46,113.4,215.46,544.31,Single-ply,SBD,M
Boys,109.77,4,Fermin Cruz,San Antonio Memorial,109.77,190.51,113.4,195.04,498.95,Single-ply,SBD,M
Boys,109.77,5,Adrian Melendez-Leon,San Antonio Southwest,101.6,161.03,124.74,204.12,489.88,Single-ply,SBD,M
Boys,109.77,6,Ryan Bechtel,Marion,100.7,179.17,99.79,188.24,467.2,Single-ply,SBD,M
Boys,109.77,7,Fransisco Uhl,San Antonio Southwest,106.59,154.22,127.01,185.97,467.2,Single-ply,SBD,M
Boys,109.77,8,Manuel Cruz,San Antonio Kennedy,103.51,158.76,86.18,183.7,428.64,Single-ply,SBD,M
Boys,124.74,1,Elijah Amaro,San Antonio Southwest,122.2,201.85,154.22,188.24,544.31,Single-ply,SBD,M
Boys,124.74,2,Jordan Shedrock,San Antonio East Central,114.76,188.24,136.08,192.78,517.1,Single-ply,SBD,M
Boys,124.74,3,Marcus Luna,San Antonio Southwest,115.48,174.63,124.74,181.44,480.81,Single-ply,SBD,M
Boys,124.74,4,Steve Segura,San Antonio Southwest,119.66,174.63,113.4,172.37,460.4,Single-ply,SBD,M
Boys,124.74,5,Jose Murrillo,San Antonio Southwest,117.57,170.1,83.91,188.24,442.25,Single-ply,SBD,M
Boys,124.74,6,Robert Pena-Valdez,San Antonio Kennedy,112.22,151.95,102.06,183.7,437.72,Single-ply,SBD,M
Boys,124.74,7,Richard Jimenez,San Antonio East Central,112.94,136.08,86.18,145.15,367.41,Single-ply,SBD,M
Boys,124.74,8,Ray Martinez,Port Lavaca Calhoun,121.56,204.12,127.01,,331.12,Single-ply,SB,M
Boys,124.74,9,Matthew Gold,San Antonio Brooks Academy,113.31,106.59,65.77,147.42,319.78,Single-ply,SBD,M
Boys,124.74+,1,Leo Madera,Port Lavaca Calhoun,137.44,204.12,142.88,181.44,528.44,Single-ply,SBD,M
Boys,124.74+,2,Kevin Del Toro,San Antonio Kennedy,126.73,183.7,92.99,197.31,474,Single-ply,SBD,M
Boys,124.74+,3,Josh Martinez,San Antonio Southwest,142.43,172.37,117.93,176.9,467.2,Single-ply,SBD,M
Boys,124.74+,4,Ben Pagen,Poteet,162.93,163.29,97.52,174.63,435.45,Single-ply,SBD,M
