Division,WeightClassKg,Place,Name,Team,BodyweightKg,Best3SquatKg,Best3BenchKg,Best3DeadliftKg,TotalKg,Equipment,Event,Sex
Boys,51.71,1,Rudy Sanchez,Somerset,50.8,127.01,72.57,158.76,358.34,Single-ply,SBD,M
Boys,51.71,2,Joey Longoria,Pearsall,51.17,124.74,70.31,136.08,331.12,Single-ply,SBD,M
Boys,51.71,3,Austin Mendez,San Diego,51.26,111.13,52.16,117.93,281.23,Single-ply,SBD,M
Boys,51.71,4,Ricardo Martinez #3,Pearsall,47.9,83.91,45.36,86.18,215.46,Single-ply,SBD,M
Boys,51.71,DQ,Mark Jaquez,Uvalde,49.53,124.74,,,,Single-ply,SBD,M
Boys,55.79,1,Javier Cantu,San Diego,54.16,133.81,70.31,149.69,353.8,Single-ply,SBD,M
Boys,55.79,2,Jovan Colchado,Dilley,53.16,127.01,63.5,147.42,337.93,Single-ply,SBD,M
Boys,55.79,3,Brian Lazo,Crystal City,52.16,120.2,68.04,129.27,317.51,Single-ply,SBD,M
Boys,55.79,4,Orlando Mata,Crystal City,52.62,83.91,56.7,129.27,269.89,Single-ply,SBD,M
Boys,55.79,5,Virgil Luna,Crystal City,55.43,83.91,45.36,127.01,256.28,Single-ply,SBD,M
Boys,59.87,1,Fabian Bazan,Castroville Medina Valley,59.15,172.37,90.72,185.97,449.06,Single-ply,SBD,M
Boys,59.87,2,Vynce Ochoa,Dilley,58.06,170.1,97.52,158.76,426.38,Single-ply,SBD,M
Boys,59.87,3,Eli Luna,Somerset,59.42,165.56,90.72,170.1,426.38,Single-ply,SBD,M
Boys,59.87,4,JR Velasquez,Rocksprings,59.33,158.76,115.67,142.88,417.3,Single-ply,SBD,M
Boys,59.87,5,Silverio Mendoza,Crystal City,58.6,147.42,86.18,163.29,396.89,Single-ply,SBD,M
Boys,59.87,6,Buddy Santos,Dilley,59.87,149.69,70.31,147.42,367.41,Single-ply,SBD,M
Boys,59.87,NS,Fabian Apaez,Somerset,,,,,,Single-ply,SBD,M
Boys,59.87,NS,Dominic Terreras,Somerset,,,,,,Single-ply,SBD,M
Boys,59.87,DQ,Christian Campos,Uvalde,58.51,133.81,,,,Single-ply,SBD,M
Boys,59.87,DQ,Jesse Jimenez,Crystal City,58.69,,,,,Single-ply,SBD,M
Boys,67.13,1,Orlando Gutierrez,Crystal City,65.59,238.14,92.99,204.12,535.24,Single-ply,SBD,M
Boys,67.13,2,Antonio Garcia,Somerset,63.87,188.24,97.52,197.31,483.08,Single-ply,SBD,M
Boys,67.13,3,Julian Rico,Somerset,62.69,190.51,102.06,170.1,462.66,Single-ply,SBD,M
Boys,67.13,4,Gabriel Martinez,Pearsall,66.13,151.95,65.77,151.95,369.68,Single-ply,SBD,M
Boys,67.13,5,Araham Davila,Uvalde,66.32,142.88,68.04,147.42,358.34,Single-ply,SBD,M
Boys,67.13,6,Alex De La Rosa,Dilley,65.5,131.54,83.91,136.08,351.53,Single-ply,SBD,M
Boys,67.13,7,Jose Saenz,San Diego,60.69,136.08,68.04,136.08,340.19,Single-ply,SBD,M
Boys,67.13,8,Richard Munoz,Carrizo Springs,65.05,120.2,83.91,136.08,340.19,Single-ply,SBD,M
Boys,67.13,NS,Jose Uruetta,Carrizo Springs,,,,,,Single-ply,SBD,M
Boys,67.13,NS,Juoquin Ramos,Rocksprings,,,,,,Single-ply,SBD,M
Boys,67.13,DQ,Evan Camarillo,Crystal City,60.33,,,,,Single-ply,SBD,M
Boys,67.13,DQ,Luke Bradshaw,Dilley,67.04,127.01,,,,Single-ply,SBD,M
Boys,74.84,1,Ismael Franco,Crystal City,68.95,235.87,147.42,235.87,619.15,Single-ply,SBD,M
Boys,74.84,2,Roy DeLeon,Somerset,73.39,233.6,142.88,240.4,616.89,Single-ply,SBD,M
Boys,74.84,3,Cesar Gonzalez,Somerset,71.85,231.33,111.13,226.8,569.26,Single-ply,SBD,M
Boys,74.84,4,Lee Bazan,San Diego,73.84,190.51,102.06,201.85,494.42,Single-ply,SBD,M
Boys,74.84,5,Cesar Franco,Crystal City,74.84,179.17,83.91,190.51,453.59,Single-ply,SBD,M
Boys,74.84,6,Pierce Ramirez,Dilley,73.39,185.97,95.25,167.83,449.06,Single-ply,SBD,M
Boys,74.84,7,David Elizondo,Castroville Medina Valley,69.17,170.1,83.91,165.56,419.57,Single-ply,SBD,M
Boys,74.84,8,Eden Fuentes,Pearsall,73.48,142.88,70.31,179.17,392.36,Single-ply,SBD,M
Boys,74.84,9,Nathan Delgado,Crystal City,74.3,127.01,77.11,158.76,362.87,Single-ply,SBD,M
Boys,74.84,10,Adrian de la Rosa,Dilley,70.76,131.54,83.91,136.08,351.53,Single-ply,SBD,M
Boys,74.84,11,Corliss Hunter,Castroville Medina Valley,72.12,122.47,79.38,136.08,337.93,Single-ply,SBD,M
Boys,74.84,NS,Roland Vasquez,Pearsall,,,,,,Single-ply,SBD,M
Boys,74.84,NS,Albeto Salazar,Somerset,,,,,,Single-ply,SBD,M
Boys,74.84,NS,Angel Monzon,Somerset,,,,,,Single-ply,SBD,M
Boys,74.84,NS,Ruben Rios,Somerset,,,,,,Single-ply,SBD,M
Boys,74.84,NS,Phillip V Valles,Somerset,,,,,,Single-ply,SBD,M
Boys,74.84,NS,Xavier Vega,Somerset,,,,,,Single-ply,SBD,M
Boys,74.84,DQ,Nick Rodriguez,Dilley,74.3,204.12,117.93,,,Single-ply,SBD,M
Boys,82.1,1,Steban Mireles,Castroville Medina Valley,81.56,238.14,127.01,219.99,585.13,Single-ply,SBD,M
Boys,82.1,2,Eric Gonzalez,Carrizo Springs,79.38,192.78,124.74,224.53,542.04,Single-ply,SBD,M
Boys,82.1,3,Meme Moreno,Somerset,77.56,163.29,102.06,195.04,460.4,Single-ply,SBD,M
Boys,82.1,4,Gavin Vara,Uvalde,75.93,149.69,90.72,195.04,435.45,Single-ply,SBD,M
Boys,82.1,5,Jeremy Martinez,Castroville Medina Valley,79.38,147.42,97.52,163.29,408.23,Single-ply,SBD,M
Boys,82.1,6,Ricardo Aguilar,Pearsall,81.37,163.29,74.84,170.1,408.23,Single-ply,SBD,M
Boys,82.1,7,Rey Leal,Pearsall,75.11,142.88,70.31,151.95,365.14,Single-ply,SBD,M
Boys,82.1,NS,Omar Rodriguez,Somerset,,,,,,Single-ply,SBD,M
Boys,82.1,NS,Elijah Frebe,Somerset,,,,,,Single-ply,SBD,M
Boys,82.1,NS,Tristian Kurtz,Somerset,,,,,,Single-ply,SBD,M
Boys,82.1,NS,Alomar Ybarra,Somerset,,,,,,Single-ply,SBD,M
Boys,82.1,NS,John Dunas,Somerset,,,,,,Single-ply,SBD,M
Boys,82.1,DQ,Josiah Carrizales,Uvalde,78.47,163.29,,,,Single-ply,SBD,M
Boys,89.81,1,Joseph Bueno,Somerset,88.81,267.62,136.08,258.55,662.24,Single-ply,SBD,M
Boys,89.81,2,Luis Perales,Carrizo Springs,88.99,226.8,195.04,231.33,653.17,Single-ply,SBD,M
Boys,89.81,3,Beau Medrano,Dilley,85.73,231.33,142.88,188.24,562.45,Single-ply,SBD,M
Boys,89.81,4,Joseph Araujo,San Diego,86,204.12,145.15,204.12,553.38,Single-ply,SBD,M
Boys,89.81,5,Elias Torres,Somerset,85.09,219.99,124.74,192.78,537.51,Single-ply,SBD,M
Boys,89.81,6,Max Castillo,San Diego,88,229.06,113.4,185.97,528.44,Single-ply,SBD,M
Boys,89.81,7,Pete Garcia,San Diego,83.19,190.51,117.93,208.65,517.1,Single-ply,SBD,M
Boys,89.81,8,Alex Luna,Crystal City,88.54,176.9,120.2,179.17,476.27,Single-ply,SBD,M
Boys,89.81,9,Jose Herrera,Somerset,82.55,138.35,122.47,204.12,464.93,Single-ply,SBD,M
Boys,89.81,10,Josiah Marquez,Pearsall,87.82,188.24,92.99,181.44,462.66,Single-ply,SBD,M
Boys,89.81,11,Juan Martinez,Dilley,87.63,174.63,90.72,181.44,446.79,Single-ply,SBD,M
Boys,89.81,12,Bryan Ledesma,Somerset,87.54,151.95,106.59,156.49,415.04,Single-ply,SBD,M
Boys,89.81,13,Marcos Cruz,Carrizo Springs,83.28,174.63,83.91,154.22,412.77,Single-ply,SBD,M
Boys,89.81,14,George Garza,Uvalde,89.27,111.13,74.84,154.22,340.19,Single-ply,SBD,M
Boys,89.81,15,Diego Reyes,Carrizo Springs,87.54,72.57,56.7,92.99,222.26,Single-ply,SBD,M
Boys,89.81,NS,Jesse Ovalle,Somerset,,,,,,Single-ply,SBD,M
Boys,89.81,NS,Geronimo Flores,Somerset,,,,,,Single-ply,SBD,M
Boys,89.81,DQ,Michael Gonzalez,Somerset,83.01,226.8,,,,Single-ply,SBD,M
Boys,99.79,1,Ethan Gonzalez #2,San Diego,96.43,254.01,154.22,235.87,644.1,Single-ply,SBD,M
Boys,99.79,2,Manuel Garcia,Somerset,92.35,283.5,136.08,222.26,641.83,Single-ply,SBD,M
Boys,99.79,3,Marty Trevino,Dilley,90.72,215.46,138.35,224.53,578.33,Single-ply,SBD,M
Boys,99.79,4,Edward Roya,Castroville Medina Valley,95.53,181.44,131.54,181.44,494.42,Single-ply,SBD,M
Boys,99.79,5,Elijah Hernandez-Cortez,Uvalde,99.7,215.46,104.33,172.37,492.15,Single-ply,SBD,M
Boys,99.79,6,Ricky Casteneda,Crystal City,98.88,172.37,106.59,174.63,453.59,Single-ply,SBD,M
Boys,99.79,7,Cesar Mendiola,Uvalde,91.99,156.49,65.77,163.29,385.55,Single-ply,SBD,M
Boys,99.79,8,Malachi Lopez,Pearsall,94.08,113.4,74.84,136.08,324.32,Single-ply,SBD,M
Boys,99.79,9,Homer Arredondo,Crystal City,93.53,111.13,68.04,138.35,317.51,Single-ply,SBD,M
Boys,99.79,10,Phillip Valles,Carrizo Springs,93.8,113.4,70.31,129.27,312.98,Single-ply,SBD,M
Boys,99.79,NS,Lino Castro,Crystal City,,,,,,Single-ply,SBD,M
Boys,99.79,DQ,Mark Puente,Crystal City,99.52,,,,,Single-ply,SBD,M
Boys,99.79,NS,Gage Maldonado,Somerset,,,,,,Single-ply,SBD,M
Boys,99.79,NS,Michael Rodriguez,Somerset,,,,,,Single-ply,SBD,M
Boys,109.77,1,Eddie Moreno,Somerset,108.95,272.16,195.04,249.48,716.68,Single-ply,SBD,M
Boys,109.77,2,Michael Salaiz,San Diego,108.23,281.23,165.56,254.01,700.8,Single-ply,SBD,M
Boys,109.77,3,Rey Mendoza,Crystal City,109.77,240.4,113.4,208.65,562.45,Single-ply,SBD,M
Boys,109.77,4,Mathew Williams,Uvalde,105.14,206.38,124.74,190.51,521.63,Single-ply,SBD,M
Boys,109.77,5,Spencer Payne,Castroville Medina Valley,105.05,197.31,129.27,192.78,519.36,Single-ply,SBD,M
Boys,109.77,6,Joe Gutierrez,Crystal City,103.78,201.85,104.33,188.24,494.42,Single-ply,SBD,M
Boys,109.77,7,Daniel Ramos,Somerset,108.41,190.51,120.2,170.1,480.81,Single-ply,SBD,M
Boys,109.77,8,Daniel Garza,Carrizo Springs,103.87,102.06,90.72,142.88,335.66,Single-ply,SBD,M
Boys,109.77,NS,Jeffrey De Leon,Carrizo Springs,,,,,,Single-ply,SBD,M
Boys,109.77,NS,Patricio Medina,Uvalde,,,,,,Single-ply,SBD,M
Boys,109.77,DQ,Colton Reddick,Carrizo Springs,105.23,113.4,,,,Single-ply,SBD,M
Boys,109.77,DQ,Kollin Meeks,Pearsall,105.14,,,,,Single-ply,SBD,M
Boys,124.74,1,Jason Carrillo,Rocksprings,120.29,251.74,165.56,206.38,623.69,Single-ply,SBD,M
Boys,124.74,2,Dustin Dominguez,Dilley,123.38,272.16,136.08,210.92,619.15,Single-ply,SBD,M
Boys,124.74,3,Brandon Orosco,Carrizo Springs,118.66,235.87,129.27,206.38,571.53,Single-ply,SBD,M
Boys,124.74,4,Sebastian Ramirez,Castroville Medina Valley,122.38,224.53,124.74,204.12,553.38,Single-ply,SBD,M
Boys,124.74,5,Trace Ferguson,Castroville Medina Valley,111.49,213.19,124.74,190.51,528.44,Single-ply,SBD,M
Boys,124.74,6,Irwin Plata,Uvalde,110.13,226.8,113.4,185.97,526.17,Single-ply,SBD,M
Boys,124.74,7,Sammy Lara,Uvalde,113.04,195.04,127.01,204.12,526.17,Single-ply,SBD,M
Boys,124.74,8,Ethan Rodriguez,Pearsall,117.93,170.1,111.13,163.29,444.52,Single-ply,SBD,M
Boys,124.74,9,Bobby Rocha,Crystal City,113.13,154.22,81.65,147.42,383.29,Single-ply,SBD,M
Boys,124.74,NS,Mark Ruiz,Crystal City,,,,,,Single-ply,SBD,M
Boys,124.74,NS,Mark Flores,Somerset,,,,,,Single-ply,SBD,M
Boys,124.74,DQ,Michael Perez,Crystal City,112.04,176.9,,,,Single-ply,SBD,M
Boys,124.74+,1,Sebastian Ramirez,Somerset,133.45,226.8,142.88,210.92,580.6,Single-ply,SBD,M
Boys,124.74+,2,Ernesto Moreno,Castroville Medina Valley,159.12,219.99,158.76,185.97,564.72,Single-ply,SBD,M
Boys,124.74+,NS,Isiah Reyna,Somerset,,,,,,Single-ply,SBD,M
Boys,124.74+,DQ,George Hughes,San Diego,138.16,240.4,,,,Single-ply,SBD,M
Boys,124.74+,DQ,Jonah Barrow,Castroville Medina Valley,129.27,238.14,,,,Single-ply,SBD,M
Boys,,NS,Mario Cabrera,Somerset,,,,,,Single-ply,SBD,M
