Division,WeightClassKg,Place,Name,Team,BodyweightKg,Best3SquatKg,Best3BenchKg,Best3DeadliftKg,TotalKg,Equipment,Event,Sex
Girls,44.23,1,Janet Becerril,Perryton,44,131.54,54.43,106.59,292.57,Single-ply,SBD,F
Girls,44.23,2,Amanda Key,Lamesa Klondike,44,86.18,45.36,99.79,231.33,Single-ply,SBD,F
Girls,44.23,3,Reagan Morris,ALPINE,43.64,79.38,43.09,95.25,217.72,Single-ply,SBD,F
Girls,44.23,4,Lexi Luera,Fort Stockton,43.91,77.11,27.22,88.45,192.78,Single-ply,SBD,F
Girls,44.23,5,Victoria Vasquez,Andrews,41.28,79.38,34.02,77.11,190.51,Single-ply,SBD,F
Girls,44.23,6,Aaliyah Sanchez,Monahans,42.46,72.57,31.75,77.11,181.44,Single-ply,SBD,F
Girls,44.23,7,Kenia Munoz,Andrews,44.09,68.04,31.75,81.65,181.44,Single-ply,SBD,F
Girls,44.23,8,Maribel Tavarez,Monahans,39.55,65.77,31.75,74.84,172.37,Single-ply,SBD,F
Girls,44.23,9,Karen Carrasco,Andrews,43,65.77,27.22,72.57,165.56,Single-ply,SBD,F
Girls,44.23,DQ,Haily Zamorra,Andrews,43.64,,,,,Single-ply,SBD,F
Girls,44.23,DQ,Serena Arce,Andrews,42.18,,,,,Single-ply,SBD,F
Girls,47.85,1,Madi Werner,Seminole,47.08,106.59,45.36,122.47,274.42,Single-ply,SBD,F
Girls,47.85,2,Mariah De La Rosa,CRANE,45.18,77.11,34.02,90.72,201.85,Single-ply,SBD,F
Girls,47.85,3,Katlyn Combs,Monahans,47.81,68.04,34.02,88.45,190.51,Single-ply,SBD,F
Girls,47.85,DQ,Victoria Castro,BROWNFIELD,47.17,,,,,Single-ply,SBD,F
Girls,51.94,1,Brittany Espinoza,Seminole,50.8,90.72,47.63,111.13,249.48,Single-ply,SBD,F
Girls,51.94,2,Brittney Patterson,Andrews,51.53,92.99,43.09,99.79,235.87,Single-ply,SBD,F
Girls,51.94,3,Dannielle Brito,Monahans,49.35,77.11,47.63,97.52,222.26,Single-ply,SBD,F
Girls,51.94,4,Jennifer Cuellar,Andrews,50.71,72.57,34.02,104.33,210.92,Single-ply,SBD,F
Girls,51.94,5,Enissa Sanchez,Fort Stockton,50.08,77.11,36.29,79.38,192.78,Single-ply,SBD,F
Girls,51.94,6,Nayelli Azuaje,Monahans,51.89,58.97,36.29,83.91,179.17,Single-ply,SBD,F
Girls,51.94,7,Valerie Lujan,Monahans,51.17,70.31,34.02,72.57,176.9,Single-ply,SBD,F
Girls,51.94,8,Briana Meza,Monahans,49.44,54.43,31.75,79.38,165.56,Single-ply,SBD,F
Girls,51.94,DQ,Shay Eggleston,Andrews,51.94,,,,,Single-ply,SBD,F
Girls,56.02,1,Amanda Rodriguez,Seminole,53.25,122.47,68.04,127.01,317.51,Single-ply,SBD,F
Girls,56.02,2,Sahian Valenzuela,ALPINE,55.97,104.33,56.7,111.13,272.16,Single-ply,SBD,F
Girls,56.02,3,Brianna Marquez,Monahans,55.16,95.25,47.63,115.67,258.55,Single-ply,SBD,F
Girls,56.02,4,Tyra Lemmons,Monahans,53.89,95.25,47.63,113.4,256.28,Single-ply,SBD,F
Girls,56.02,5,Sydney Perez,Monahans,52.71,106.59,45.36,99.79,251.74,Single-ply,SBD,F
Girls,56.02,6,Taylor Short,ALPINE,53.8,81.65,49.9,106.59,238.14,Single-ply,SBD,F
Girls,56.02,7,Kalin L'Esperance,Perryton,55.43,97.52,47.63,88.45,233.6,Single-ply,SBD,F
Girls,56.02,8,Oralia Cardenas,SLATON,55.34,86.18,31.75,113.4,231.33,Single-ply,SBD,F
Girls,56.02,9,Kelcey Mitchell,Monahans,54.16,79.38,45.36,95.25,219.99,Single-ply,SBD,F
Girls,56.02,10,Tj Aragon,Monahans,52.62,81.65,40.82,88.45,210.92,Single-ply,SBD,F
Girls,56.02,11,Eunice Avalos,Perryton,55.43,81.65,45.36,81.65,208.65,Single-ply,SBD,F
Girls,56.02,12,Analyssa Gonzalez,BROWNFIELD,52.89,70.31,38.56,90.72,199.58,Single-ply,SBD,F
Girls,56.02,13,Hanna Johnson,BROWNFIELD,55.25,72.57,38.56,83.91,195.04,Single-ply,SBD,F
Girls,56.02,14,Destiny Dawson,Monahans,55.52,68.04,38.56,77.11,183.7,Single-ply,SBD,F
Girls,56.02,DQ,Gina Butler,ALPINE,55.16,97.52,49.9,,,Single-ply,SBD,F
Girls,56.02,DQ,Phyllis Figueroa,Andrews,55.25,,,,,Single-ply,SBD,F
Girls,60.1,1,Raquel Singh,Fort Stockton,59.24,131.54,49.9,142.88,324.32,Single-ply,SBD,F
Girls,60.1,2,Symphony Munoz,Monahans,57.61,113.4,61.23,129.27,303.91,Single-ply,SBD,F
Girls,60.1,3,Zaira Navarrete,Perryton,56.7,88.45,47.63,113.4,249.48,Single-ply,SBD,F
Girls,60.1,4,Macaela Rangel,Seminole,58.24,79.38,49.9,102.06,231.33,Single-ply,SBD,F
Girls,60.1,5,Brigette Terrian,MCCAMEY,57.88,86.18,45.36,95.25,226.8,Single-ply,SBD,F
Girls,60.1,6,Gabby Canales,Monahans,59.33,70.31,36.29,79.38,185.97,Single-ply,SBD,F
Girls,60.1,7,Emily Valenzuela,Monahans,60.06,70.31,36.29,77.11,183.7,Single-ply,SBD,F
Girls,60.1,DQ,Maria Chacon,BROWNFIELD,57.52,,,,,Single-ply,SBD,F
Girls,60.1,DQ,Desiray Bean,BROWNFIELD,59.33,65.77,31.75,,,Single-ply,SBD,F
Girls,67.36,1,Brittany Kelly,Seminole,65.59,129.27,65.77,142.88,337.93,Single-ply,SBD,F
Girls,67.36,2,Sam Gomez,Seminole,66.59,108.86,68.04,122.47,299.37,Single-ply,SBD,F
Girls,67.36,3,Shawnee Wiseman,Pecos,65.86,115.67,58.97,122.47,297.1,Single-ply,SBD,F
Girls,67.36,4,Samantha Sanchez,ALPINE,63.96,113.4,56.7,120.2,290.3,Single-ply,SBD,F
Girls,67.36,5,Alyssa Lozano,Fort Stockton,62.69,115.67,52.16,120.2,288.03,Single-ply,SBD,F
Girls,67.36,6,Brenda Benavente,Fort Stockton,63.59,117.93,45.36,124.74,288.03,Single-ply,SBD,F
Girls,67.36,7,Monica Alvidrez,Seminole,65.77,104.33,58.97,115.67,278.96,Single-ply,SBD,F
Girls,67.36,8,Cassandra Villarreal,Fort Stockton,65.41,117.93,49.9,108.86,276.69,Single-ply,SBD,F
Girls,67.36,9,Jessica Richards,Odessa Permian,65.05,120.2,40.82,102.06,263.08,Single-ply,SBD,F
Girls,67.36,10,Selena Torres,CRANE,64.77,102.06,45.36,99.79,247.21,Single-ply,SBD,F
Girls,67.36,11,Samantha Valdez,SLATON,64.59,45.36,31.75,79.38,156.49,Single-ply,SBD,F
Girls,75.07,1,Vanessa Perez,Seminole,71.94,129.27,56.7,142.88,328.85,Single-ply,SBD,F
Girls,75.07,2,Ragan Holder,Andrews,68.31,111.13,47.63,136.08,294.84,Single-ply,SBD,F
Girls,75.07,3,Alhi Espinoza,Monahans,68.13,117.93,52.16,117.93,288.03,Single-ply,SBD,F
Girls,75.07,4,Kaela Michaelis,ALPINE,71.58,120.2,56.7,108.86,285.76,Single-ply,SBD,F
Girls,75.07,5,Georgina Benavides,Fort Stockton,73.66,117.93,54.43,104.33,276.69,Single-ply,SBD,F
Girls,75.07,6,Talia Ybarra,Andrews,70.31,124.74,47.63,97.52,269.89,Single-ply,SBD,F
Girls,75.07,7,Natalie Hernandez,Andrews,69.13,111.13,49.9,102.06,263.08,Single-ply,SBD,F
Girls,75.07,8,Keyle Pruitt,Monahans,71.85,95.25,45.36,99.79,240.4,Single-ply,SBD,F
Girls,75.07,9,Kayleen Toscano,Monahans,71.76,79.38,49.9,88.45,217.72,Single-ply,SBD,F
Girls,75.07,DQ,Alyssa Wiedrich,Andrews,69.4,,,,,Single-ply,SBD,F
Girls,75.07,DQ,Ashley Emory,CRANE,74.75,111.13,45.36,,,Single-ply,SBD,F
Girls,82.33,1,Taylor Medina #1,ALPINE,82.28,138.35,61.23,142.88,342.46,Single-ply,SBD,F
Girls,82.33,2,Liliana Urias,MCCAMEY,78.56,122.47,54.43,117.93,294.84,Single-ply,SBD,F
Girls,82.33,3,Brianna Uribe,Perryton,78.74,97.52,38.56,92.99,229.06,Single-ply,SBD,F
Girls,90.04,1,Jaci Lossie,Perryton,88.99,102.06,56.7,122.47,281.23,Single-ply,SBD,F
Girls,90.04,2,Annika De Anda,Fort Stockton,85.64,111.13,47.63,120.2,278.96,Single-ply,SBD,F
Girls,90.04,3,Destiny Perez,Seminole,86.55,113.4,49.9,106.59,269.89,Single-ply,SBD,F
Girls,90.04,4,Taylor Sikes,Monahans,83.46,68.04,47.63,77.11,192.78,Single-ply,SBD,F
Girls,100.02,1,Sara Medrano,Seminole,99.06,172.37,70.31,154.22,396.89,Single-ply,SBD,F
Girls,100.02,2,Rachel Reed,Monahans,96.43,147.42,70.31,145.15,362.87,Single-ply,SBD,F
Girls,100.02,3,Rachel Payne,SLATON,92.8,120.2,49.9,113.4,283.5,Single-ply,SBD,F
Girls,100.02,4,Monica Borunda,Perryton,97.79,115.67,52.16,111.13,278.96,Single-ply,SBD,F
Girls,100.02,5,Brianna Lujan,Seminole,96.98,117.93,47.63,111.13,276.69,Single-ply,SBD,F
Girls,100.02+,1,Daisy Macias,Perryton,137.26,170.1,70.31,174.63,415.04,Single-ply,SBD,F
Girls,100.02+,2,Keisha Natera,ALPINE,100.52,151.95,68.04,138.35,358.34,Single-ply,SBD,F
Girls,100.02+,DQ,Kristi Castillo,SLATON,113.67,120.2,52.16,,,Single-ply,SBD,F
