Division,WeightClassKg,Place,Name,Team,BodyweightKg,Best3SquatKg,Best3BenchKg,Best3DeadliftKg,TotalKg,Equipment,Event,Sex
Girls,44.23,1,Valeria Ramirez,Sonora,43.54,111.13,49.9,120.2,281.23,Single-ply,SBD,F
Girls,44.23,2,Amanda Key,Lamesa Klondike,43.54,90.72,45.36,95.25,231.33,Single-ply,SBD,F
Girls,44.23,3,Reagan Morris,Alpine,43.64,88.45,43.09,95.25,226.8,Single-ply,SBD,F
Girls,44.23,4,Jessica Paredes,Sonora,43.45,99.79,38.56,86.18,224.53,Single-ply,SBD,F
Girls,44.23,5,Brianna Barron,Muleshoe,43.73,86.18,36.29,95.25,217.72,Single-ply,SBD,F
Girls,44.23,6,Kelly Davalos,Hale Center,41.64,70.31,34.02,111.13,215.46,Single-ply,SBD,F
Girls,44.23,7,Loralei Woodard,Cross Plains,43.64,83.91,38.56,92.99,215.46,Single-ply,SBD,F
Girls,44.23,8,Lacee Gallegos,Big Lake Reagan County,40.64,81.65,31.75,86.18,199.58,Single-ply,SBD,F
Girls,44.23,DQ,Elizabeth Lopez,Abernathy,42.64,68.04,36.29,88.45,,Single-ply,SBD,F
Girls,44.23,DQ,Roxann Chavarria,Floydada,43.64,88.45,36.29,,,Single-ply,SBD,F
Girls,47.85,1,Vicky Minjarez,Seagraves,47.08,145.15,61.23,115.67,322.05,Single-ply,SBD,F
Girls,47.85,2,Madison Sullivan,Clyde,46.54,108.86,52.16,113.4,274.42,Single-ply,SBD,F
Girls,47.85,3,Serena Ayala,Tahoka,47.81,92.99,52.16,104.33,249.48,Single-ply,SBD,F
Girls,47.85,4,Carlee Daniel,Forsan,47.81,92.99,40.82,113.4,247.21,Single-ply,SBD,F
Girls,47.85,5,Omega Lujan,Kermit,47.85,106.59,43.09,97.52,247.21,Single-ply,SBD,F
Girls,47.85,6,Claudia Correa,Friona,44.27,90.72,38.56,74.84,204.12,Single-ply,SBD,F
Girls,47.85,7,Mariah De La Rosa,Crane,45.27,72.57,34.02,90.72,197.31,Single-ply,SBD,F
Girls,47.85,8,Kelsey Garza,Coahoma,47.26,68.04,29.48,79.38,176.9,Single-ply,SBD,F
Girls,47.85,DQ,Paige Chapman,Clyde,46.9,77.11,38.56,,,Single-ply,SBD,F
Girls,47.85,DQ,Bruna Sanchez,Big Lake Reagan County,45.81,113.4,40.82,,,Single-ply,SBD,F
Girls,51.94,1,Courtney Dillard,Hawley,51.26,133.81,65.77,127.01,326.59,Single-ply,SBD,F
Girls,51.94,2,Taylor Lopez,Clyde,50.26,129.27,49.9,133.81,312.98,Single-ply,SBD,F
Girls,51.94,3,Reagan Chapman,Hawley,50.98,127.01,68.04,115.67,310.71,Single-ply,SBD,F
Girls,51.94,4,Abby Narvaez,Eldorado,50.35,115.67,54.43,129.27,299.37,Single-ply,SBD,F
Girls,51.94,5,Kali Mendez,Sonora,51.07,113.4,47.63,120.2,281.23,Single-ply,SBD,F
Girls,51.94,6,Bryannah Minjarez,Seagraves,51.35,106.59,54.43,120.2,281.23,Single-ply,SBD,F
Girls,51.94,7,Kenzie Cramer,Mertzon Irion County,50.89,104.33,54.43,117.93,276.69,Single-ply,SBD,F
Girls,51.94,8,Taylor Franklin,Sundown,50.26,97.52,47.63,115.67,260.82,Single-ply,SBD,F
Girls,51.94,9,Alani Juarez,Anton,51.07,117.93,43.09,92.99,254.01,Single-ply,SBD,F
Girls,51.94,DQ,Beka Oritz,Hale Center,50.89,92.99,38.56,,,Single-ply,SBD,F
Girls,56.02,1,Leighan Allen,Hawley,55.7,165.56,79.38,140.61,385.55,Single-ply,SBD,F
Girls,56.02,2,Mattie Williams,Big Lake Reagan County,52.53,136.08,52.16,129.27,317.51,Single-ply,SBD,F
Girls,56.02,3,Annalisa Perez,Sonora,53.8,136.08,56.7,113.4,306.17,Single-ply,SBD,F
Girls,56.02,4,Monica Gonzales,Dimmitt,55.88,122.47,52.16,120.2,294.84,Single-ply,SBD,F
Girls,56.02,5,Melissa Arizpe,Floydada,55.16,102.06,49.9,124.74,276.69,Single-ply,SBD,F
Girls,56.02,6,Sahian Valenzuela,Alpine,55.43,102.06,58.97,115.67,276.69,Single-ply,SBD,F
Girls,56.02,7,Maritzza Villanueva,Sonora,55.34,111.13,45.36,117.93,274.42,Single-ply,SBD,F
Girls,56.02,8,Chelsie Gomez,Friona,53.98,124.74,45.36,102.06,272.16,Single-ply,SBD,F
Girls,56.02,9,Tara Strohl,Clyde,53.43,102.06,49.9,102.06,254.01,Single-ply,SBD,F
Girls,56.02,DQ,Gina Butler,Alpine,54.88,97.52,49.9,108.86,,Single-ply,SBD,F
Girls,56.02,DQ,Diannalisa Davila,Kermit,55.25,133.81,,,,Single-ply,SBD,F
Girls,60.1,1,Carlee Pitcher,Hawley,58.42,161.03,81.65,145.15,387.82,Single-ply,SBD,F
Girls,60.1,2,Sierra Paredez,San Angelo Grape Creek,59.42,158.76,65.77,138.35,362.87,Single-ply,SBD,F
Girls,60.1,3,Kaylah Flores,Seagraves,58.42,147.42,70.31,131.54,349.27,Single-ply,SBD,F
Girls,60.1,4,Arcie Polanco,Kermit,60.06,129.27,61.23,120.2,310.71,Single-ply,SBD,F
Girls,60.1,5,Rebekah Crockett,Cross Plains,58.6,122.47,49.9,133.81,306.17,Single-ply,SBD,F
Girls,60.1,6,Dulce Rodriguez,Ozona,57.24,136.08,45.36,122.47,303.91,Single-ply,SBD,F
Girls,60.1,7,Elizabeth Rodriguez,Ozona,59.24,117.93,45.36,122.47,285.76,Single-ply,SBD,F
Girls,60.1,8,Inez Salazar,Cross Plains,60.1,102.06,52.16,111.13,265.35,Single-ply,SBD,F
Girls,60.1,9,Hannah Cowan,Cross Plains,59.06,102.06,49.9,104.33,256.28,Single-ply,SBD,F
Girls,60.1,DQ,Sierra Kimbrell,Sonora,59.69,86.18,43.09,108.86,,Single-ply,SBD,F
Girls,60.1,DQ,Chely Esquivel,Big Lake Reagan County,59.96,120.2,,,,Single-ply,SBD,F
Girls,67.36,1,Danelle Baughman,San Angelo Grape Creek,64.68,190.51,72.57,147.42,410.5,Single-ply,SBD,F
Girls,67.36,2,Madison Watkins,Ballinger,64.95,163.29,77.11,145.15,385.55,Single-ply,SBD,F
Girls,67.36,3,Kayla Brown,Panhandle,65.77,131.54,58.97,151.95,342.46,Single-ply,SBD,F
Girls,67.36,4,Julia Pope,Sonora,66.04,138.35,61.23,142.88,342.46,Single-ply,SBD,F
Girls,67.36,5,Abby Kunkel,Ranger,64.41,129.27,58.97,149.69,337.93,Single-ply,SBD,F
Girls,67.36,6,Reagan DeHanis,Mertzon Irion County,64.14,131.54,70.31,131.54,333.39,Single-ply,SBD,F
Girls,67.36,7,Aerin Strickland,Sundown,62.14,136.08,56.7,124.74,317.51,Single-ply,SBD,F
Girls,67.36,8,Jaysa Carr,Clyde,66.32,120.2,63.5,129.27,312.98,Single-ply,SBD,F
Girls,67.36,9,Cilette Sweeney,Big Lake Reagan County,66.59,124.74,49.9,138.35,312.98,Single-ply,SBD,F
Girls,67.36,10,Veronica Dolle,Abernathy,64.95,108.86,52.16,140.61,301.64,Single-ply,SBD,F
Girls,67.36,DQ,Alondra Rodriguez,Ozona,66.13,124.74,49.9,127.01,,Single-ply,SBD,F
Girls,67.36,DQ,Maiah Jurado,Ozona,63.78,,,,,Single-ply,SBD,F
Girls,75.07,1,Angelica Fuentes,Ballinger,71.21,226.8,113.4,165.56,505.76,Single-ply,SBD,F
Girls,75.07,2,Julissa Esquivel,Sonora,72.3,149.69,70.31,145.15,365.14,Single-ply,SBD,F
Girls,75.07,3,Taryn Estes,Cross Plains,73.12,133.81,77.11,140.61,351.53,Single-ply,SBD,F
Girls,75.07,4,Larissa Vordick,San Angelo Grape Creek,68.31,142.88,63.5,131.54,337.93,Single-ply,SBD,F
Girls,75.07,5,Amber Baughman,San Angelo Grape Creek,70.76,136.08,70.31,131.54,337.93,Single-ply,SBD,F
Girls,75.07,6,Kaylee Needham,Coleman,72.12,142.88,54.43,140.61,337.93,Single-ply,SBD,F
Girls,75.07,7,Aaliyah Sneed,Hermleigh,69.85,120.2,52.16,161.03,333.39,Single-ply,SBD,F
Girls,75.07,8,Toni Huelsberg,Alpine,67.59,136.08,56.7,127.01,319.78,Single-ply,SBD,F
Girls,75.07,9,Tania Herrera,Sterling City,72.76,127.01,52.16,129.27,308.44,Single-ply,SBD,F
Girls,75.07,DQ,Kaela Michaelis,Alpine,71.21,120.2,49.9,120.2,,Single-ply,SBD,F
Girls,75.07,DQ,Salma Escamilla,Friona,73.03,124.74,54.43,115.67,,Single-ply,SBD,F
Girls,75.07,DQ,Luisa Muniz,Eldorado,75.07,142.88,56.7,,,Single-ply,SBD,F
Girls,82.33,1,Jolyn Zarate,Coleman,81.37,163.29,77.11,156.49,396.89,Single-ply,SBD,F
Girls,82.33,2,Belle Gomez,Clyde,79.74,158.76,68.04,147.42,374.21,Single-ply,SBD,F
Girls,82.33,3,Gabriela Mercado,Amarillo Highland Park,82.28,127.01,86.18,151.95,365.14,Single-ply,SBD,F
Girls,82.33,4,Hayley Ancinec,Clyde,80.74,142.88,74.84,145.15,362.87,Single-ply,SBD,F
Girls,82.33,5,Megan Powell,Eldorado,79.2,138.35,72.57,142.88,353.8,Single-ply,SBD,F
Girls,82.33,6,Kamrie Martinez,Sonora,78.74,147.42,63.5,140.61,351.53,Single-ply,SBD,F
Girls,82.33,7,Kim Borrego,Ozona,80.92,127.01,68.04,136.08,331.12,Single-ply,SBD,F
Girls,82.33,DQ,Lupita Hernandez,Friona,80.92,131.54,58.97,111.13,,Single-ply,SBD,F
Girls,82.33,DQ,Denise Rivera,Abernathy,79.65,136.08,54.43,104.33,,Single-ply,SBD,F
Girls,82.33,DQ,Taylor Medina #1,Alpine,81.19,,,,,Single-ply,SBD,F
Girls,82.33,DQ,Vanessa Ramirez,Childress,79.11,,,,,Single-ply,SBD,F
Girls,82.33,DQ,Sarah Oltivero,Dimmitt,79.83,,,,,Single-ply,SBD,F
Girls,90.04,1,Rebecca Simpson,Ballinger,88,199.58,83.91,183.7,467.2,Single-ply,SBD,F
Girls,90.04,2,Whitney Kitchen,Hawley,88.99,181.44,108.86,165.56,455.86,Single-ply,SBD,F
Girls,90.04,3,Karla Esquivel,Big Lake Reagan County,89.09,190.51,79.38,170.1,439.98,Single-ply,SBD,F
Girls,90.04,4,Noel Fierro,Sonora,86.73,161.03,88.45,129.27,378.75,Single-ply,SBD,F
Girls,90.04,5,Kenzie Conley,Sudan,88.54,138.35,56.7,165.56,360.61,Single-ply,SBD,F
Girls,90.04,6,Michelle Granado,Kermit,88.54,142.88,52.16,147.42,342.46,Single-ply,SBD,F
Girls,90.04,7,Ashley Lara,Roscoe Collegiate,86.91,136.08,58.97,133.81,328.85,Single-ply,SBD,F
Girls,90.04,8,Alyssa Zamora,Meadow,87.09,124.74,65.77,129.27,319.78,Single-ply,SBD,F
Girls,90.04,9,Grayce Riley,Denver City,89.18,138.35,52.16,129.27,319.78,Single-ply,SBD,F
Girls,90.04,10,Chelsea Morris,Clarendon,90.04,129.27,63.5,127.01,319.78,Single-ply,SBD,F
Girls,90.04,DQ,Gali Salgado,Big Lake Reagan County,87,108.86,54.43,122.47,,Single-ply,SBD,F
Girls,100.02,1,Harley Weber,Hawley,97.43,183.7,102.06,142.88,428.64,Single-ply,SBD,F
Girls,100.02,2,Vivianna Barrera,Seagraves,99.79,165.56,77.11,136.08,378.75,Single-ply,SBD,F
Girls,100.02,3,Keisha Natera,Alpine,98.52,147.42,70.31,145.15,362.87,Single-ply,SBD,F
Girls,100.02,4,Amanda Long,Hermleigh,96.98,142.88,63.5,151.95,358.34,Single-ply,SBD,F
Girls,100.02,5,Alexis Escobar,Merkel,93.44,145.15,65.77,145.15,356.07,Single-ply,SBD,F
Girls,100.02,6,Katlin Parks,Coleman,98.25,176.9,61.23,117.93,356.07,Single-ply,SBD,F
Girls,100.02,7,Kaitlyn Potter,Cross Plains,92.62,142.88,70.31,124.74,337.93,Single-ply,SBD,F
Girls,100.02,8,Taylor Parmer,Iraan,97.25,140.61,56.7,124.74,322.05,Single-ply,SBD,F
Girls,100.02,9,Rachel Payne,Slaton,93.8,122.47,61.23,117.93,301.64,Single-ply,SBD,F
Girls,100.02,DQ,Alexis Thomas,Sonora,90.36,115.67,49.9,102.06,,Single-ply,SBD,F
Girls,100.02,DQ,Valerie DeLeon,Big Lake Reagan County,98.88,195.04,,,,Single-ply,SBD,F
Girls,100.02+,1,Makayla Torres,San Angelo Grape Creek,113.85,170.1,58.97,158.76,387.82,Single-ply,SBD,F
Girls,100.02+,2,Jezebel Guerra,Plains,114.76,181.44,63.5,131.54,376.48,Single-ply,SBD,F
Girls,100.02+,3,Marissa Alarcon,Kermit,100.24,154.22,65.77,140.61,360.61,Single-ply,SBD,F
Girls,100.02+,4,Alexis Rodriguez,Ozona,101.24,136.08,61.23,136.08,333.39,Single-ply,SBD,F
Girls,100.02+,5,Karis Carstensen,Lockney,107.5,131.54,58.97,136.08,326.59,Single-ply,SBD,F
Girls,100.02+,6,Janay Leven,Panhandle,127.28,115.67,79.38,129.27,324.32,Single-ply,SBD,F
Girls,100.02+,7,Kristi Castillo,Slaton,113.31,117.93,49.9,136.08,303.91,Single-ply,SBD,F
Girls,100.02+,8,Risa Gutierrez,Roby,116.21,113.4,61.23,124.74,299.37,Single-ply,SBD,F
Girls,100.02+,9,Haley Doss,Clyde,111.4,122.47,58.97,111.13,292.57,Single-ply,SBD,F
Girls,100.02+,10,Anna Cadena,Dimmitt,116.85,97.52,52.16,124.74,274.42,Single-ply,SBD,F
