Division,WeightClassKg,Place,Name,Team,BodyweightKg,Best3SquatKg,Best3BenchKg,Best3DeadliftKg,TotalKg,Equipment,Event,Sex
Boys,51.71,1,Jarred Curtis,Post,48.53,122.47,63.5,131.54,317.51,Single-ply,SBD,M
Boys,55.79,2,Weston Hartmann,Abilene,51.89,120.2,68.04,129.27,317.51,Single-ply,SBD,M
Boys,51.71,3,Erik Gomez,Post,49.71,108.86,58.97,131.54,299.37,Single-ply,SBD,M
Boys,51.71,4,Conner Steel,Forsan,48.08,90.72,49.9,102.06,242.67,Single-ply,SBD,M
Boys,51.71,5,Callum Hurst,Coahoma,41.64,81.65,52.16,90.72,224.53,Single-ply,SBD,M
Boys,51.71,6,Corey Footer,Abilene Cooper,48.35,70.31,52.16,90.72,213.19,Single-ply,SBD,M
Boys,51.71,7,Omkar Sukhtankar,Coahoma,50.8,61.23,40.82,90.72,192.78,Single-ply,SBD,M
Boys,55.79,1,Tyler Narin,Big Spring,54.61,145.15,92.99,158.76,396.89,Single-ply,SBD,M
Boys,59.87,2,Christian Alexander,Tuscola Jim Ned,56.02,142.88,77.11,131.54,351.53,Single-ply,SBD,M
Boys,55.79,3,Nic Espinoza,Denver City,55.16,122.47,79.38,136.08,337.93,Single-ply,SBD,M
Boys,55.79,4,Andrew Flores,Abilene,52.71,111.13,65.77,120.2,297.1,Single-ply,SBD,M
Boys,55.79,5,Phillip Ballenger,Roscoe,55.16,102.06,49.9,102.06,254.01,Single-ply,SBD,M
Boys,59.87,1,Cambry Gilbert,Post,57.06,156.49,79.38,167.83,403.7,Single-ply,SBD,M
Boys,59.87,2,Colton Stoker,Abilene,59.51,151.95,79.38,127.01,358.34,Single-ply,SBD,M
Boys,59.87,3,John Iragena,Abilene Cooper,59.24,127.01,72.57,145.15,344.73,Single-ply,SBD,M
Boys,59.87,4,Jacob Lomas,Roscoe,59.06,102.06,56.7,124.74,283.5,Single-ply,SBD,M
Boys,59.87,DQ,Ryan Pearson,Forsan,58.42,,,,,Single-ply,SBD,M
Boys,67.13,1,Dante Gomez,Clyde,66.68,195.04,111.13,197.31,503.49,Single-ply,SBD,M
Boys,67.13,2,Donald Baker,Sweetwater,67.04,192.78,115.67,185.97,494.42,Single-ply,SBD,M
Boys,67.13,3,DJ Brown,Post,63.32,181.44,111.13,192.78,485.34,Single-ply,SBD,M
Boys,67.13,4,Mark Robles,Abilene Cooper,66.95,190.51,97.52,190.51,478.54,Single-ply,SBD,M
Boys,67.13,5,Tristin Cauthen,Clyde,63.32,167.83,108.86,167.83,444.52,Single-ply,SBD,M
Boys,67.13,6,Zach Longoria,Roscoe,66.32,167.83,95.25,170.1,433.18,Single-ply,SBD,M
Boys,67.13,7,Robert Martinez,Big Spring,65.41,161.03,79.38,174.63,415.04,Single-ply,SBD,M
Boys,67.13,8,Alejo Rodriguez,Post,65.86,154.22,92.99,156.49,403.7,Single-ply,SBD,M
Boys,67.13,9,Trey Harvey,Sweetwater,66.22,147.42,88.45,156.49,392.36,Single-ply,SBD,M
Boys,67.13,10,Matthew Fisher,Tuscola Jim Ned,64.32,131.54,86.18,154.22,371.95,Single-ply,SBD,M
Boys,67.13,11,Max Nemir,Sweetwater,63.78,142.88,79.38,142.88,365.14,Single-ply,SBD,M
Boys,74.84,12,Joseph Rees,Tuscola Jim Ned,67.36,136.08,70.31,154.22,360.61,Single-ply,SBD,M
Boys,67.13,13,Damin Cate,Coahoma,66.32,136.08,81.65,136.08,353.8,Single-ply,SBD,M
Boys,67.13,14,Tyler Witkowski,Coahoma,63.32,124.74,58.97,131.54,315.25,Single-ply,SBD,M
Boys,67.13,15,Branson Guelker,Sweetwater,66.95,106.59,65.77,120.2,292.57,Single-ply,SBD,M
Boys,67.13,16,Paul Ballenger,Roscoe,66.5,92.99,56.7,117.93,267.62,Single-ply,SBD,M
Boys,67.13,DQ,Jordan Chiappone,Clyde,66.59,,,,,Single-ply,SBD,M
Boys,74.84,1,Jose Rangel,Roscoe,74.3,235.87,136.08,213.19,585.13,Single-ply,SBD,M
Boys,74.84,2,Isaac Stern,Post,73.03,181.44,102.06,219.99,503.49,Single-ply,SBD,M
Boys,74.84,3,Tyler Gil,Abilene Cooper,74.3,172.37,127.01,185.97,485.34,Single-ply,SBD,M
Boys,74.84,4,Austin Marlett,Sweetwater,74.66,183.7,113.4,188.24,485.34,Single-ply,SBD,M
Boys,74.84,5,Ramon Juarez,Seminole,74.39,172.37,104.33,195.04,471.74,Single-ply,SBD,M
Boys,74.84,6,Steven Le,Sweetwater,73.66,188.24,102.06,174.63,464.93,Single-ply,SBD,M
Boys,74.84,7,Austin Grantham,Forsan,73.57,170.1,106.59,181.44,458.13,Single-ply,SBD,M
Boys,74.84,8,Damon Delacruz,Abilene,74.57,181.44,97.52,167.83,446.79,Single-ply,SBD,M
Boys,74.84,9,Daniel Salazar,Abilene,73.94,170.1,111.13,163.29,444.52,Single-ply,SBD,M
Boys,74.84,10,Christian Van Wey,Coahoma,70.49,170.1,77.11,192.78,439.98,Single-ply,SBD,M
Boys,74.84,11,Morgan Smith,Tuscola Jim Ned,73.39,156.49,102.06,181.44,439.98,Single-ply,SBD,M
Boys,74.84,12,Christian Eubanks,Clyde,67.86,151.95,83.91,181.44,417.3,Single-ply,SBD,M
Boys,74.84,13,Jalin Gilbert,Coahoma,73.84,140.61,92.99,179.17,412.77,Single-ply,SBD,M
Boys,74.84,14,Ben Singleton,Hawley,71.4,149.69,81.65,158.76,390.09,Single-ply,SBD,M
Boys,74.84,15,Matt Cisneros,Coahoma,74.03,122.47,81.65,142.88,347,Single-ply,SBD,M
Boys,82.1,1,Landon Jones,Roscoe,81.28,210.92,117.93,222.26,551.11,Single-ply,SBD,M
Boys,82.1,2,Pablo Hernandez,Abilene Cooper,81.01,190.51,131.54,213.19,535.24,Single-ply,SBD,M
Boys,82.1,3,Dakota Brewster,Clyde,75.75,204.12,131.54,197.31,532.97,Single-ply,SBD,M
Boys,82.1,4,Caden Dean,Post,80.65,188.24,122.47,183.7,494.42,Single-ply,SBD,M
Boys,82.1,5,Juan Burns,Hawley,78.29,204.12,88.45,181.44,474,Single-ply,SBD,M
Boys,82.1,6,Bryan Smith #5,Post,80.2,170.1,111.13,190.51,471.74,Single-ply,SBD,M
Boys,82.1,7,Jake Morgan,Clyde,82.1,188.24,102.06,179.17,469.47,Single-ply,SBD,M
Boys,82.1,8,Alex Garcia,Sweetwater,80.01,163.29,83.91,217.72,464.93,Single-ply,SBD,M
Boys,82.1,9,Dexter Longley,Seminole,75.48,158.76,102.06,181.44,442.25,Single-ply,SBD,M
Boys,82.1,10,Zach Garcia,Sweetwater,81.47,154.22,102.06,161.03,417.3,Single-ply,SBD,M
Boys,82.1,11,Jamen Sanchez,Coahoma,79.11,147.42,81.65,149.69,378.75,Single-ply,SBD,M
Boys,82.1,12,Dylan Jimenez,Sweetwater,79.38,145.15,79.38,145.15,369.68,Single-ply,SBD,M
Boys,99.79,1,William Coleman,Abilene Cooper,89.99,226.8,136.08,231.33,594.21,Single-ply,SBD,M
Boys,99.79,2,Aric Ramzanali,Hawley,89.9,226.8,158.76,183.7,569.26,Single-ply,SBD,M
Boys,89.81,3,Austin Rain,Clyde,83.82,208.65,127.01,226.8,562.45,Single-ply,SBD,M
Boys,89.81,4,Lane Pickett,Hawley,87.45,229.06,113.4,213.19,555.65,Single-ply,SBD,M
Boys,89.81,5,Nathaniel Gill,Post,84.37,213.19,122.47,204.12,539.77,Single-ply,SBD,M
Boys,89.81,6,Garrett Hamner,Tuscola Jim Ned,88.54,199.58,117.93,208.65,526.17,Single-ply,SBD,M
Boys,89.81,7,Miko Campos,Snyder,88.09,183.7,120.2,195.04,498.95,Single-ply,SBD,M
Boys,89.81,8,Dj Davis,Hawley,88.54,204.12,108.86,181.44,494.42,Single-ply,SBD,M
Boys,89.81,9,Dillon Burton,Clyde,83.55,190.51,97.52,204.12,492.15,Single-ply,SBD,M
Boys,89.81,10,Travis Greathouse,Post,83.37,179.17,124.74,179.17,483.08,Single-ply,SBD,M
Boys,89.81,11,Christopher Adames,Sweetwater,89.09,145.15,79.38,149.69,374.21,Single-ply,SBD,M
Boys,89.81,12,Christian Keith,Tuscola Jim Ned,86.36,136.08,72.57,154.22,362.87,Single-ply,SBD,M
Boys,99.79,DQ,Brennan Darden,Forsan,90.04,176.9,115.67,,,Single-ply,SBD,M
Boys,99.79,1,Alexis Bonilla,Abilene Cooper,99.61,201.85,156.49,213.19,571.53,Single-ply,SBD,M
Boys,99.79,2,Joe Haddad,Clyde,94.35,233.6,138.35,197.31,569.26,Single-ply,SBD,M
Boys,99.79,3,Chris Lindem,Big Spring,99.79,201.85,133.81,192.78,528.44,Single-ply,SBD,M
Boys,99.79,4,Ethan Miko,Abilene,96.8,206.38,136.08,183.7,526.17,Single-ply,SBD,M
Boys,99.79,5,Gabriel Jordan,Abilene,99.06,204.12,120.2,201.85,526.17,Single-ply,SBD,M
Boys,99.79,6,Ronnie Bell,Big Spring,92.62,197.31,108.86,210.92,517.1,Single-ply,SBD,M
Boys,99.79,7,Taylor Morin #1,Forsan,95.16,206.38,102.06,179.17,487.61,Single-ply,SBD,M
Boys,99.79,8,Austin Cantu,Big Spring,98.07,188.24,113.4,176.9,478.54,Single-ply,SBD,M
Boys,99.79,9,Cory Mendez,Sweetwater,92.99,181.44,90.72,188.24,460.4,Single-ply,SBD,M
Boys,99.79,10,Nathan Schneider,Coahoma,93.08,181.44,97.52,158.76,437.72,Single-ply,SBD,M
Boys,99.79,11,Garret Townsend,Snyder,95.98,163.29,86.18,172.37,421.84,Single-ply,SBD,M
Boys,109.77,DQ,Tanner Brown,Abilene Cooper,100.02,136.08,81.65,140.61,,Single-ply,SBD,M
Boys,109.77,1,Anthony McLendon,Abilene,104.51,238.14,154.22,226.8,619.15,Single-ply,SBD,M
Boys,109.77,2,Kendall Rea,Sweetwater,102.06,215.46,149.69,204.12,569.26,Single-ply,SBD,M
Boys,109.77,3,David Brown,Abilene,104.05,167.83,124.74,188.24,480.81,Single-ply,SBD,M
Boys,109.77,4,Kyle Rickman,Seminole,109.23,163.29,108.86,181.44,453.59,Single-ply,SBD,M
Boys,109.77,5,Tanner Underwood,Tuscola Jim Ned,106.96,170.1,86.18,158.76,415.04,Single-ply,SBD,M
Boys,109.77,DQ,Ausden Medrano,Forsan,108.68,219.99,127.01,,,Single-ply,SBD,M
Boys,124.74,1,Chantz Anderson,Abilene,112.49,281.23,149.69,208.65,639.57,Single-ply,SBD,M
Boys,124.74,2,Conner Willis,Tuscola Jim Ned,123.29,238.14,136.08,226.8,601.01,Single-ply,SBD,M
Boys,124.74,3,Aric Rutledge,Big Spring,120.02,229.06,124.74,224.53,578.33,Single-ply,SBD,M
Boys,124.74,4,Lucas Raley,Abilene Cooper,117.84,219.99,113.4,226.8,560.19,Single-ply,SBD,M
Boys,124.74,5,Evan Tate,Tuscola Jim Ned,122.47,226.8,122.47,199.58,548.85,Single-ply,SBD,M
Boys,124.74,6,Nick Irwin,Snyder,115.03,217.72,117.93,201.85,537.51,Single-ply,SBD,M
Boys,124.74,7,Aaron Steelman,Snyder,118.3,192.78,117.93,188.24,498.95,Single-ply,SBD,M
Boys,124.74,8,Mondo Martinez,Post,124.74,183.7,113.4,185.97,483.08,Single-ply,SBD,M
Boys,124.74,9,Jose Jiminez,Snyder,112.58,158.76,97.52,172.37,428.64,Single-ply,SBD,M
Boys,124.74,10,Val Presas,Big Spring,123.83,181.44,83.91,163.29,428.64,Single-ply,SBD,M
Boys,124.74+,1,Riley Owens,Abilene Cooper,133.27,272.16,140.61,238.14,650.91,Single-ply,SBD,M
Boys,124.74+,2,Anthony Drayton,Abilene,141.25,272.16,136.08,229.06,637.3,Single-ply,SBD,M
Boys,124.74+,3,Hunter Hawkins,Abilene Cooper,129.73,226.8,124.74,181.44,532.97,Single-ply,SBD,M
