Division,WeightClassKg,Place,Name,Team,BodyweightKg,Best3SquatKg,Best3BenchKg,Best3DeadliftKg,TotalKg,Equipment,Event,Sex
Boys,51.71,1,George Bankhead,Freeport Brazosport,51.53,154.22,77.11,188.24,419.57,Single-ply,SBD,M
Boys,51.71,2,Eric Covarrubias,Freeport Brazosport,49.62,70.31,47.63,97.52,215.46,Single-ply,SBD,M
Boys,55.79,1,Randy Holland,Clute Brazoswood,54.25,154.22,102.06,165.56,421.84,Single-ply,SBD,M
Boys,55.79,2,Justin Rios,Clute Brazoswood,55.79,113.4,54.43,136.08,303.91,Single-ply,SBD,M
Boys,55.79,NS,Nathaniel Walker,Hitchcock,,,,,,Single-ply,SBD,M
Boys,59.87,1,Jakob Rios,Clute Brazoswood,59.42,122.47,77.11,154.22,353.8,Single-ply,SBD,M
Boys,59.87,2,Robert Ricard,Hitchcock,58.42,92.99,63.5,92.99,249.48,Single-ply,SBD,M
Boys,59.87,3,Dylan Kilgore,Santa Fe,59.24,65.77,43.09,97.52,206.38,Single-ply,SBD,M
Boys,59.87,NS,Jesus Garcia,Hitchcock,,,,,,Single-ply,SBD,M
Boys,59.87,NS,Genaro Rangel,Santa Fe,,,,,,Single-ply,SBD,M
Boys,59.87,DQ,Eduardo Trevino,Clute Brazoswood,59.6,,,,,Single-ply,SBD,M
Boys,67.13,1,Samuel Fisher,Bay City,65.86,174.63,102.06,195.04,471.74,Single-ply,SBD,M
Boys,67.13,2,Jordan Aguilar,Clute Brazoswood,65.95,145.15,72.57,142.88,360.61,Single-ply,SBD,M
Boys,67.13,NS,David Mejias,Bay City,,,,,,Single-ply,SBD,M
Boys,67.13,NS,Cain Christian,Freeport Brazosport,,,,,,Single-ply,SBD,M
Boys,67.13,DQ,Na'Vontae Darthard,Freeport Brazosport,65.77,,,,,Single-ply,SBD,M
Boys,67.13,DQ,Nefi Hernandez,Texas City,65.77,,,,,Single-ply,SBD,M
Boys,74.84,1,John Calhoun,Texas City,68.95,165.56,117.93,165.56,449.06,Single-ply,SBD,M
Boys,74.84,2,Justin Sanders,Santa Fe,71.49,170.1,111.13,156.49,437.72,Single-ply,SBD,M
Boys,74.84,3,Tahj Edwards,Freeport Brazosport,72.94,156.49,86.18,179.17,421.84,Single-ply,SBD,M
Boys,74.84,4,Jerry Manning,Bay City,73.66,167.83,86.18,156.49,410.5,Single-ply,SBD,M
Boys,74.84,5,Eric Lucio,Bay City,71.58,158.76,83.91,136.08,378.75,Single-ply,SBD,M
Boys,82.1,6,Eric Hembling,Clute Brazoswood,75.02,133.81,72.57,165.56,371.95,Single-ply,SBD,M
Boys,74.84,7,Gabe Hernandez,Freeport Brazosport,69.4,120.2,92.99,156.49,369.68,Single-ply,SBD,M
Boys,82.1,8,Ralph Anderson,Texas City,75.02,113.4,102.06,151.95,367.41,Single-ply,SBD,M
Boys,74.84,9,Terry Godoy,Clute Brazoswood,70.13,136.08,74.84,131.54,342.46,Single-ply,SBD,M
Boys,74.84,NS,Josh Kiff,Santa Fe,,,,,,Single-ply,SBD,M
Boys,74.84,NS,Timothy Alcala,Santa Fe,,,,,,Single-ply,SBD,M
Boys,74.84,DQ,Claude Lowe,Freeport Brazosport,71.76,183.7,106.59,142.88,,Single-ply,SBD,M
Boys,74.84,DQ,Cole White,Freeport Brazosport,73.66,154.22,102.06,197.31,,Single-ply,SBD,M
Boys,74.84,DQ,Ashanti Walker,Texas City,70.94,,,,,Single-ply,SBD,M
Boys,82.1,1,Jonathan Saenz,Clute Brazoswood,80.56,226.8,117.93,192.78,537.51,Single-ply,SBD,M
Boys,82.1,2,Tj Combs,Hitchcock,80.47,172.37,122.47,215.46,510.29,Single-ply,SBD,M
Boys,82.1,3,Nathan Quintinilla,Hitchcock,79.38,170.1,90.72,154.22,415.04,Single-ply,SBD,M
Boys,82.1,4,Malik Campbell,Freeport Brazosport,77.2,142.88,104.33,158.76,405.97,Single-ply,SBD,M
Boys,82.1,5,Mathew Richardson,Hitchcock,79.2,136.08,99.79,161.03,396.89,Single-ply,SBD,M
Boys,82.1,6,Aaron Villanueva,Freeport Brazosport,76.66,136.08,72.57,151.95,360.61,Single-ply,SBD,M
Boys,82.1,7,Chad Cruse,Santa Fe,77.02,115.67,92.99,147.42,356.07,Single-ply,SBD,M
Boys,82.1,8,Sirus Kay,Freeport Brazosport,81.1,124.74,74.84,117.93,317.51,Single-ply,SBD,M
Boys,82.1,NS,David Leija,Freeport Brazosport,,,,,,Single-ply,SBD,M
Boys,82.1,NS,Blaine Creppon,Santa Fe,,,,,,Single-ply,SBD,M
Boys,82.1,NS,Mathew Walton,Santa Fe,,,,,,Single-ply,SBD,M
Boys,82.1,DQ,Chance Muskiet,Bay City,82.01,165.56,102.06,,,Single-ply,SBD,M
Boys,82.1,DQ,Raymond Gonzales #2,Bay City,80.47,174.63,,,,Single-ply,SBD,M
Boys,89.81,1,Joseph Valdez,Texas City,87.18,251.74,131.54,183.7,566.99,Single-ply,SBD,M
Boys,89.81,2,Jadon Morales,Bay City,86.55,199.58,127.01,199.58,526.17,Single-ply,SBD,M
Boys,89.81,3,Jared Fletcher,Freeport Brazosport,88.9,206.38,102.06,195.04,503.49,Single-ply,SBD,M
Boys,99.79,4,D'Vonta Hinton,Texas City,89.9,170.1,113.4,201.85,485.34,Single-ply,SBD,M
Boys,89.81,5,Chase Yates,Santa Fe,87.27,142.88,111.13,195.04,449.06,Single-ply,SBD,M
Boys,89.81,6,Adrian Ruiz,Bay City,85.64,151.95,115.67,158.76,426.38,Single-ply,SBD,M
Boys,89.81,7,Jordan Suikeniek,Santa Fe,84.1,170.1,95.25,149.69,415.04,Single-ply,SBD,M
Boys,89.81,8,Mathew Anzualda,Hitchcock,86.82,147.42,106.59,145.15,399.16,Single-ply,SBD,M
Boys,89.81,NS,Enrique Mendoza,Santa Fe,,,,,,Single-ply,SBD,M
Boys,89.81,DQ,Logan Holt,Hitchcock,85.55,165.56,,,,Single-ply,SBD,M
Boys,99.79,1,Chris Sherrill,Bay City,97.16,251.74,165.56,240.4,657.71,Single-ply,SBD,M
Boys,99.79,2,Daniel Lema,Clute Brazoswood,99.43,240.4,145.15,238.14,623.69,Single-ply,SBD,M
Boys,99.79,3,Francois Bonilla,Texas City,95.07,238.14,149.69,210.92,598.74,Single-ply,SBD,M
Boys,99.79,4,Marcus Escobedo,Hitchcock,97.52,235.87,136.08,199.58,571.53,Single-ply,SBD,M
Boys,99.79,5,Steven Gonzales,Clute Brazoswood,97.43,226.8,127.01,181.44,535.24,Single-ply,SBD,M
Boys,99.79,6,Corey Green,Freeport Brazosport,96.16,195.04,129.27,188.24,512.56,Single-ply,SBD,M
Boys,99.79,7,Colton Davis,Santa Fe,94.26,158.76,124.74,183.7,467.2,Single-ply,SBD,M
Boys,99.79,8,Daniel Martinez #15,Freeport Brazosport,96.07,161.03,95.25,142.88,399.16,Single-ply,SBD,M
Boys,99.79,9,Josh Guilder,Hitchcock,98.34,151.95,61.23,102.06,315.25,Single-ply,SBD,M
Boys,99.79,NS,Curtis Moore,Santa Fe,,,,,,Single-ply,SBD,M
Boys,99.79,NS,Ruben Garcia,Freeport Brazosport,,,,,,Single-ply,SBD,M
Boys,109.77,1,Mike Alviar,Freeport Brazosport,106.59,254.01,165.56,210.92,630.49,Single-ply,SBD,M
Boys,109.77,2,Korey Robinson,Texas City,104.96,231.33,149.69,208.65,589.67,Single-ply,SBD,M
Boys,109.77,3,JR Rodriguez,Bay City,106.68,226.8,111.13,190.51,528.44,Single-ply,SBD,M
Boys,109.77,4,Christian Vargas,Bay City,109.23,181.44,111.13,183.7,476.27,Single-ply,SBD,M
Boys,109.77,5,Zach McDonald,Santa Fe,107.68,161.03,92.99,158.76,412.77,Single-ply,SBD,M
Boys,124.74,1,Alex MacLennan,Bay City,110.31,188.24,113.4,235.87,537.51,Single-ply,SBD,M
Boys,124.74,2,Nester Mendez,Freeport Brazosport,110.04,181.44,131.54,217.72,530.7,Single-ply,SBD,M
Boys,124.74,3,Justin Burke,Texas City,112.85,215.46,90.72,199.58,505.76,Single-ply,SBD,M
Boys,124.74,4,Nick Dowdle,Bay City,110.95,174.63,99.79,183.7,458.13,Single-ply,SBD,M
Boys,124.74,5,Travis Doolittle,Santa Fe,110.04,161.03,92.99,192.78,446.79,Single-ply,SBD,M
Boys,124.74,6,Glen Ritter,Hitchcock,120.29,129.27,113.4,145.15,387.82,Single-ply,SBD,M
Boys,124.74,DQ,Keithon Herring,Texas City,116.66,190.51,136.08,,,Single-ply,SBD,M
Boys,124.74,DQ,Adrian Burton,Texas City,115.76,226.8,127.01,,,Single-ply,SBD,M
Boys,124.74+,1,Ray Madrigal,Freeport Brazosport,129.91,242.67,181.44,226.8,650.91,Single-ply,SBD,M
Boys,124.74+,2,Devvon Miles,Clute Brazoswood,159.39,201.85,127.01,226.8,555.65,Single-ply,SBD,M
Boys,124.74+,3,Gray Laskoskie,Hitchcock,155.76,199.58,149.69,204.12,553.38,Single-ply,SBD,M
Boys,124.74+,4,Cameron Duhon,Freeport Brazosport,149.41,199.58,97.52,197.31,494.42,Single-ply,SBD,M
Boys,124.74+,5,Austin Closs,Freeport Brazosport,138.62,190.51,106.59,176.9,474,Single-ply,SBD,M
Boys,124.74+,6,Eric Mills,Hitchcock,135.71,185.97,113.4,158.76,458.13,Single-ply,SBD,M
Boys,124.74+,7,Anthony Galindo,Santa Fe,133.36,142.88,129.27,181.44,453.59,Single-ply,SBD,M
Boys,124.74+,8,Bryce Wildes,Freeport Brazosport,129.09,145.15,92.99,161.03,399.16,Single-ply,SBD,M
Boys,124.74+,NS,Christian Farciert,Freeport Brazosport,,,,,,Single-ply,SBD,M
