Place,Name,BirthYear,Sex,Division,BodyweightKg,Squat1Kg,Squat2Kg,Squat3Kg,Best3SquatKg,Bench1Kg,Bench2Kg,Bench3Kg,Best3BenchKg,Deadlift1Kg,Deadlift2Kg,Deadlift3Kg,Best3DeadliftKg,TotalKg,Equipment,WeightClassKg,Event
1,Georgia Emmett,1994,F,Juniors,46.4,67.5,72.5,-75.5,72.5,35,37.5,40,40,85,90,95,95,207.5,Raw,47,SBD
1,Olivia McConnell,1991,F,Juniors,51.3,82.5,87.5,90,90,37.5,40,42.5,42.5,90,95,97.5,97.5,230,Raw,52,SBD
1,Kerri-Anne Cauchi,1996,F,Sub-Juniors,51.95,77.5,85,90,90,42.5,45,-46,45,115,123,127.5,127.5,262.5,Raw,52,SBD
1,Natalie Salm,1991,F,Juniors,56.6,107.5,117.5,120.5,120.5,65,70,73,73,112.5,120,125,125,318.5,Raw,57,SBD
2,Christine Saade,1992,F,Juniors,56.8,107.5,115,120,120,57.5,-62.5,-62.5,57.5,133,-138,-138,133,310.5,Raw,57,SBD
3,Tamara Navarro,1992,F,Juniors,57,110,115.5,118,118,50,-52.5,52.5,52.5,125,135,-148.5,135,305.5,Raw,57,SBD
1,Clair Angel,1963,F,Masters 2,56.45,-80,80,85,85,47.5,50,-52.5,50,117.5,125,130,130,265,Raw,57,SBD
1,Ariel Symon,1992,F,Juniors,61.15,120,-127.5,127.5,127.5,72.5,77.5,80,80,132.5,140,142.5,142.5,350,Raw,63,SBD
2,Brooke DeBritt,1992,F,Juniors,62.05,95,100,-105,100,62.5,67.5,70,70,110,120,-130,120,290,Raw,63,SBD
3,Brittany King,1993,F,Juniors,61.1,92.5,97.5,-100,97.5,52.5,55,-57.5,55,115,120,125,125,277.5,Raw,63,SBD
1,Mary Giffin,1972,F,Masters 1,62.45,132.5,-137.5,137.5,137.5,75,80,-82.5,80,142.5,150,155.5,155.5,373,Raw,63,SBD
2,Rikki Flanders,1970,F,Masters 1,60.85,100,107.5,112.5,112.5,57.5,60,62.5,62.5,130,135,140,140,315,Raw,63,SBD
3,Steph Radovanovic,1970,F,Masters 1,60.95,95,100,-107.5,100,60,-67.5,-67.5,60,-120,130,-135,130,290,Raw,63,SBD
1,Glenda Presutti,1956,F,Masters 2,62.15,115,122.5,-127.5,122.5,55,57.5,-60,57.5,140,150,155.5,155.5,335.5,Raw,63,SBD
1,Linda Lynch,1953,F,Masters 3,60.25,70,75,80,80,42.5,-47.5,47.5,47.5,105,110,115,115,242.5,Raw,63,SBD
1,Charlene Lee,1992,F,Juniors,70.1,117.5,124,130,130,55,60,-62.5,60,117.5,122.5,127.5,127.5,317.5,Raw,72,SBD
2,Denise Gamboa,1994,F,Juniors,71.45,105,-110,110,110,52.5,-57.5,-57.5,52.5,127.5,132.5,140,140,302.5,Raw,72,SBD
3,Nadine Tey,1992,F,Juniors,64.5,87.5,-92.5,-92.5,87.5,47.5,50,-52.5,50,100,-105,-105,100,237.5,Raw,72,SBD
1,Cass Pickard,1974,F,Masters 1,69,120,130,-137.5,130,65,-67.5,-67.5,65,165,-172.5,-172.5,165,360,Raw,72,SBD
2,Michelle Rodgers,1969,F,Masters 1,69.25,85,92.5,-95,92.5,42.5,47.5,-50,47.5,117.5,125,130,130,270,Raw,72,SBD
1,Paige White,1997,F,Sub-Juniors,82.85,107.5,115,122.5,122.5,57.5,60,62.5,62.5,145,160,170,170,355,Raw,84,SBD
2,Juliana Mazzeo,1993,F,Juniors,77.25,110,115,-117.5,115,57.5,60,62.5,62.5,120,127.5,-132.5,127.5,305,Raw,84,SBD
3,Sarah Annetts,1992,F,Juniors,80.45,85,95,-105,95,45,55,-60,55,110,117.5,-125,117.5,267.5,Raw,84,SBD
1,Yan-Fei Zhao,1995,F,Juniors,87.35,152.5,161,170,170,77.5,82.5,85,85,166,176,186,186,441,Raw,84+,SBD
2,Madelyn Harp,1993,F,Juniors,88.4,127.5,-137.5,147.5,147.5,72.5,77.5,-82.5,77.5,145,155,160,160,385,Raw,84+,SBD
3,Tiarne Augustine,1994,F,Juniors,117.8,140,-150,-150,140,80,87.5,-91,87.5,122.5,132.5,-135,132.5,360,Raw,84+,SBD
4,Alexandra Murphy-Jelley,1993,F,Juniors,90.4,105,115,-122.5,115,75,80,-85,80,-125,130,140,140,335,Raw,84+,SBD
1,Katrina Evans,1973,F,Masters 1,101.1,127.5,132.5,137.5,137.5,77.5,80.5,-82.5,80.5,137.5,-142.5,142.5,142.5,360.5,Raw,84+,SBD
1,Nicholas Viet,1995,M,Juniors,51.5,110,-120,-127.5,110,65,72.5,77.5,77.5,125,145,152.5,152.5,340,Raw,53,SBD
1,James Bullen,1992,M,Juniors,58.9,-125,125,-130,125,67.5,70,-72.5,70,135,142.5,-145,142.5,337.5,Raw,59,SBD
1,Dennis Pereira,1996,M,Sub-Juniors,65.6,152.5,160,167.5,167.5,97.5,102.5,107.5,107.5,190,202.5,211,211,486,Raw,66,SBD
1,Brandon Choo,1992,M,Juniors,65.95,172.5,-180,-180,172.5,107.5,-112.5,112.5,112.5,212.5,-220,-220,212.5,497.5,Raw,66,SBD
2,Ryan Beatty,1992,M,Juniors,64,135,145,155,155,95,105,-110,105,190,202.5,-210,202.5,462.5,Raw,66,SBD
3,Russel Perdio,1993,M,Juniors,65.3,140,145,150,150,75,80,-82.5,80,195,-207.5,212.5,212.5,442.5,Raw,66,SBD
4,Lee Yang,1991,M,Juniors,66,140,150,157.5,157.5,95,102.5,107.5,107.5,-155,162.5,-177.5,162.5,427.5,Raw,66,SBD
1,John Leung,1960,M,Masters 2,65.1,107.5,115,117.5,117.5,85,90,-95,90,137.5,145,-150,145,352.5,Raw,66,SBD
1,James Kondilios,1997,M,Sub-Juniors,73.6,175,185,-190.5,185,105,110,,110,207.5,220,,220,515,Raw,74,SBD
2,Corey Hogan,1996,M,Sub-Juniors,69.35,172.5,182.5,-190.5,182.5,-95,100,-102.5,100,180,190,200,200,482.5,Raw,74,SBD
3,Kieren Mastrolembo,1997,M,Sub-Juniors,70.45,130,140,-145,140,70,-75,77.5,77.5,160,180,185,185,402.5,Raw,74,SBD
1,John Paul Cauchi,1992,M,Juniors,73.4,205,-220,228,228,107.5,112.5,117.5,117.5,230,255,-275,255,600.5,Raw,74,SBD
2,Ali Sayed,1994,M,Juniors,72.9,172.5,185,190,190,112.5,120,125,125,190,205,212.5,212.5,527.5,Raw,74,SBD
3,Liam Kerney,1991,M,Juniors,70.45,-180,-180,180,180,110,-115,-115,110,180,195,205,205,495,Raw,74,SBD
4,Andrew Sealey,1995,M,Juniors,73.9,150,157.5,162.5,162.5,105,-110,-110,105,177.5,190,202.5,202.5,470,Raw,74,SBD
5,Wing Ho,1993,M,Juniors,72.95,132.5,140,145,145,70,-75,75,75,120,140,160,160,380,Raw,74,SBD
DQ,Angus Banh,1992,M,Juniors,72.45,160,167.5,175,175,105,112.5,117.5,117.5,-185,-185,-185,,,Raw,74,SBD
1,John Cappola,1950,M,Masters 3,73.8,135,-142.5,-142.5,135,75,82.5,-87.5,82.5,205,-222.5,-222.5,205,422.5,Raw,74,SBD
1,Geoffrey Lewis,1948,M,Masters 3,71.5,-105,-105,105,105,-77.5,77.5,80,80,140,150,-155,150,335,Raw,74,SBD
1,Alexander Cochrane-Davis,1992,M,Juniors,82.65,210,220,227.5,227.5,147.5,155,-160,155,220,235,-250,235,617.5,Raw,83,SBD
2,Byron White,1993,M,Juniors,82.8,197.5,207.5,210,210,132.5,-137.5,-137.5,132.5,237.5,250,-277.5,250,592.5,Raw,83,SBD
3,Joshua Balia,1995,M,Juniors,77.65,190,205,-215,205,110,117.5,122.5,122.5,205,220,230,230,557.5,Raw,83,SBD
4,Andrew Tang,1993,M,Juniors,80.25,170,177.5,182.5,182.5,112.5,115,117.5,117.5,235,-250,-260,235,535,Raw,83,SBD
5,Tim Davies,1992,M,Juniors,82.9,180,-192.5,192.5,192.5,105,-107.5,,105,210,230,240,240,537.5,Raw,83,SBD
6,Dean Chen,1995,M,Juniors,82.2,-192.5,195,202.5,202.5,110,-115,-115,110,220,-227.5,-227.5,220,532.5,Raw,83,SBD
7,Tim Fitzpatrick,1991,M,Juniors,80.9,180,192.5,200,200,102.5,107.5,110,110,-190,195,205,205,515,Raw,83,SBD
8,Dominic Zinghini,1992,M,Juniors,81.2,175,-185,185,185,110,-120,-120,110,210,-220,-220,210,505,Raw,83,SBD
9,Munther Al-Hinti,1994,M,Juniors,83,155,165,170,170,105,110,-115,110,210,220,-225,220,500,Raw,83,SBD
10,Owen Wright,1994,M,Juniors,81.6,162.5,170,177.5,177.5,100,105,110,110,185,-195,195,195,482.5,Raw,83,SBD
1,Prem Bajaj,1966,M,Masters 1,81.65,130,145,152.5,152.5,130,-135,135,135,170,185,192.5,192.5,480,Raw,83,SBD
1,Paul Cook,1959,M,Masters 2,81.65,165,175,180,180,95,-100,-100,95,205,215,-220,215,490,Raw,83,SBD
1,Martin Kaminsky,1996,M,Sub-Juniors,90.3,192.5,202.5,-207.5,202.5,117.5,122.5,125,125,230,251,,251,578.5,Raw,93,SBD
1,Sam Rollison,1992,M,Juniors,91.15,195,215,-222.5,215,140,150,-160,150,230,240,250,250,615,Raw,93,SBD
2,Lachlan Rickards,1992,M,Juniors,87.1,207.5,222.5,-230.5,222.5,125,132.5,137.5,137.5,225,240,-255,240,600,Raw,93,SBD
3,Jamie Smith,1992,M,Juniors,90.75,200,-207.5,207.5,207.5,125,132.5,-140,132.5,230,240,-255,240,580,Raw,93,SBD
4,Zac Fraser,1992,M,Juniors,91.05,165,180,200,200,120,127.5,-132.5,127.5,-242.5,242.5,-265.5,242.5,570,Raw,93,SBD
5,Hamish Powell,1992,M,Juniors,91.4,190,202.5,-207.5,202.5,80,90,-100,90,225,240,-252.5,240,532.5,Raw,93,SBD
6,Sheldon Lobo,1993,M,Juniors,91.4,152.5,162.5,172.5,172.5,115,122.5,125,125,192.5,202.5,210,210,507.5,Raw,93,SBD
7,Manjot Jassal,1994,M,Juniors,91.9,152.5,160,165,165,100,105,107.5,107.5,195,205,212.5,212.5,485,Raw,93,SBD
1,Gerard Belshaw,1974,M,Masters 1,92.5,190,202.5,205,205,120,125,-127.5,125,220,230,-240,230,560,Raw,93,SBD
1,Barry Wilkes,1945,M,Masters 3,84,100,110,120,120,85,95,100,100,145,160,170,170,390,Raw,93,SBD
1,Will Gardner,1996,M,Sub-Juniors,102.5,155,165,177.5,177.5,115,120,-128,120,175,192.5,-207.5,192.5,490,Raw,105,SBD
1,Jay Rovacsek,1992,M,Juniors,103.1,190,200,212.5,212.5,140,145,150,150,260,281,283,283,645.5,Raw,105,SBD
2,Rex Parsons,1994,M,Juniors,99.95,200,215,230,230,145,152.5,157.5,157.5,240,252.5,257.5,257.5,645,Raw,105,SBD
3,Dan O'Dempsey,1992,M,Juniors,102.7,225,235,245,245,135,145,-150,145,230,250,-260,250,640,Raw,105,SBD
4,Andrew Loulanting,1993,M,Juniors,101.65,200,220,235,235,130,140,-150,140,-240,255,-265,255,630,Raw,105,SBD
5,Joshua Watson,1993,M,Juniors,103,180,190,-197.5,190,125,130,135,135,250,260,-262.5,260,585,Raw,105,SBD
6,Dylan Cook,1992,M,Juniors,101.2,180,190,200,200,105,115,117.5,117.5,-230,240,250,250,567.5,Raw,105,SBD
7,Josh Pywell,1991,M,Juniors,93.7,185,195,200,200,97.5,102.5,107.5,107.5,235,-245,250,250,557.5,Raw,105,SBD
8,Andrew Whealey,1991,M,Juniors,96.6,200,-210,-210,200,120,127.5,-130,127.5,210,-222.5,-222.5,210,537.5,Raw,105,SBD
1,Mark Haureliuk,1971,M,Masters 1,104.95,200,210,-220,210,140,152.5,160,160,230,250,255,255,625,Raw,105,SBD
2,Jonathan Seymour,1964,M,Masters 2,98.65,205,217.5,-227.5,217.5,140,147.5,152.5,152.5,205,220,230,230,600,Raw,105,SBD
DQ,Edward Rutledge,1949,M,Masters 3,102.1,175,-190,190,190,100,105,-110,105,-190,-200,-200,,,Raw,105,SBD
1,Charbel Hanna,1993,M,Juniors,119.05,185,200,-205,200,110,120,-130,120,250,-270,-270,250,570,Raw,120,SBD
2,Hazem Elkheir,1991,M,Juniors,119.45,175,185,195,195,107.5,112.5,117.5,117.5,230,240,-260,240,552.5,Raw,120,SBD
1,Kelvin Aitken,1957,M,Masters 2,120,200,215,-225,215,-150,-150,150,150,270,285,,285,650,Raw,120,SBD
2,Laurence Scott,1955,M,Masters 2,117.65,220,227.5,-230,227.5,120,125,-127.5,125,250,265,-267.5,265,617.5,Raw,120,SBD
1,Daniel Butera,1991,M,Blind,107.95,190,-200,200,200,132.5,137.5,-142.5,137.5,205,215,225,225,562.5,Raw,110,SBD
1,Stefan Pizzardi,1992,M,Juniors,139.6,275,287.5,-300,287.5,132.5,145,-150,145,290,-310,-317.5,290,722.5,Raw,120+,SBD
1,Lepeka Nanai,1979,M,Blind,126.4,230,240,250,250,185,195,202.5,202.5,265,-280,-280,265,717.5,Raw,125+,SBD
1,Edwina Barton,1947,F,Masters 3,69.3,,,,,55,57.5,-60,57.5,,,,,57.5,Raw,72,B
1,Lisa Veitch,1970,F,Masters 1,151.1,,,,,70,75,80,80,,,,,80,Raw,84+,B
1,Heath Davidson,1987,M,Paralympics,55,,,,,85,87.5,-90,87.5,,,,,87.5,Raw,59,B
1,Frank Papp,1953,M,Masters 3,65.65,,,,,80,85,90,90,,,,,90,Raw,66,B
1,Vincent Patty,1964,M,Masters 2,71.7,,,,,135,140,142.5,142.5,,,,,142.5,Raw,74,B
1,Geoffrey Lewis,1948,M,Masters 3,71.5,,,,,75,80,-82.5,80,,,,,80,Raw,74,B
1,Paul Tesoriero,1987,M,Paralympics,70.3,,,,,135,140,142.5,142.5,,,,,142.5,Raw,72,B
1,Corey Kovacs,1997,M,Sub-Juniors,82.2,,,,,-125,130,132.5,132.5,,,,,132.5,Raw,83,B
1,Andrew Tang,1993,M,Juniors,80.35,,,,,110,115,-120,115,,,,,115,Raw,83,B
2,Ao Sheng Pan,1992,M,Juniors,80.75,,,,,107.5,112.5,-115,112.5,,,,,112.5,Raw,83,B
1,Prem Bajaj,1966,M,Masters 1,81.85,,,,,125,132.5,-137.5,132.5,,,,,132.5,Raw,83,B
1,Nicholas Khzouz,1996,M,Sub-Juniors,88.1,,,,,137.5,141,-150,141,,,,,141,Raw,93,B
1,Janusz Kania,1994,M,Juniors,90.85,,,,,122.5,127.5,132.5,132.5,,,,,132.5,Raw,93,B
2,Phutthasone David Keomany,1994,M,Juniors,91.9,,,,,112.5,117.5,-120,117.5,,,,,117.5,Raw,93,B
1,Barry Wilkes,1945,M,Masters 3,84.25,,,,,80,90,95,95,,,,,95,Raw,93,B
1,Rod Watson,1981,M,Paralympics,90.25,,,,,125,132.5,-135,132.5,,,,,132.5,Raw,107,B
1,Tailem Chable,1996,M,Sub-Juniors,93.55,,,,,128,135,-140,135,,,,,135,Raw,105,B
2,Will Gardner,1996,M,Sub-Juniors,101.8,,,,,120,,,120,,,,,120,Raw,105,B
1,Mark Haureliuk,1971,M,Masters 1,104.95,,,,,140,152.5,-160,152.5,,,,,152.5,Raw,105,B
2,Dave Keong,1973,M,Masters 1,103.2,,,,,147.5,155,160,160,,,,,160,Raw,105,B
1,Darrell Saul,1964,M,Masters 2,102.85,,,,,130,135,-140,135,,,,,135,Raw,105,B
1,David Parker,1951,M,Masters 3,103.4,,,,,140,145,147.5,147.5,,,,,147.5,Raw,105,B
