Division,WeightClassKg,Place,Name,Team,BodyweightKg,Best3SquatKg,Best3BenchKg,Best3DeadliftKg,TotalKg,Equipment,Event,Sex,BirthDate
Boys,51.71,1,Heath Schlottman,Mount Vernon,51.26,124.74,90.72,136.08,351.53,Single-ply,SBD,M,
Boys,51.71,2,Ethan Reynolds,Quitman,49.8,122.47,74.84,145.15,342.46,Single-ply,SBD,M,
Boys,51.71,3,Kale Roethle,Mount Vernon,50.98,122.47,58.97,142.88,324.32,Single-ply,SBD,M,
Boys,51.71,4,Hugo Sanchez,Pattonville Prairiland,49.9,124.74,70.31,111.13,306.17,Single-ply,SBD,M,
Boys,51.71,5,Nicolas Castro,Royse City,50.89,102.06,70.31,131.54,303.91,Single-ply,SBD,M,
Boys,51.71,6,Ivan Yates,Wills Point,51.71,106.59,72.57,106.59,285.76,Single-ply,SBD,M,
Boys,51.71,7,Adin McDonald,Wolfe City,48.81,106.59,52.16,113.4,272.16,Single-ply,SBD,M,
Boys,51.71,8,Jack Turner,Lone Oak,51.71,111.13,47.63,102.06,260.82,Single-ply,SBD,M,
Boys,51.71,9,Quin Barrentine,Mount Vernon,48.44,83.91,61.23,113.4,258.55,Single-ply,SBD,M,
Boys,51.71,10,Austin McCain,Sulphur Springs,44.18,90.72,43.09,95.25,229.06,Single-ply,SBD,M,
Boys,55.79,1,Bryan Rodriquez,Greenville,54.88,192.78,108.86,170.1,471.74,Single-ply,SBD,M,
Boys,55.79,2,Zachary Doyle,Royse City,55.79,199.58,92.99,167.83,460.4,Single-ply,SBD,M,
Boys,55.79,3,Peyton Knight,Melissa,54.79,183.7,102.06,163.29,449.06,Single-ply,SBD,M,
Boys,55.79,4,Alan Landazuri,Quinlan Ford,55.16,158.76,97.52,163.29,419.57,Single-ply,SBD,M,
Boys,55.79,5,Johnny Garza,Pattonville Prairiland,53.71,149.69,88.45,174.63,412.77,Single-ply,SBD,M,
Boys,55.79,6,Julio Ramirez,Lone Oak,55.61,176.9,74.84,140.61,392.36,Single-ply,SBD,M,
Boys,55.79,7,Mariano Manriquez-Lara,Quitman,53.71,145.15,77.11,142.88,365.14,Single-ply,SBD,M,
Boys,55.79,8,Ruger Cates,Wills Point,55.79,142.88,74.84,138.35,356.07,Single-ply,SBD,M,
Boys,55.79,9,Jace Newkirk,Lone Oak,53.98,127.01,58.97,124.74,310.71,Single-ply,SBD,M,
Boys,55.79,DQ,Khameron Nixon,Greenville,53.07,,,,,Single-ply,SBD,M,
Boys,55.79,DQ,Robert Morin,Wills Point,53.07,,,,,Single-ply,SBD,M,
Boys,55.79,DQ,Hiker Ramirez,Commerce,55.79,145.15,,,,Single-ply,SBD,M,
Boys,55.79,DQ,Leonal Padron,Quinlan Ford,55.16,163.29,,,,Single-ply,SBD,M,
Boys,55.79,DQ,Mark Farar,Honey Grove,54.7,124.74,,,,Single-ply,SBD,M,
Boys,55.79,DQ,Tyler Garner,Honey Grove,53.07,124.74,,,,Single-ply,SBD,M,
Boys,59.87,1,Ethan Adair,Lone Oak,59.51,195.04,111.13,165.56,471.74,Single-ply,SBD,M,
Boys,59.87,2,Blayce Lassiter,Paris North Lamar,59.24,197.31,83.91,174.63,455.86,Single-ply,SBD,M,
Boys,59.87,3,Jaymichael Harris,Greenville,57.97,181.44,92.99,170.1,444.52,Single-ply,SBD,M,
Boys,59.87,4,Kasen Haynes,Lone Oak,59.24,190.51,92.99,156.49,439.98,Single-ply,SBD,M,
Boys,59.87,5,Kyle Amos,Commerce,59.87,165.56,86.18,167.83,419.57,Single-ply,SBD,M,
Boys,59.87,6,Kole Barrentine,Mount Vernon,59.6,145.15,92.99,165.56,403.7,Single-ply,SBD,M,
Boys,59.87,7,Luke Elrod,Paris North Lamar,56.88,140.61,83.91,158.76,383.29,Single-ply,SBD,M,
Boys,59.87,8,Keane Ortega,Sadler S & S Cons,58.51,138.35,77.11,163.29,378.75,Single-ply,SBD,M,
Boys,59.87,9,Vandon Lassiter,Paris North Lamar,56.88,158.76,77.11,140.61,376.48,Single-ply,SBD,M,
Boys,59.87,10,Myles Williams,Melissa,59.24,136.08,88.45,151.95,376.48,Single-ply,SBD,M,
Boys,59.87,11,Alonzo Torres,Mount Vernon,58.06,136.08,83.91,154.22,374.21,Single-ply,SBD,M,
Boys,59.87,12,Xavier Bollin,Leonard,57.33,136.08,86.18,136.08,358.34,Single-ply,SBD,M,
Boys,59.87,13,Renard Mateo,Mineola,58.69,124.74,72.57,151.95,349.27,Single-ply,SBD,M,
Boys,59.87,14,Isreal Ramirez,Emory Rains,57.88,117.93,61.23,115.67,294.84,Single-ply,SBD,M,
Boys,67.13,1,Jesse Carrillo,Sulphur Springs,66.59,208.65,124.74,204.12,537.51,Single-ply,SBD,M,
Boys,67.13,2,Hayden Justice,Paris North Lamar,65.68,219.99,117.93,183.7,521.63,Single-ply,SBD,M,
Boys,67.13,3,Alejandro Vasquez,Greenville,66.13,213.19,102.06,188.24,503.49,Single-ply,SBD,M,
Boys,67.13,4,River Chaney,Quitman,66.77,192.78,108.86,190.51,492.15,Single-ply,SBD,M,
Boys,67.13,5,Brice Dennis,Royse City,65.77,183.7,95.25,206.38,485.34,Single-ply,SBD,M,
Boys,67.13,6,Ethan Fort,Lone Oak,66.41,217.72,88.45,174.63,480.81,Single-ply,SBD,M,
Boys,67.13,7,Josh Barlagna,Leonard,64.68,185.97,115.67,167.83,469.47,Single-ply,SBD,M,
Boys,67.13,8,James Gatson,Melissa,63.59,181.44,90.72,192.78,464.93,Single-ply,SBD,M,
Boys,67.13,9,Jose Arzola,Mount Vernon,64.86,172.37,113.4,179.17,464.93,Single-ply,SBD,M,
Boys,67.13,10,Kollin Moss,Royse City,63.59,197.31,97.52,163.29,458.13,Single-ply,SBD,M,
Boys,67.13,11,Bryan Morris,Quitman,66.5,188.24,90.72,172.37,451.32,Single-ply,SBD,M,
Boys,67.13,12,Juan Hernandez,Sulphur Springs,64.86,181.44,81.65,183.7,446.79,Single-ply,SBD,M,
Boys,67.13,13,Greg Turner,Leonard,66.22,185.97,86.18,172.37,444.52,Single-ply,SBD,M,
Boys,67.13,14,Jeffrey Boyd,Melissa,65.14,170.1,102.06,170.1,442.25,Single-ply,SBD,M,
Boys,67.13,15,Conner Smith,Commerce,66.59,167.83,102.06,170.1,439.98,Single-ply,SBD,M,
Boys,67.13,16,Darwin Acosta,Quinlan Ford,61.14,172.37,86.18,167.83,426.38,Single-ply,SBD,M,
Boys,67.13,17,Hayden Bohme,Royse City,65.59,170.1,79.38,161.03,410.5,Single-ply,SBD,M,
Boys,67.13,18,Ben Cagle,Wolfe City,62.23,170.1,97.52,129.27,396.89,Single-ply,SBD,M,
Boys,67.13,19,Abel Moreno,Pattonville Prairiland,64.68,151.95,79.38,163.29,394.63,Single-ply,SBD,M,
Boys,67.13,20,Blake Smith,Sadler S & S Cons,63.87,147.42,72.57,172.37,392.36,Single-ply,SBD,M,
Boys,67.13,21,Hunter Kline,Quitman,64.95,154.22,95.25,140.61,390.09,Single-ply,SBD,M,
Boys,67.13,22,Gavin Majdan,Melissa,63.5,142.88,88.45,149.69,381.02,Single-ply,SBD,M,
Boys,67.13,23,Leon Wright,Wills Point,63.96,138.35,88.45,147.42,374.21,Single-ply,SBD,M,
Boys,67.13,24,Brayden McCormick,Paris North Lamar,65.14,145.15,72.57,136.08,353.8,Single-ply,SBD,M,
Boys,67.13,25,Josh Colvert,Wolfe City,65.5,124.74,68.04,133.81,326.59,Single-ply,SBD,M,
Boys,67.13,26,Sebastian Letterman,Quitman,67.04,102.06,52.16,117.93,272.16,Single-ply,SBD,M,
Boys,67.13,DQ,Joey Mecaskey,Pattonville Prairiland,66.04,,,,,Single-ply,SBD,M,
Boys,67.13,DQ,Ryan Kvapil,Wills Point,65.41,,,,,Single-ply,SBD,M,
Boys,67.13,DQ,Cole Hahn,Lone Oak,65.5,,,,,Single-ply,SBD,M,
Boys,74.84,1,Joe McCallum,Lone Oak,74.84,272.16,124.74,219.99,616.89,Single-ply,SBD,M,
Boys,74.84,2,Jose Acosta,Quinlan Ford,73.48,235.87,131.54,206.38,573.79,Single-ply,SBD,M,
Boys,74.84,3,Nathan Young,Lone Oak,71.4,201.85,111.13,199.58,512.56,Single-ply,SBD,M,
Boys,74.84,4,Gage Moore,Sadler S & S Cons,73.66,192.78,117.93,201.85,512.56,Single-ply,SBD,M,
Boys,74.84,5,Korrighan Smith,Commerce,71.3,192.78,117.93,197.31,508.02,Single-ply,SBD,M,
Boys,74.84,6,Sam Mitchum,Royse City,73.3,179.17,117.93,190.51,487.61,Single-ply,SBD,M,
Boys,74.84,7,Joey Baggs,Sadler S & S Cons,71.49,188.24,104.33,190.51,483.08,Single-ply,SBD,M,
Boys,74.84,8,Wyatt Hightower,Quitman,71.4,190.51,117.93,165.56,474,Single-ply,SBD,M,
Boys,74.84,9,Zak Adams,Wills Point,72.21,172.37,102.06,170.1,444.52,Single-ply,SBD,M,
Boys,74.84,10,Brenden Fink,Sulphur Springs,70.03,167.83,99.79,172.37,439.98,Single-ply,SBD,M,
Boys,74.84,11,Jacoby Brown,Royse City,69.22,170.1,81.65,181.44,433.18,Single-ply,SBD,M,
Boys,74.84,12,Silvano Castillo,Quitman,73.12,158.76,99.79,167.83,426.38,Single-ply,SBD,M,
Boys,74.84,13,Jimmy Songer,Lone Oak,74.12,167.83,74.84,174.63,417.3,Single-ply,SBD,M,
Boys,74.84,14,Lane Cornmesser,Pattonville Prairiland,71.12,142.88,88.45,163.29,394.63,Single-ply,SBD,M,
Boys,74.84,15,Colby McSpedden,Sadler S & S Cons,68.13,142.88,72.57,165.56,381.02,Single-ply,SBD,M,
Boys,74.84,16,Brennan Gard,Quinlan Boles,72.76,140.61,70.31,154.22,365.14,Single-ply,SBD,M,
Boys,74.84,17,Daniel Quinonez,Royse City,73.21,131.54,68.04,158.76,358.34,Single-ply,SBD,M,
Boys,74.84,18,Wheeler Hayes,Sherman Texoma Christian School,70.67,74.84,43.09,102.06,219.99,Single-ply,SBD,M,
Boys,74.84,DQ,Cj Faulkner,Honey Grove,69.58,,,,,Single-ply,SBD,M,
Boys,74.84,DQ,Gavin Watts,Pattonville Prairiland,71.67,197.31,,,,Single-ply,SBD,M,
Boys,82.1,1,Gage Mauch,Lone Oak,81.56,249.48,138.35,210.92,598.74,Single-ply,SBD,M,
Boys,82.1,2,Colton Gable,Emory Rains,77.84,229.06,122.47,219.99,571.53,Single-ply,SBD,M,
Boys,82.1,3,Ryan Carrillo #2,Sulphur Springs,80.29,229.06,142.88,199.58,571.53,Single-ply,SBD,M,
Boys,82.1,4,Blake Hollingsworth,Mount Vernon,80.47,215.46,104.33,210.92,530.7,Single-ply,SBD,M,
Boys,82.1,5,Caden Hoefar,Lone Oak,80.74,210.92,122.47,197.31,530.7,Single-ply,SBD,M,
Boys,82.1,6,Caleb Robb,Royse City,80.29,199.58,122.47,204.12,526.17,Single-ply,SBD,M,
Boys,82.1,7,Joel Martinez,Mount Vernon,82.1,195.04,113.4,215.46,523.9,Single-ply,SBD,M,
Boys,82.1,8,Anthony Martinez,Wills Point,76.48,215.46,106.59,192.78,514.83,Single-ply,SBD,M,
Boys,82.1,9,Matthew Mitchell,Sulphur Springs,77.47,208.65,108.86,195.04,512.56,Single-ply,SBD,M,
Boys,82.1,10,John Wheeler,Leonard,79.47,181.44,127.01,195.04,503.49,Single-ply,SBD,M,
Boys,82.1,11,Dalton Doyle,Leonard,80.56,188.24,111.13,192.78,492.15,Single-ply,SBD,M,
Boys,82.1,12,Wyatt Smithson,Sulphur Springs,80.56,215.46,104.33,170.1,489.88,Single-ply,SBD,M,
Boys,82.1,13,Henry Serrano,Commerce,80.92,188.24,106.59,181.44,476.27,Single-ply,SBD,M,
Boys,82.1,14,Questyn Dunlap,Mount Vernon,80.47,197.31,65.77,210.92,474,Single-ply,SBD,M,
Boys,82.1,15,Caleb Miller,Quinlan Boles,76.93,142.88,74.84,147.42,365.14,Single-ply,SBD,M,
Boys,82.1,16,Angel Beruman,Quinlan Boles,77.56,136.08,61.23,136.08,333.39,Single-ply,SBD,M,
Boys,82.1,DQ,Aaron Carillo,Quinlan Ford,75.57,,,,,Single-ply,SBD,M,
Boys,82.1,DQ,Logan McClunn,Sulphur Springs,78.83,142.88,,,,Single-ply,SBD,M,
Boys,89.81,1,George Greenway,Sulphur Springs,87.27,319.78,142.88,263.08,725.75,Single-ply,SBD,M,
Boys,89.81,2,Griffin Merillat,Royse City,88.9,254.01,165.56,215.46,635.03,Single-ply,SBD,M,
Boys,89.81,3,Dax Ogden,Melissa,87,235.87,131.54,210.92,578.33,Single-ply,SBD,M,
Boys,89.81,4,Josh Hendricks,Royse City,86.18,210.92,136.08,226.8,573.79,Single-ply,SBD,M,
Boys,89.81,5,Jayvin Rodriguez,Melissa,88.81,217.72,136.08,181.44,535.24,Single-ply,SBD,M,
Boys,89.81,6,Kody Kerr,Sadler S & S Cons,89.63,226.8,106.59,195.04,528.44,Single-ply,SBD,M,
Boys,89.81,7,Wade Rouser,Lone Oak,83.01,204.12,115.67,192.78,512.56,Single-ply,SBD,M,
Boys,89.81,8,Jacen Gray,Royse City,88.9,190.51,102.06,192.78,485.34,Single-ply,SBD,M,
Boys,89.81,9,Granger Ervin,Pattonville Prairiland,87.63,185.97,95.25,190.51,471.74,Single-ply,SBD,M,
Boys,89.81,10,Lance Riley,Melissa,85.46,181.44,97.52,172.37,451.32,Single-ply,SBD,M,
Boys,89.81,11,Jacob Stanbough,Wills Point,86.36,158.76,133.81,154.22,446.79,Single-ply,SBD,M,
Boys,89.81,12,Jake Reynolds,Sadler S & S Cons,84.01,190.51,79.38,172.37,442.25,Single-ply,SBD,M,
Boys,89.81,13,Peyton Rainbolt,Lone Oak,88.54,188.24,99.79,154.22,442.25,Single-ply,SBD,M,
Boys,89.81,14,William Pasalich,Wills Point,85.28,172.37,86.18,181.44,439.98,Single-ply,SBD,M,
Boys,89.81,15,Dakoda Coleman,Quinlan Boles,83.46,161.03,97.52,163.29,421.84,Single-ply,SBD,M,
Boys,89.81,16,Kristofer Miranda,Pattonville Prairiland,82.46,145.15,95.25,149.69,390.09,Single-ply,SBD,M,
Boys,89.81,17,Weldon Dean-Vazquez,Royse City,89.63,133.81,61.23,154.22,349.27,Single-ply,SBD,M,
Boys,89.81,DQ,Jonny Knighton,Emory Rains,86.36,199.58,,,,Single-ply,SBD,M,
Boys,89.81,DQ,Giancarlos Belteton,Greenville,86.64,267.62,174.63,,,Single-ply,SBD,M,
Boys,99.79,1,Tucker Momon,Greenville,90.72,281.23,158.76,310.71,750.7,Single-ply,SBD,M,
Boys,99.79,2,Kaden Roden,Quinlan Ford,95.71,226.8,158.76,208.65,594.21,Single-ply,SBD,M,
Boys,99.79,3,Chad Maynard,Sulphur Springs,96.43,249.48,129.27,204.12,582.87,Single-ply,SBD,M,
Boys,99.79,4,Kobe Kendrick,Mineola,92.9,222.26,120.2,226.8,569.26,Single-ply,SBD,M,
Boys,99.79,5,Edgar Aguilar,Sadler S & S Cons,90.99,208.65,117.93,231.33,557.92,Single-ply,SBD,M,
Boys,99.79,6,Justin Mays,Melissa,93.89,231.33,122.47,204.12,557.92,Single-ply,SBD,M,
Boys,99.79,7,Omahri Davis,Commerce,93.71,197.31,117.93,231.33,546.58,Single-ply,SBD,M,
Boys,99.79,8,Chance Knight,Commerce,99.79,226.8,104.33,204.12,535.24,Single-ply,SBD,M,
Boys,99.79,9,Kaden Wallace,Sulphur Springs,96.71,181.44,129.27,204.12,514.83,Single-ply,SBD,M,
Boys,99.79,10,Brayden Harris,Leonard,97.07,231.33,106.59,172.37,510.29,Single-ply,SBD,M,
Boys,99.79,11,Landon Bailey,Pattonville Prairiland,94.17,188.24,127.01,183.7,498.95,Single-ply,SBD,M,
Boys,99.79,12,Aiden Rose,Royse City,96.98,181.44,104.33,210.92,496.68,Single-ply,SBD,M,
Boys,99.79,13,Richard Jackson,Commerce,93.44,192.78,115.67,183.7,492.15,Single-ply,SBD,M,
Boys,99.79,14,Roman Gonzalez,Quinlan Ford,93.26,204.12,102.06,176.9,483.08,Single-ply,SBD,M,
Boys,99.79,15,Andy Medina,Wolfe City,91.17,185.97,117.93,172.37,476.27,Single-ply,SBD,M,
Boys,99.79,16,Corbin Branham,Pattonville Prairiland,93.08,165.56,95.25,197.31,458.13,Single-ply,SBD,M,
Boys,99.79,17,Maverick Brown,Paris North Lamar,94.98,167.83,104.33,158.76,430.91,Single-ply,SBD,M,
Boys,99.79,18,Remington Brown,Paris North Lamar,93.08,154.22,99.79,161.03,415.04,Single-ply,SBD,M,
Boys,99.79,19,Kolton Crawford,Emory Rains,90.17,163.29,77.11,170.1,410.5,Single-ply,SBD,M,
Boys,99.79,20,Collin Howe,Royse City,97.98,127.01,70.31,163.29,360.61,Single-ply,SBD,M,
Boys,99.79,21,Koda Kiser,Royse City,91.08,120.2,65.77,138.35,324.32,Single-ply,SBD,M,
Boys,99.79,22,Hunter Olivarez,Emory Rains,95.71,124.74,63.5,111.13,299.37,Single-ply,SBD,M,
Boys,109.77,1,Colt Cooper,Quinlan Ford,100.33,294.84,172.37,272.16,739.36,Single-ply,SBD,M,
Boys,109.77,2,Kamron Rogers,Leonard,109.32,285.76,138.35,226.8,650.91,Single-ply,SBD,M,
Boys,109.77,3,Corjohnta Dunbar,Commerce,103.69,226.8,145.15,238.14,610.08,Single-ply,SBD,M,
Boys,109.77,4,Kaleb Barton,Mineola,100.52,256.28,115.67,213.19,585.13,Single-ply,SBD,M,
Boys,109.77,5,Jaden Luhn,Lone Oak,108.68,249.48,120.2,213.19,582.87,Single-ply,SBD,M,
Boys,109.77,6,Trevian Sneed,Mineola,103.51,226.8,117.93,231.33,576.06,Single-ply,SBD,M,
Boys,109.77,7,Daniel Jimenez,Greenville,105.96,231.33,124.74,204.12,560.19,Single-ply,SBD,M,
Boys,109.77,8,Jordon Montalvo,Emory Rains,100.88,224.53,124.74,208.65,557.92,Single-ply,SBD,M,
Boys,109.77,9,Hayden Taylor #3,Wills Point,102.06,215.46,124.74,210.92,551.11,Single-ply,SBD,M,
Boys,109.77,10,Hunter Huggins,Quitman,106.41,229.06,106.59,213.19,548.85,Single-ply,SBD,M,
Boys,109.77,11,Somjai Pryor,Sulphur Springs,101.06,199.58,115.67,199.58,514.83,Single-ply,SBD,M,
Boys,109.77,12,Braden Howerton,Royse City,106.41,199.58,97.52,183.7,480.81,Single-ply,SBD,M,
Boys,109.77,13,Hayden Batchelder,Quitman,104.42,199.58,99.79,161.03,460.4,Single-ply,SBD,M,
Boys,109.77,14,Jasper Northcutt,Wolfe City,108.68,199.58,104.33,154.22,458.13,Single-ply,SBD,M,
Boys,109.77,15,Jaden Wilson,Honey Grove,100.24,183.7,102.06,170.1,455.86,Single-ply,SBD,M,
Boys,109.77,16,Ian Carrion,Royse City,106.68,176.9,83.91,183.7,444.52,Single-ply,SBD,M,
Boys,109.77,17,Corbin Brantley,Mount Vernon,101.42,181.44,97.52,151.95,430.91,Single-ply,SBD,M,
Boys,109.77,18,Bryson Braley,Honey Grove,108.41,154.22,97.52,174.63,426.38,Single-ply,SBD,M,
Boys,109.77,19,Devontae McGarity,Wolfe City,106.78,181.44,90.72,131.54,403.7,Single-ply,SBD,M,
Boys,109.77,20,Adin Uvina,Royse City,103.87,142.88,79.38,176.9,399.16,Single-ply,SBD,M,
Boys,109.77,21,Randen Martin,Wolfe City,108.68,129.27,129.27,138.35,396.89,Single-ply,SBD,M,
Boys,109.77,DQ,Keiran Phounsath,Royse City,108.68,215.46,,,,Single-ply,SBD,M,
Boys,109.77,DQ,Roy Gaffney,Commerce,102.78,,,,,Single-ply,SBD,M,
Boys,124.74,1,Daniel Bueno,Greenville,112.58,299.37,145.15,244.94,689.46,Single-ply,SBD,M,
Boys,124.74,2,Nick Calais,Royse City,124.28,294.84,170.1,217.72,682.66,Single-ply,SBD,M,
Boys,124.74,3,Jacob Gonzales,Wills Point,120.2,260.82,170.1,249.48,680.39,Single-ply,SBD,M,
Boys,124.74,4,Anthony Peak,Commerce,120.93,272.16,170.1,226.8,669.05,Single-ply,SBD,M,
Boys,124.74,5,KeJuan Fite,Mineola,122.56,281.23,142.88,226.8,650.91,Single-ply,SBD,M,
Boys,124.74,6,Alex Rodriguez,Greenville,121.38,290.3,145.15,204.12,639.57,Single-ply,SBD,M,
Boys,124.74,7,Canyon Cooksey,Wolfe City,111.67,272.16,138.35,195.04,605.55,Single-ply,SBD,M,
Boys,124.74,8,Raydon McCormack,Sulphur Springs,115.39,272.16,124.74,208.65,605.55,Single-ply,SBD,M,
Boys,124.74,9,Alan Quinones,Mount Vernon,123.38,256.28,136.08,206.38,598.74,Single-ply,SBD,M,
Boys,124.74,10,Ty Jacobs,Emory Rains,118.84,260.82,131.54,197.31,589.67,Single-ply,SBD,M,
Boys,124.74,11,Noah Howell,Commerce,119.11,226.8,120.2,210.92,557.92,Single-ply,SBD,M,
Boys,124.74,12,Braeden Wilkins,Paris North Lamar,121.29,226.8,127.01,204.12,557.92,Single-ply,SBD,M,
Boys,124.74,13,Brandon James,Quinlan Ford,115.39,240.4,113.4,201.85,555.65,Single-ply,SBD,M,
Boys,124.74,14,Everett Stapleton,Commerce,119.57,226.8,113.4,213.19,553.38,Single-ply,SBD,M,
Boys,124.74,15,Zander Gonzales,Melissa,123.92,244.94,127.01,176.9,548.85,Single-ply,SBD,M,
Boys,124.74,16,Bryce Hollenshead,Paris North Lamar,116.12,224.53,120.2,192.78,537.51,Single-ply,SBD,M,
Boys,124.74,17,Dawson Elmore,Mineola,116.21,226.8,127.01,174.63,528.44,Single-ply,SBD,M,
Boys,124.74,18,Matt Billmeier,Sadler S & S Cons,113.58,204.12,136.08,181.44,521.63,Single-ply,SBD,M,
Boys,124.74,19,Anthony Wilson,Emory Rains,120.11,188.24,117.93,197.31,503.49,Single-ply,SBD,M,
Boys,124.74,20,Collin Mills,Leonard,116.57,181.44,136.08,151.95,469.47,Single-ply,SBD,M,
Boys,124.74,21,Jason Hayes,Sadler S & S Cons,117.21,165.56,113.4,151.95,430.91,Single-ply,SBD,M,
Boys,124.74,DQ,Ethan Thomas,Sadler S & S Cons,118.3,238.14,,,,Single-ply,SBD,M,
Boys,124.74+,1,Anthony Cork,Commerce,134.04,278.96,176.9,238.14,694,Single-ply,SBD,M,
Boys,124.74+,2,Quinton Johnson,Mount Vernon,134.35,265.35,131.54,249.48,646.37,Single-ply,SBD,M,
Boys,124.74+,3,Brandon Ward,Melissa,129.91,272.16,117.93,206.38,596.47,Single-ply,SBD,M,
Boys,124.74+,4,Anthony Penas,Quinlan Ford,136.98,244.94,147.42,201.85,594.21,Single-ply,SBD,M,
Boys,124.74+,5,Jackson Anderson,Mineola,132.81,238.14,117.93,210.92,566.99,Single-ply,SBD,M,
Boys,124.74+,6,James Robles,Greenville,129.09,219.99,120.2,181.44,521.63,Single-ply,SBD,M,
Boys,124.74+,7,Dylon Wheeler,Royse City,141.97,204.12,111.13,183.7,498.95,Single-ply,SBD,M,
Boys,124.74+,8,Dayne Kelley,Sherman Texoma Christian School,126.19,204.12,122.47,170.1,496.68,Single-ply,SBD,M,
Boys,124.74+,DQ,Garrick Felsberg,Paris North Lamar,131.63,199.58,,,,Single-ply,SBD,M,
