Name,WeightClassKg,Event,Sex,Division,AgeRange,Best3SquatKg,Best3BenchKg,Best3DeadliftKg,TotalKg,Equipment,Place
T. Vo,67.5,B,M,Open,,,127.5,,127.5,Single-ply,1
G. Reidy,67.5,B,M,Open,,,122.5,,122.5,Single-ply,2
Carlos Moreno #1,67.5,B,M,Open,,,117.5,,117.5,Single-ply,3
R. Thompson,75,B,M,Open,,,132.5,,132.5,Single-ply,1
Dan Shattuck,82.5,B,M,Open,,,190,,190,Single-ply,1
E. Virella,82.5,B,M,Open,,,180,,180,Single-ply,2
A. Vogel,82.5,B,M,Open,,,177.5,,177.5,Single-ply,3
B. Shaw,82.5,B,M,Open,,,152.5,,152.5,Single-ply,4
G. Womack,82.5,B,M,Open,,,127.5,,127.5,Single-ply,5
Ed Wilkinson,90,B,M,Open,,,202.5,,202.5,Single-ply,1
P. Lozano,90,B,M,Open,,,165,,165,Single-ply,2
J. West,90,B,M,Open,,,160,,160,Single-ply,3
R. Stansfield,90,B,M,Open,,,157.5,,157.5,Single-ply,4
Cody Weiser,90,B,M,Open,,,145,,145,Single-ply,5
T. Touchstone,100,B,M,Open,,,225,,225,Single-ply,1
Tim Bruner,100,B,M,Open,,,210,,210,Single-ply,2
F. Silva,100,B,M,Open,,,175,,175,Single-ply,3
L. Hagues,100,B,M,Open,,,162.5,,162.5,Single-ply,4
M. Blankely,110,B,M,Open,,,230,,230,Single-ply,1
M. Mills,110,B,M,Open,,,227.5,,227.5,Single-ply,2
G. Pothorich,110,B,M,Open,,,205,,205,Single-ply,3
V. Florence,110,B,M,Open,,,185,,185,Single-ply,4
M. Thompson,110,B,M,Open,,,177.5,,177.5,Single-ply,5
Tony Cardella,110,B,M,Open,,,172.5,,172.5,Single-ply,6
R. Jackson,110,B,M,Open,,,167.5,,167.5,Single-ply,7
Paul Springer,125,B,M,Open,,,277.5,,277.5,Single-ply,1
K. Coble,125,B,M,Open,,,195,,195,Single-ply,2
T. Perzigian,125,B,M,Open,,,182.5,,182.5,Single-ply,3
Stephen Woelk,125+,B,M,Open,,,230,,230,Single-ply,1
David McCaskill,125+,B,M,Open,,,212.5,,212.5,Single-ply,2
S. Bruce,125+,B,M,Open,,,207.5,,207.5,Single-ply,3
M. Camacho,82.5,B,M,Masters 40+,40-999,,170,,170,Single-ply,1
Daniel de Los Santos,110,B,M,Masters 40+,40-999,,180,,180,Single-ply,1
A. Wood,110,B,M,Masters 40+,40-999,,167.5,,167.5,Single-ply,2
D. Sanford,56,B,F,Open,,,47.5,,47.5,Single-ply,1
D. Cole,60,B,F,Open,,,52.5,,52.5,Single-ply,1
J. Vasquez,67.5,SBD,M,Below Class I,,150,117.5,172.5,440,Single-ply,1
S. Deviney,67.5,SBD,M,Below Class I,,142.5,95,172.5,410,Single-ply,2
R. Thompson,75,SBD,M,Below Class I,,255,132.5,282.5,670,Single-ply,1
M. Hardin,75,SBD,M,Below Class I,,190,115,245,550,Single-ply,2
J. Anding,82.5,SBD,M,Below Class I,,237.5,142.5,245,625,Single-ply,1
D. Jensen,82.5,SBD,M,Below Class I,,217.5,137.5,255,610,Single-ply,2
B. Reyes,82.5,SBD,M,Below Class I,,162.5,125,185,472.5,Single-ply,3
J. Katz,90,SBD,M,Below Class I,,205,160,220,585,Single-ply,1
J. West,90,SBD,M,Below Class I,,200,160,220,580,Single-ply,2
R. Stansfield,90,SBD,M,Below Class I,,177.5,157.5,200,535,Single-ply,3
R. Garcia,90,SBD,M,Below Class I,,190,127.5,187.5,505,Single-ply,4
C. Turco,100,SBD,M,Below Class I,,260,137.5,250,647.5,Single-ply,1
J. Lasch,100,SBD,M,Below Class I,,172.5,157.5,227.5,557.5,Single-ply,2
J. Ray,100,SBD,M,Below Class I,,215,112.5,205,532.5,Single-ply,3
F. Mata,100,SBD,M,Below Class I,,190,115,205,510,Single-ply,4
R. Lopez,110,SBD,M,Below Class I,,287.5,177.5,245,710,Single-ply,1
V. Florence,110,SBD,M,Below Class I,,247.5,185,260,692.5,Single-ply,2
B. Hufnagle,110,SBD,M,Below Class I,,265,152.5,230,647.5,Single-ply,3
L. Wells,125+,SBD,M,Below Class I,,187.5,95,182.5,465,Single-ply,1
John Tyree,82.5,SBD,M,Masters 40-49,40-49,272.5,167.5,287.5,727.5,Single-ply,1
S. Bergath,90,SBD,M,Masters 40-49,40-49,252.5,152.5,252.5,657.5,Single-ply,1
M. Cabra,90,SBD,M,Masters 40-49,40-49,225,142.5,245,612.5,Single-ply,2
Art Menton,90,SBD,M,Masters 40-49,40-49,237.5,140,217.5,595,Single-ply,3
W. Wright,90,SBD,M,Masters 40-49,40-49,175,147.5,185,507.5,Single-ply,4
W. Cooper,100,SBD,M,Masters 40-49,40-49,260,140,312.5,712.5,Single-ply,1
C. Turco,100,SBD,M,Masters 40-49,40-49,260,137.5,250,647.5,Single-ply,2
K. New,100,SBD,M,Masters 40-49,40-49,227.5,137.5,225,590,Single-ply,3
J. Lasch,100,SBD,M,Masters 40-49,40-49,172.5,157.5,227.5,557.5,Single-ply,5
A. Wood,100,SBD,M,Masters 40-49,40-49,200,167.5,215,582.5,Single-ply,4
Mike VanCleave,82.5,SBD,M,Masters 50-59,50-59,255,152.5,272.5,680,Single-ply,1
V. Burke,100,SBD,M,Masters 50-59,50-59,120,100,147.5,367.5,Single-ply,1
C. Calderon,60,SBD,M,Open,,182.5,120,165,467.5,Single-ply,1
Troy Culberson,75,SBD,M,Open,,250,160,333.5,743.5,Single-ply,1
M. Hardin,75,SBD,M,Open,,190,115,245,550,Single-ply,2
O. Watts,75,SBD,M,Open,,157.5,102.5,162.5,422.5,Single-ply,3
John Tyree,82.5,SBD,M,Open,,272.5,167.5,287.5,727.5,Single-ply,1
B. Shaw,82.5,SBD,M,Open,,227.5,152.5,242.5,622.5,Single-ply,2
D. Jensen,82.5,SBD,M,Open,,217.5,137.5,255,610,Single-ply,3
P. Lozano,90,SBD,M,Open,,277.5,165,255,697.5,Single-ply,1
J. Vasquez,90,SBD,M,Open,,240,165,260,665,Single-ply,2
Tim Bruner,100,SBD,M,Open,,302.5,210,275,787.5,Single-ply,1
S. Morgan,100,SBD,M,Open,,260,157.5,272.5,690,Single-ply,2
Terry Gunn,100,SBD,M,Open,,227.5,145,255,627.5,Single-ply,3
Chris Colvin,110,SBD,M,Open,,292.5,172.5,285,750,Single-ply,1
R. Jackson,110,SBD,M,Open,,240,167.5,152.5,560,Single-ply,2
Collin Rhodes #1,125,SBD,M,Open,,295,210,292.5,797.5,Single-ply,1
L. Wells,125+,SBD,M,Open,,187.5,95,182.5,465,Single-ply,1
M. Hardin,75,SBD,M,Submasters 35-39,35-39,190,115,245,550,Single-ply,1
B. Scarlett,90,SBD,M,Submasters 35-39,35-39,270,155,300,725,Single-ply,1
J. Vasquez,90,SBD,M,Submasters 35-39,35-39,240,165,260,665,Single-ply,2
Tim Bruner,100,SBD,M,Submasters 35-39,35-39,302.5,210,275,787.5,Single-ply,1
Terry Gunn,100,SBD,M,Submasters 35-39,35-39,227.5,145,255,627.5,Single-ply,2
M. Brealin,100,SBD,M,Submasters 35-39,35-39,242.5,150,227.5,620,Single-ply,3
R. Jackson,100,SBD,M,Submasters 35-39,35-39,240,167.5,152.5,560,Single-ply,4
G. Yeaguirre,60,SBD,M,Teen,13-19,142.5,70,160,372.5,Single-ply,1
S. Polasek,60,SBD,M,Teen,13-19,120,87.5,135,342.5,Single-ply,2
Carlos Moreno #1,67.5,SBD,M,Teen,13-19,190,117.5,187.5,495,Single-ply,1
C. Martinez,75,SBD,M,Teen,13-19,227.5,140,215,582.5,Single-ply,1
E. Stamps,75,SBD,M,Teen,13-19,195,147.5,200,542.5,Single-ply,2
R. Truelove,75,SBD,M,Teen,13-19,162.5,105,185,452.5,Single-ply,3
F. Hernandez,75,SBD,M,Teen,13-19,142.5,102.5,197.5,442.5,Single-ply,4
D. Hunt,82.5,SBD,M,Teen,13-19,205,125,215,545,Single-ply,1
M. Fitzgerald,82.5,SBD,M,Teen,13-19,200,120,182.5,502.5,Single-ply,2
J. Jimenez,82.5,SBD,M,Teen,13-19,172.5,120,187.5,480,Single-ply,3
C. Hogan,82.5,SBD,M,Teen,13-19,177.5,102.5,185,465,Single-ply,4
F. Mata,100,SBD,M,Teen,13-19,190,115,205,510,Single-ply,1
Tony Cardella,110,SBD,M,Teen,13-19,295,172.5,275,742.5,Single-ply,1
R. Schumann,125+,SBD,M,Teen,13-19,260,142.5,265,667.5,Single-ply,1
Jesse Soliz III,125+,SBD,M,Teen,13-19,185,107.5,185,477.5,Single-ply,2
A. Aguilar,48,SBD,F,Open,,72.5,32.5,77.5,182.5,Single-ply,1
M. Selazer,52,SBD,F,Open,,85,35,97.5,217.5,Single-ply,1
Campbell,60,SBD,F,Open,,75,52.5,110,237.5,Single-ply,1
B. Hochhalter,67.5,SBD,F,Open,,130,70,152.5,352.5,Single-ply,1
D. Cole,67.5,SBD,F,Open,,110,52.5,117.5,280,Single-ply,2
Jill Brown,75,SBD,F,Open,,182.5,117.5,207.5,507.5,Single-ply,1
Yvette Garcia,82.5,SBD,F,Open,,157.5,57.5,157.5,372.5,Single-ply,1
D. Cole,60,SBD,F,Masters 40+,40-999,110,52.5,117.5,280,Single-ply,1
J. Toungate,,SBD,F,Masters 40+,40-999,100,52.5,107.2,259.7,Single-ply,1
