Division,WeightClassKg,Place,Name,Team,BodyweightKg,Best3SquatKg,Best3BenchKg,Best3DeadliftKg,TotalKg,Equipment,Event,Sex,BirthDate
Boys,51.71,1,Isrrael Rosas,Bruceville-Eddy,51.26,127.01,74.84,142.88,344.73,Single-ply,SBD,M,
Boys,51.71,2,Garrett Kwast,Axtell,49.62,113.4,52.16,111.13,276.69,Single-ply,SBD,M,
Boys,51.71,3,Corey Michalek,Axtell,48.17,102.06,54.43,115.67,272.16,Single-ply,SBD,M,
Boys,51.71,4,Jordan Rodriguez,Clifton,50.98,102.06,38.56,115.67,256.28,Single-ply,SBD,M,
Boys,51.71,5,Romuldo Rosas,Bruceville-Eddy,50.62,70.31,47.63,117.93,235.87,Single-ply,SBD,M,
Boys,55.79,1,Ruben Salazar,West,55.07,151.95,83.91,142.88,378.75,Single-ply,SBD,M,
Boys,55.79,2,Justin Manning,Axtell,55.7,79.38,54.43,102.06,235.87,Single-ply,SBD,M,
Boys,55.79,DQ,Cameron Sams,Lorena,55.79,136.08,,,,Single-ply,SBD,M,
Boys,59.87,1,Trevor Uptmor,West,58.97,179.17,102.06,183.7,464.93,Single-ply,SBD,M,
Boys,59.87,2,Caiden Kocian,West,56.79,161.03,88.45,158.76,408.23,Single-ply,SBD,M,
Boys,59.87,3,Croix Dvorak,West,58.42,133.81,74.84,131.54,340.19,Single-ply,SBD,M,
Boys,59.87,4,Henry Graham,Axtell,59.06,70.31,43.09,90.72,204.12,Single-ply,SBD,M,
Boys,59.87,DQ,Owen Watson,Moody,59.87,,,,,Single-ply,SBD,M,
Boys,67.13,1,Khyran Jones,McGregor,60.42,188.24,99.79,208.65,496.68,Single-ply,SBD,M,
Boys,67.13,2,Joel Santillan,Clifton,65.41,161.03,104.33,174.63,439.98,Single-ply,SBD,M,
Boys,67.13,3,Riley Kinsey,Riesel,65.95,165.56,97.52,167.83,430.91,Single-ply,SBD,M,
Boys,67.13,4,Nicky Nieves,McGregor,64.59,158.76,83.91,174.63,417.3,Single-ply,SBD,M,
Boys,67.13,5,Juan Valencia,McGregor,66.5,158.76,97.52,154.22,410.5,Single-ply,SBD,M,
Boys,67.13,6,Jake Caldwell,Lorena,62.14,142.88,83.91,158.76,385.55,Single-ply,SBD,M,
Boys,67.13,7,Marcus Tippie,McGregor,62.23,124.74,83.91,149.69,358.34,Single-ply,SBD,M,
Boys,67.13,8,Garrett Terry,Axtell,61.87,136.08,72.57,142.88,351.53,Single-ply,SBD,M,
Boys,67.13,9,Cody Stone,Moody,67.13,142.88,61.23,145.15,349.27,Single-ply,SBD,M,
Boys,67.13,10,Daniel Dale #3,Bruceville-Eddy,67.04,140.61,70.31,136.08,347,Single-ply,SBD,M,
Boys,67.13,11,Logan Borkowski,Crawford,65.05,122.47,65.77,115.67,303.91,Single-ply,SBD,M,
Boys,67.13,12,Dakota Kellett #2,Bruceville-Eddy,61.42,102.06,74.84,124.74,301.64,Single-ply,SBD,M,
Boys,67.13,13,Gage Foster,Bruceville-Eddy,66.68,113.4,70.31,113.4,297.1,Single-ply,SBD,M,
Boys,67.13,DQ,Gavin Green,Moody,66.77,170.1,,,,Single-ply,SBD,M,
Boys,74.84,1,Billy Gann,West,68.49,208.65,120.2,210.92,539.77,Single-ply,SBD,M,
Boys,74.84,2,TraShawn Hill,Moody,74.39,192.78,122.47,217.72,532.97,Single-ply,SBD,M,
Boys,74.84,3,Salvador Marin,Clifton,69.4,151.95,88.45,183.7,424.11,Single-ply,SBD,M,
Boys,74.84,4,Sevein Martinez,McGregor,67.68,188.24,88.45,140.61,417.3,Single-ply,SBD,M,
Boys,74.84,5,Wade Schronk,Riesel,72.39,151.95,90.72,151.95,394.63,Single-ply,SBD,M,
Boys,74.84,6,Ray Ridgel,Clifton,70.67,124.74,92.99,158.76,376.48,Single-ply,SBD,M,
Boys,74.84,7,Jesse Hughling,Bruceville-Eddy,70.49,120.2,77.11,142.88,340.19,Single-ply,SBD,M,
Boys,74.84,8,Tyler Jaster,West,67.49,124.74,77.11,131.54,333.39,Single-ply,SBD,M,
Boys,74.84,9,Daniel Wessel,Axtell,74.57,113.4,68.04,151.95,333.39,Single-ply,SBD,M,
Boys,74.84,10,Logan Courtney,Lorena,70.31,136.08,61.23,113.4,310.71,Single-ply,SBD,M,
Boys,74.84,11,Anthony Goodwin,Crawford,67.86,108.86,61.23,129.27,299.37,Single-ply,SBD,M,
Boys,82.1,1,Carson Ford,Lorena,81.1,233.6,142.88,233.6,610.08,Single-ply,SBD,M,
Boys,82.1,2,Silas Prickett,West,81.19,206.38,124.74,213.19,544.31,Single-ply,SBD,M,
Boys,82.1,3,Daniel Espinoza,McGregor,76.75,142.88,92.99,154.22,390.09,Single-ply,SBD,M,
Boys,82.1,4,Jacob Mitchell,Crawford,78.38,142.88,83.91,158.76,385.55,Single-ply,SBD,M,
Boys,82.1,5,Jackson Newton,Clifton,75.48,138.35,81.65,149.69,369.68,Single-ply,SBD,M,
Boys,82.1,6,Zach Hohertz,Clifton,75.3,120.2,70.31,142.88,333.39,Single-ply,SBD,M,
Boys,82.1,7,Kennedy Hogg,Riesel,79.65,106.59,79.38,129.27,315.25,Single-ply,SBD,M,
Boys,89.81,1,Lawson Kendrick,West,83.01,206.38,127.01,201.85,535.24,Single-ply,SBD,M,
Boys,89.81,2,Baldomero Rodriguez,Bruceville-Eddy,87.82,158.76,117.93,181.44,458.13,Single-ply,SBD,M,
Boys,89.81,3,Sergio Garcia,Clifton,89.36,183.7,90.72,183.7,458.13,Single-ply,SBD,M,
Boys,89.81,4,Hunter Mach,Moody,87,167.83,99.79,156.49,424.11,Single-ply,SBD,M,
Boys,89.81,5,Justin Ketcher,Axtell,89.81,151.95,88.45,181.44,421.84,Single-ply,SBD,M,
Boys,89.81,6,Caden Page,Clifton,89.45,136.08,102.06,181.44,419.57,Single-ply,SBD,M,
Boys,89.81,7,Matthew Hobbs,Clifton,82.55,138.35,92.99,181.44,412.77,Single-ply,SBD,M,
Boys,89.81,8,Gabe Schneider,Crawford,85.82,161.03,86.18,154.22,401.43,Single-ply,SBD,M,
Boys,89.81,9,Marshall Vrana,Lorena,87.63,140.61,83.91,145.15,369.68,Single-ply,SBD,M,
Boys,89.81,DQ,Cameron Fouts,Bruceville-Eddy,85.73,165.56,,,,Single-ply,SBD,M,
Boys,99.79,1,Dylan Froehlich,Moody,99.79,240.4,142.88,231.33,614.62,Single-ply,SBD,M,
Boys,99.79,2,Oliver Jenkins,McGregor,99.25,174.63,136.08,195.04,505.76,Single-ply,SBD,M,
Boys,99.79,3,Marco Cano,Clifton,92.44,183.7,108.86,199.58,492.15,Single-ply,SBD,M,
Boys,99.79,4,Kyle Worrell,Crawford,95.98,183.7,99.79,170.1,453.59,Single-ply,SBD,M,
Boys,99.79,5,Jaice Blancett,Lorena,90.63,167.83,104.33,158.76,430.91,Single-ply,SBD,M,
Boys,109.77,1,Ruben Vera,West,109.32,242.67,129.27,226.8,598.74,Single-ply,SBD,M,
Boys,109.77,2,Hunter Carter,Bruceville-Eddy,102.69,217.72,92.99,174.63,485.34,Single-ply,SBD,M,
Boys,109.77,3,David Boozer,Lorena,107.5,183.7,92.99,181.44,458.13,Single-ply,SBD,M,
Boys,124.74,1,Tyler Sparks,Lorena,120.38,272.16,158.76,226.8,657.71,Single-ply,SBD,M,
Boys,124.74,2,Jackson Orr,Moody,119.39,226.8,145.15,183.7,555.65,Single-ply,SBD,M,
Boys,124.74,3,Kylan Bernardi,Lorena,121.65,204.12,108.86,199.58,512.56,Single-ply,SBD,M,
Boys,124.74,4,Mark Doyle,Lorena,114.49,192.78,102.06,188.24,483.08,Single-ply,SBD,M,
Boys,124.74,5,Aiden King,McGregor,112.4,181.44,108.86,185.97,476.27,Single-ply,SBD,M,
Boys,124.74,6,Oscar Gaona,Valley Mills,121.74,192.78,97.52,185.97,476.27,Single-ply,SBD,M,
Boys,124.74,7,James Simons,Bruceville-Eddy,112.85,181.44,117.93,174.63,474,Single-ply,SBD,M,
Boys,124.74,8,Dustin McCullough,West,118.84,190.51,113.4,170.1,474,Single-ply,SBD,M,
Boys,124.74,9,Brock Klander,West,116.85,165.56,115.67,140.61,421.84,Single-ply,SBD,M,
Boys,124.74,DQ,Cole Manzoni,Riesel,121.2,215.46,117.93,,,Single-ply,SBD,M,
Boys,124.74+,1,Camden Garner,Lorena,128.55,233.6,181.44,183.7,598.74,Single-ply,SBD,M,
Boys,124.74+,2,Domeniss McFadden,McGregor,151.5,244.94,136.08,208.65,589.67,Single-ply,SBD,M,
Boys,124.74+,3,Jake Knuppel,Crawford,147.87,240.4,117.93,192.78,551.11,Single-ply,SBD,M,
Boys,124.74+,4,Brandon Bartek,Moody,139.71,208.65,151.95,158.76,519.36,Single-ply,SBD,M,
Boys,124.74+,5,Jayce McBride,Moody,141.97,199.58,124.74,158.76,483.08,Single-ply,SBD,M,
Boys,,NS,Alijah Bell,Bruceville-Eddy,,,,,,Single-ply,SBD,M,
