Name,WeightClassKg,Division,AgeRange,Sex,State,BodyweightKg,Best3SquatKg,Best3BenchKg,Best3DeadliftKg,TotalKg,Event,Equipment,Place
D. Evans #12,52,Youth,12-16,M,VIC,50,92.5,57.5,125,275,SBD,Wraps,1
A. Sceney,67.5,Youth,12-16,M,VIC,66.2,117.5,80,157.5,355,SBD,Wraps,2
K. Maine,75,Youth,12-16,M,VIC,69.1,135,70,185,390,SBD,Wraps,1
S. Shiels,75,Youth,12-16,M,VIC,73.7,152.5,90,182.5,425,SBD,Wraps,2
