Place,Name,CyrillicName,BirthYear,WeightClassKg,Division,BodyweightKg,Bench1Kg,Bench2Kg,Bench3Kg,Best3BenchKg,TotalKg,Sex,Event,Equipment
1,Nadezhda Uvachan,Надежда Увачан,1944,57,Masters 3,54.8,42.5,-45,-50,42.5,42.5,F,B,Raw
1,Anna Parkhomenko,Анна Пархоменко,1957,52,Masters 2,51.25,40,45,-47.5,45,45,F,B,Raw
1,Nadezhda Skvortsova,Надежда Скворцова,1959,57,Masters 2,57,40,45,-50,45,45,F,B,Raw
1,Svetlana Miroshnichenko,Светлана Мирошниченко,1957,63,Masters 2,60.35,37.5,40,42.5,42.5,42.5,F,B,Raw
1,Marina Yukhanova,Марина Юханова,1957,72,Masters 2,67.3,37.5,40,-42.5,40,40,F,B,Raw
1,Irina Verbitskaya,Ирина Вербицкая,1965,57,Masters 1,54.5,45,47.5,50,50,50,F,B,Raw
1,Svetlana Gorbachyova,Светлана Горбачёва,1965,63,Masters 1,59.15,40,42.5,45,45,45,F,B,Raw
1,Valentina Nelyubova,Валентина Нелюбова,1966,72,Masters 1,63.1,80,,,80,80,F,B,Raw
1,Yuriy Mokrov,Юрий Мокров,1941,83,Masters 4,81.45,65,70,75,75,75,M,B,Raw
1,Valeriy Andeev,Валерий Андеев,1939,105,Masters 4,100.3,80,85,-87.5,85,85,M,B,Raw
1,Vasiliy Ermakov,Василий Ермаков,1937,120,Masters 4,112.65,110,115,117.5,117.5,117.5,M,B,Raw
1,Vladimir Pleshkov,Владимир Плешков,1944,83,Masters 3,82.25,110,117.5,-120,117.5,117.5,M,B,Raw
1,Valeriy Vasilev,Валерий Васильев,1947,105,Masters 3,98.45,130,137.5,142.5,142.5,142.5,M,B,Raw
1,Anatoliy Shapovalov,Анатолий Шаповалов,1947,120,Masters 3,105.3,125,130,-135,130,130,M,B,Raw
1,Nikolay Musorin,Николай Мусорин,1953,83,Masters 2,79.05,115,120,125,125,125,M,B,Raw
1,Anatoliy Menshikov,Анатолий Меньшиков,1962,93,Masters 2,90.65,150,155,160,160,160,M,B,Raw
1,Evgeniy Nechaev,Евгений Нечаев,1960,105,Masters 2,103.1,135,-140,-140,135,135,M,B,Raw
2,Radik Tukhbatullin,Радик Тухбатуллин,1959,105,Masters 2,99.8,110,120,122.5,122.5,122.5,M,B,Raw
1,Aleksandr Busygin,Александр Бусыгин,1969,66,Masters 1,65.65,95,-100,-100,95,95,M,B,Raw
1,Igor Fisenko,Игорь Фисенко,1972,74,Masters 1,72.2,100,110,112.5,112.5,112.5,M,B,Raw
1,Andrey Shmyglevskiy,Андрей Шмыглевский,1969,93,Masters 1,88.25,150,157,160,160,160,M,B,Raw
2,Sergey Kravchenko,Сергей Кравченко,1968,93,Masters 1,92.1,140,-150,150,150,150,M,B,Raw
1,Konstantin Gamolin,Константин Гамолин,1970,105,Masters 1,103.45,185,202.5,-207.5,202.5,202.5,M,B,Raw
2,Gennadiy Tekotskiy,Геннадий Текоцкий,1965,105,Masters 1,96.95,130,135,142.5,142.5,142.5,M,B,Raw
1,Grigoriy Rogachev,Григорий Рогачев,1969,120,Masters 1,112.85,160,180,185,185,185,M,B,Raw
2,Viktor Rubanov,Виктор Рубанов,1967,120,Masters 1,105.8,160,170,-175,170,170,M,B,Raw
1,Igor Ashlapov,Игорь Ашлапов,1972,120+,Masters 1,130.45,210,220,-225,220,220,M,B,Raw
2,Aleksandr Kolchanov,Александр Колчанов,1969,120+,Masters 1,145.4,-192.5,192.5,-200,192.5,192.5,M,B,Raw
1,Olga Pavlova,Ольга Павлова,1987,47,Open,43.5,45,50,55,55,55,F,B,Raw
1,Zinaida Evdokimova,Зинаида Евдокимова,1990,52,Open,50.7,65,75,80,80,80,F,B,Raw
2,Ekaterina Semenova,Екатерина Семенова,1990,52,Open,52,35,40,42.5,42.5,42.5,F,B,Raw
3,Alina Egorova,Алина Егорова,1990,52,Open,51.55,40,-45,-45,40,40,F,B,Raw
1,Elena Shcherbakova,Елена Щербакова,1985,57,Open,53.55,70,77.5,-85,77.5,77.5,F,B,Raw
2,Viktoriya Litvinova,Виктория Литвинова,1987,57,Open,56.6,55,60,-62.5,60,60,F,B,Raw
3,Anastasiya Filippova,Анастасия Филиппова,1987,57,Open,52.5,40,-42.5,-42.5,40,40,F,B,Raw
1,Anastasiya Solntseva,Анастасия Солнцева,1989,63,Open,61.6,65,70,72.5,72.5,72.5,F,B,Raw
2,Inna Galitskaya,Инна Галицкая,1980,63,Open,61.2,65,70,-72.5,70,70,F,B,Raw
3,Anastasiya Yukhanova,Анастасия Юханова,1984,63,Open,61.7,50,55,-57.5,55,55,F,B,Raw
1,Olga Lipatova,Ольга Липатова,1990,72,Open,66.8,65,-70,-70,65,65,F,B,Raw
2,Alesya Selivanenko,Алеся Селиваненко,1990,72,Open,70.75,50,55,60,60,60,F,B,Raw
3,Mariya Avtushko,Мария Автушко,1999,72,Open,66,30,40,-42.5,40,40,F,B,Raw
1,Mariya Layzan,Мария Лайзан,1990,84,Open,79.7,75,80,85,85,85,F,B,Raw
2,Kameliya Stepanova,Камелия Степанова,1977,84,Open,74.95,60,-67.5,67.5,67.5,67.5,F,B,Raw
3,Oksana Naumova,Оксана Наумова,1980,84,Open,80.06,60,65,-70,65,65,F,B,Raw
1,Ulyana Krevopuskova,Ульяна Кревопускова,1991,84+,Open,96.95,65,70,75,75,75,F,B,Raw
1,Evgeniy Gansgorn,Евгений Гансгорн,1994,59,Open,55.9,90,95,-97.5,95,95,M,B,Raw
2,Dmitriy Reshetnikov,Дмитрий Решетников,1993,59,Open,54.45,-85,85,-90,85,85,M,B,Raw
1,Aleksandr Kachaev,Александр Качаев,1978,66,Open,65.65,117.5,122.5,130,130,130,M,B,Raw
2,Dmitriy Butenko,Дмитрий Бутенко,1994,66,Open,63.4,90,100,-105,100,100,M,B,Raw
1,Evgeniy Ignatov,Евгений Игнатов,1979,74,Open,71.1,145,152.5,-160,152.5,152.5,M,B,Raw
2,Aleksandr Loginov,Александр Логинов,1986,74,Open,73.2,130,135,137.5,137.5,137.5,M,B,Raw
3,Andrey Andreev,Андрей Андреев,1988,74,Open,72.25,120,130,135,135,135,M,B,Raw
4,Aleksandr Shchenikov,Александр Щеников,1994,74,Open,71,117.5,125,130,130,130,M,B,Raw
5,Yuriy Trifonov,Юрий Трифонов,1988,74,Open,72.55,105,115,-120,115,115,M,B,Raw
1,Vasiliy Bobylkov,Василий Бобыльков,1979,83,Open,81.25,170,172.5,180,180,180,M,B,Raw
2,Vitaliy Chuprin,Виталий Чуприн,1985,83,Open,82.15,165,-172.5,-175,165,165,M,B,Raw
3,Pavel Krasikov,Павел Красиков,1987,83,Open,80.85,145,155,162.5,162.5,162.5,M,B,Raw
4,Viktor Terskikh,Виктор Терских,1986,83,Open,79.75,130,137.5,142.5,142.5,142.5,M,B,Raw
5,Yuriy Makhov,Юрий Махов,1991,83,Open,74.65,-125,125,130,130,130,M,B,Raw
1,Artyom Neyfeld,Артём Нейфельд,1989,93,Open,89.55,175,180,187.5,187.5,187.5,M,B,Raw
2,Dmitriy Gaak,Дмитрий Гаак,1982,93,Open,92.45,180,185,-190,185,185,M,B,Raw
3,Aleksandr Angelenich,Александр Ангеленич,1977,93,Open,90.05,170,177.5,-182.5,177.5,177.5,M,B,Raw
4,Artem Andreev,Артем Андреев,1988,93,Open,83.75,165,175,-185,175,175,M,B,Raw
5,Dmitriy Filippov,Дмитрий Филиппов,1991,93,Open,91.55,160,170,-177.5,170,170,M,B,Raw
6,Yaroslav Andrianov,Ярослав Андрианов,1986,93,Open,92.6,160,-167.5,-167.5,160,160,M,B,Raw
7,Nikolay Myslinskiy,Николай Мыслинский,1994,93,Open,85.65,-110,-110,110,110,110,M,B,Raw
1,Dmitriy Batrakov,Дмитрий Батраков,1976,105,Open,104.7,210,215,-220,215,215,M,B,Raw
2,Aleksey Zamyatkin,Алексей Замяткин,1980,105,Open,101.45,205,-215,-215,205,205,M,B,Raw
3,Aleksandr Mikhaylov,Александр Михайлов,1975,105,Open,103.35,182.5,192.5,195,195,195,M,B,Raw
4,Yuriy Shtrakhov,Юрий Штрахов,1988,105,Open,103.75,190,195,-200,195,195,M,B,Raw
5,Ruslan Kotiev,Руслан Котиев,1986,105,Open,94.6,170,180,-195,180,180,M,B,Raw
6,Aleksey Berg,Алексей Берг,1981,105,Open,98.5,170,177.5,-182,177.5,177.5,M,B,Raw
7,Ilya Vintsevich,Илья Винцевич,1989,105,Open,102.65,145,155,-160,155,155,M,B,Raw
1,Konstantin Elshin,Константин Ельшин,1986,120,Open,113.2,225,230,-235,230,230,M,B,Raw
2,Anatoliy Pimenov,Анатолий Пименов,1973,120,Open,114.75,220,225,230,230,230,M,B,Raw
3,Anton Fisochenko,Антон Фисоченко,1987,120,Open,119.85,200,210,-215,210,210,M,B,Raw
4,Stanislav Safonov,Станислав Сафонов,1973,120,Open,118.5,200,207.5,-212,207.5,207.5,M,B,Raw
5,Gleb Andrianov,Глеб Андрианов,1978,120,Open,118.4,175,182.5,187.5,187.5,187.5,M,B,Raw
DQ,Evgeniy Bukhtoyarov,Евгений Бухтояров,1990,120,Open,112.95,-205,-205,,,,M,B,Raw
1,Vladimir Mikhlin,Владимир Михлин,1987,120+,Open,129.05,210,217.5,225,225,225,M,B,Raw
2,Sergey Semakin,Сергей Семакин,1978,120+,Open,121.55,200,205,-207.5,205,205,M,B,Raw
3,Aleksandr Shaykhadinov,Александр Шайхадинов,1979,120+,Open,125.85,180,187.5,190,190,190,M,B,Raw
