Sex,WeightClassKg,EntryDate,Name,BirthDate,Country,Best3BenchKg,Bench4Kg,TotalKg,BodyweightKg,Event,Equipment,Division,Place
M,49,2019-05-03,Cesar David Echeverria Morales,1982-10-08,Guatemala,90,,90,47.55,B,Raw,Open,2
M,49,2019-05-03,Jose Ramon Pena Garcia,1987-03-02,Cuba,110,,110,48.15,B,Raw,Open,1
M,49,2019-05-03,Jhon Jairo Perez Alejandria,1992-09-18,Peru,,,,40.6,B,Raw,Open,DQ
M,54,2019-05-03,Javier Ignacio Jimenez Cabrera,1997-06-17,Chile,114,,114,53.4,B,Raw,Open,2
M,54,2019-05-03,Cesar Rubio Guerra,1980-10-05,Cuba,130,,130,53.5,B,Raw,Open,1
M,54,2019-05-03,Diego Alberto Quispe Ramos,1998-12-08,Peru,100,,100,52.8,B,Raw,Open,3
M,54,2019-05-03,Luis Eduardo Churuchumbi Churuchumbi,1979-07-08,Ecuador,70,,70,53.5,B,Raw,Open,4
M,59,2019-05-04,Carlos Alberto Betancourt,1981-10-02,Venezuela,150,,150,58.5,B,Raw,Open,1
M,59,2019-05-04,Elias Federico Medina,2001-04-29,Argentina,68,,68,58,B,Raw,Open,4
M,59,2019-05-04,Yoander Arias Borges,1979-12-18,Cuba,130,,130,57.1,B,Raw,Open,2
M,59,2019-05-04,Ricardo Ortíz,1982-12-04,El Salvador,,,,57.2,B,Raw,Open,DQ
M,59,2019-05-04,Niel Garcia Trelles,1973-05-29,Peru,130,,130,58.6,B,Raw,Open,3
M,65,2019-05-04,Danilo Rodriguez Garcia,1966-07-19,Cuba,160,,160,61.9,B,Raw,Open,2
M,65,2019-05-04,Herbert Enrique Aceituno Lopez,1985-11-01,El Salvador,178,,178,63.8,B,Raw,Open,1
M,65,2019-05-04,Mauricio Raul Cavero Esquerre,2000-09-09,Peru,60,,60,61.4,B,Raw,Open,4
M,65,2019-05-04,Roger Valverde Madrigal,1972-05-10,Costa Rica,80,,80,63.8,B,Raw,Open,3
M,72,2019-05-04,Yuniel Suarez Vargas,1990-01-25,Cuba,155,,155,71.5,B,Raw,Open,1
M,72,2019-05-04,Edgardo Andres Rebucci,1986-08-21,Argentina,127,,127,69.1,B,Raw,Open,2
M,72,2019-05-04,Miguel Enrique Siesquen Yluquis,1974-07-04,Peru,,,,70.4,B,Raw,Open,DQ
M,72,2019-05-04,Jose David Coronel,1986-12-15,Argentina,120,,120,71.4,B,Raw,Open,3
M,72,2019-05-04,Randall Alejandro Munguia Granados,1981-08-02,Costa Rica,100,,100,71.2,B,Raw,Open,4
M,80,2019-05-05,Amaro Fica,1993-07-18,Chile,140,,140,74.05,B,Raw,Open,1
M,80,2019-05-05,Sebastian Castro Rajdl,1987-06-24,Chile,130,,130,77.3,B,Raw,Open,2
M,80,2019-05-05,Herbalbert Emil Cofresi,1988-06-06,Puerto Rico,80,,80,75.65,B,Raw,Open,4
M,80,2019-05-05,Jose Manuel Baez Ocasio,1975-03-09,Puerto Rico,,,,74.4,B,Raw,Open,DQ
M,80,2019-05-05,Jose Luis Lopez Mata,1987-01-29,Costa Rica,100,,100,79.5,B,Raw,Open,3
M,80,2019-05-05,Ronald Guillermo Garcia Gonzalez,1984-11-16,Ecuador,75,,75,75.1,B,Raw,Open,5
M,88,2019-05-05,Steven Jose Cruz Mendes,1993-04-14,Ecuador,75,,75,86.85,B,Raw,Open,2
M,107+,2019-05-05,Johannes Hernandez Melendez,1978-09-08,Puerto Rico,,,,151.5,B,Raw,Open,DQ
M,88,2019-05-05,Sergio Antonio Munoz Gutierrez,1984-07-22,Costa Rica,120,,120,85.75,B,Raw,Open,1
F,45,2019-05-03,Lourdes Maciel,1996-04-06,Argentina,53,,53,43.1,B,Raw,Open,1
F,50,2019-05-03,Juana Noemi Vasquez Molina,1977-04-27,Peru,,,,49.8,B,Raw,Open,DQ
F,55,2019-05-03,Cindy Guadalupe Landaverde,1992-08-17,El Salvador,,,,51.15,B,Raw,Open,DQ
F,67,2019-05-03,Pamela Dominique Munoz Rojas,1989-07-18,Chile,62,,62,67,B,Raw,Open,1
F,86,2019-05-03,Macarena Paz Montero Escalona,1998-03-30,Chile,70,,70,80.4,B,Raw,Open,1
