Division,WeightClassKg,Place,Name,Team,BodyweightKg,Best3SquatKg,Best3BenchKg,Best3DeadliftKg,TotalKg,Equipment,Event,Sex
Boys,51.71,1,Mohammad Ali,Mansfield Timberview,51.71,108.86,70.31,129.27,308.44,Single-ply,SBD,M
Boys,51.71,2,Alejandro Cosio,Fort Worth North Side,51.17,90.72,45.36,113.4,249.48,Single-ply,SBD,M
Boys,51.71,3,Kyle Parks,Fort Worth Western Hills,46.08,47.63,31.75,70.31,149.69,Single-ply,SBD,M
Boys,55.79,1,Shang Bou,Fort Worth Paschal,54.3,136.08,83.91,167.83,387.82,Single-ply,SBD,M
Boys,59.87,2,Albert Acheampong,Mansfield Summit,55.93,138.35,83.91,156.49,378.75,Single-ply,SBD,M
Boys,67.13,1,Mathew Barrett-Cobb,Mansfield Summit,59.92,174.63,83.91,183.7,442.25,Single-ply,SBD,M
Boys,59.87,2,Brandon Green,Mansfield Timberview,59.87,145.15,83.91,181.44,410.5,Single-ply,SBD,M
Boys,59.87,3,Jacob Kemp,Bonham,59.83,158.76,77.11,142.88,378.75,Single-ply,SBD,M
Boys,67.13,4,Ivan Orepeza,Fort Worth North Side,60.1,149.69,74.84,147.42,371.95,Single-ply,SBD,M
Boys,59.87,5,Joe Sosa,Fort Worth North Side,59.01,127.01,70.31,161.03,358.34,Single-ply,SBD,M
Boys,59.87,6,Desmond Mize,Fort Worth Western Hills,59.87,124.74,88.45,142.88,356.07,Single-ply,SBD,M
Boys,59.87,7,Marcos Morales,Decatur,59.42,124.74,86.18,136.08,347,Single-ply,SBD,M
Boys,67.13,1,Chad Layton,Decatur,65.32,156.49,99.79,174.63,430.91,Single-ply,SBD,M
Boys,67.13,2,Brian Latigo,Fort Worth Western Hills,60.69,86.18,65.77,142.88,294.84,Single-ply,SBD,M
Boys,67.13,3,Michael Flores,Fort Worth South Hills,62.91,111.13,56.7,127.01,294.84,Single-ply,SBD,M
Boys,74.84,1,Tracey Walker,Mansfield Timberview,74.84,197.31,108.86,190.51,496.68,Single-ply,SBD,M
Boys,74.84,2,Dejah Whatley,Fort Worth Western Hills,70.99,170.1,106.59,204.12,480.81,Single-ply,SBD,M
Boys,74.84,3,Corey Carter,Fort Worth Western Hills,70.44,151.95,92.99,190.51,435.45,Single-ply,SBD,M
Boys,74.84,4,Jesus Padilla,Fort Worth North Side,72.53,163.29,99.79,165.56,428.64,Single-ply,SBD,M
Boys,74.84,5,Josue Hernandez,Fort Worth North Side,74.25,154.22,88.45,181.44,424.11,Single-ply,SBD,M
Boys,74.84,6,Chan Bawi-Tlung,Fort Worth South Hills,72.89,115.67,63.5,131.54,310.71,Single-ply,SBD,M
Boys,74.84,DQ,Mathew O'Brian,Mansfield Timberview,74.84,,,,,Single-ply,SBD,M
Boys,74.84,DQ,Tumarius Flowers,Mansfield Summit,72.48,195.04,,,,Single-ply,SBD,M
Boys,74.84,DQ,D Carreon,Fort Worth Trimble Tech,74.84,,,,,Single-ply,SBD,M
Boys,82.1,1,Mangrilio Salcedo,Fort Worth Trimble Tech,82.1,215.46,113.4,208.65,537.51,Single-ply,SBD,M
Boys,82.1,2,Trae Swift,Mansfield Summit,79.24,195.04,127.01,208.65,530.7,Single-ply,SBD,M
Boys,82.1,3,Aaron Stevenson,Fort Worth Western Hills,81.28,174.63,111.13,206.38,492.15,Single-ply,SBD,M
Boys,82.1,4,David Ellison,Fort Worth South Hills,80.92,120.2,83.91,154.22,358.34,Single-ply,SBD,M
Boys,82.1,DQ,A Luna,Fort Worth Trimble Tech,82.1,,,,,Single-ply,SBD,M
Boys,89.81,1,Justin Campos,Fort Worth North Side,89.13,249.48,140.61,224.53,614.62,Single-ply,SBD,M
Boys,89.81,2,Marcus Stafford,Everman,88,219.99,117.93,222.26,560.19,Single-ply,SBD,M
Boys,89.81,3,J Alvarado,Fort Worth Trimble Tech,88.04,222.26,133.81,199.58,555.65,Single-ply,SBD,M
Boys,89.81,4,Antonio Settle,Mansfield Timberview,89.81,185.97,138.35,217.72,542.04,Single-ply,SBD,M
Boys,89.81,5,Dylan Cole,Decatur,87.54,181.44,140.61,188.24,510.29,Single-ply,SBD,M
Boys,89.81,6,Eric Torry,Fort Worth Western Hills,82.87,179.17,108.86,197.31,485.34,Single-ply,SBD,M
Boys,89.81,7,D. Rhodes,Fort Worth Trimble Tech,89.81,183.7,111.13,183.7,478.54,Single-ply,SBD,M
Boys,89.81,8,Jonathon Kawas,Fort Worth North Side,89.31,158.76,77.11,181.44,417.3,Single-ply,SBD,M
Boys,89.81,9,Jesus Mejia,Fort Worth South Hills,88.27,142.88,97.52,156.49,396.89,Single-ply,SBD,M
Boys,89.81,10,Jose Gonzalez #18,Fort Worth North Side,86.86,106.59,81.65,133.81,322.05,Single-ply,SBD,M
Boys,99.79,DQ,Jearld McGlothin,Mansfield Summit,89.99,222.26,,,,Single-ply,SBD,M
Boys,99.79,1,Marc Blades,Mansfield Summit,98.61,229.06,145.15,247.21,621.42,Single-ply,SBD,M
Boys,99.79,2,Johnny Murphy,Mansfield Summit,99.16,251.74,145.15,222.26,619.15,Single-ply,SBD,M
Boys,99.79,3,Torian Love,Fort Worth Western Hills,97.98,229.06,115.67,224.53,569.26,Single-ply,SBD,M
Boys,99.79,4,Mason Del Castillo,Decatur,97.07,217.72,117.93,217.72,553.38,Single-ply,SBD,M
Boys,99.79,5,Mikey Dobbles,Bonham,91.17,222.26,113.4,192.78,528.44,Single-ply,SBD,M
Boys,99.79,6,R Fraire,Fort Worth Trimble Tech,99.79,204.12,113.4,199.58,517.1,Single-ply,SBD,M
Boys,99.79,7,Weldon Howard,Fort Worth South Hills,91.99,133.81,90.72,179.17,403.7,Single-ply,SBD,M
Boys,99.79,DQ,Lane Walker,Mansfield Timberview,92.8,,,,,Single-ply,SBD,M
Boys,99.79,DQ,Markel Wilson,Mansfield Timberview,99.79,,,,,Single-ply,SBD,M
Boys,99.79,DQ,Sam Amaka,Mansfield Timberview,99.79,254.01,122.47,,,Single-ply,SBD,M
Boys,109.77,1,Christopher McCoy,Mansfield Timberview,109.77,254.01,142.88,215.46,612.35,Single-ply,SBD,M
Boys,109.77,2,Eric Walker,Decatur,103.42,201.85,102.06,195.04,498.95,Single-ply,SBD,M
Boys,109.77,3,Daniel Lozano,Fort Worth South Hills,106.23,165.56,83.91,156.49,405.97,Single-ply,SBD,M
Boys,109.77,4,Christian Gardea,Fort Worth North Side,108.54,124.74,61.23,142.88,328.85,Single-ply,SBD,M
Boys,109.77,DQ,Ricky Roberts,Decatur,100.24,192.78,106.59,,,Single-ply,SBD,M
Boys,109.77,DQ,Ugonna NWarie,Mansfield Timberview,100.24,,,,,Single-ply,SBD,M
Boys,109.77,DQ,Jared Walsh,Mansfield Timberview,100.65,,,,,Single-ply,SBD,M
Boys,124.74,1,Albert Willingham,Fort Worth Western Hills,115.67,276.69,208.65,222.26,707.6,Single-ply,SBD,M
Boys,124.74,2,Ethan Jones,Burleson,118.48,219.99,136.08,199.58,555.65,Single-ply,SBD,M
Boys,124.74,3,Quandre Scott,Fort Worth South Hills,120.75,201.85,138.35,197.31,537.51,Single-ply,SBD,M
Boys,124.74,4,Sean Partridge,Fort Worth Western Hills,122.56,219.99,111.13,206.38,537.51,Single-ply,SBD,M
Boys,124.74,5,Paul Granados,Fort Worth South Hills,121.11,199.58,106.59,174.63,480.81,Single-ply,SBD,M
Boys,124.74,DQ,Z Ortiz,Fort Worth Trimble Tech,124.74,,,,,Single-ply,SBD,M
Boys,124.74,DQ,Aron Law,Fort Worth Trimble Tech,124.74,,,,,Single-ply,SBD,M
Boys,124.74+,1,Dylan Baldeschwiler,Burleson,133.31,260.82,170.1,215.46,646.37,Single-ply,SBD,M
Boys,124.74+,2,Julian Salmond,Fort Worth Western Hills,125.28,267.62,142.88,229.06,639.57,Single-ply,SBD,M
Boys,124.74+,3,Anthony Zapata,Everman,125.01,254.01,127.01,217.72,598.74,Single-ply,SBD,M
Boys,124.74+,4,Daryl Westbrook,Fort Worth South Hills,172.55,233.6,115.67,219.99,569.26,Single-ply,SBD,M
Boys,124.74+,5,S Rivera,Fort Worth Trimble Tech,125.19,185.97,129.27,226.8,542.04,Single-ply,SBD,M
Boys,124.74+,6,E Wynn,Fort Worth Trimble Tech,125.19,183.7,129.27,179.17,492.15,Single-ply,SBD,M
Boys,124.74+,7,Joey Stephens,Everman,135.08,188.24,104.33,165.56,458.13,Single-ply,SBD,M
Boys,124.74+,8,Blake Hailey,Decatur,136.08,147.42,81.65,136.08,365.14,Single-ply,SBD,M
