Division,WeightClassKg,Place,Name,Team,BodyweightKg,Best3SquatKg,Best3BenchKg,Best3DeadliftKg,TotalKg,Equipment,Event,Sex
Boys,55.79,1,Daniel Salinas,Chico,51.89,117.93,72.57,140.61,331.12,Single-ply,SBD,M
Boys,51.71,2,Ryan Slagle,Pottsboro,51.07,117.93,56.7,111.13,285.76,Single-ply,SBD,M
Boys,51.71,3,Armando Salinas,Chico,50.76,99.79,56.7,127.01,283.5,Single-ply,SBD,M
Boys,55.79,4,Brenden Collum,Sadler S & S Cons,51.8,95.25,49.9,115.67,260.82,Single-ply,SBD,M
Boys,51.71,5,Cooper Warren,Brock,49.53,88.45,47.63,111.13,247.21,Single-ply,SBD,M
Boys,55.79,DQ,Adrian Lopez,Wichita Falls,51.94,115.67,,,,Single-ply,SBD,M
Boys,55.79,1,Jordan Whiteside,Peaster,55.52,133.81,88.45,133.81,356.07,Single-ply,SBD,M
Boys,55.79,2,Tinnin Smith,Jacksboro,55.25,127.01,79.38,124.74,331.12,Single-ply,SBD,M
Boys,55.79,3,Rj Gilbert,Sanger,55.43,117.93,68.04,136.08,322.05,Single-ply,SBD,M
Boys,55.79,4,Isai Cerritos,Sanger,52.44,102.06,70.31,122.47,294.84,Single-ply,SBD,M
Boys,55.79,5,Jesus Gam,Decatur,53.8,81.65,52.16,83.91,217.72,Single-ply,SBD,M
Boys,55.79,DQ,David Youngblood,Brock,52.53,,,,,Single-ply,SBD,M
Boys,59.87,DQ,Trevor Richard,Chico,55.97,131.54,83.91,,,Single-ply,SBD,M
Boys,59.87,1,Ivan Karabanoff,Peaster,59.69,172.37,86.18,167.83,426.38,Single-ply,SBD,M
Boys,59.87,2,Zach Montgomery,Jacksboro,59.69,154.22,74.84,167.83,396.89,Single-ply,SBD,M
Boys,67.13,3,Koby Parker,Pottsboro,59.96,151.95,95.25,149.69,396.89,Single-ply,SBD,M
Boys,59.87,4,Brent Chaney,Whitesboro,58.97,145.15,63.5,158.76,367.41,Single-ply,SBD,M
Boys,67.13,5,Josh Secrest,Sanger,59.96,145.15,70.31,147.42,362.87,Single-ply,SBD,M
Boys,59.87,6,Danny Nguyen,Whitesboro,58.24,129.27,70.31,151.95,351.53,Single-ply,SBD,M
Boys,67.13,7,Marcus Sampson,Ponder,60.1,122.47,61.23,138.35,322.05,Single-ply,SBD,M
Boys,59.87,8,Collin Miller,Brock,59.06,117.93,58.97,124.74,301.64,Single-ply,SBD,M
Boys,59.87,9,Brady North,Chico,58.51,106.59,61.23,120.2,288.03,Single-ply,SBD,M
Boys,67.13,10,Devonte Perez,Wichita Falls Rider,60.06,161.03,83.91,,244.94,Single-ply,SB,M
Boys,74.84,1,Stephen Steele,Pottsboro,67.22,190.51,131.54,190.51,512.56,Single-ply,SBD,M
Boys,67.13,2,Ty Slaughter,Whitesboro,67.13,192.78,113.4,204.12,510.29,Single-ply,SBD,M
Boys,67.13,3,Marcos Morales,Decatur,65.32,165.56,102.06,176.9,444.52,Single-ply,SBD,M
Boys,67.13,4,Trent Nolan,Sadler S & S Cons,66.13,158.76,83.91,170.1,412.77,Single-ply,SBD,M
Boys,67.13,5,Tanner Pittman,Brock,66.22,151.95,83.91,163.29,399.16,Single-ply,SBD,M
Boys,67.13,6,Andrew Mangum,Wichita Falls City View,65.95,138.35,65.77,170.1,374.21,Single-ply,SBD,M
Boys,67.13,7,Tyler Skelton,Brock,64.95,136.08,86.18,145.15,367.41,Single-ply,SBD,M
Boys,67.13,8,Ethan Raber,Wichita Falls City View,66.86,129.27,74.84,149.69,353.8,Single-ply,SBD,M
Boys,74.84,9,Kaleb Willis,Lindsay,67.31,129.27,74.84,147.42,351.53,Single-ply,SBD,M
Boys,67.13,10,Logan Moon,Brock,65.77,136.08,61.23,142.88,340.19,Single-ply,SBD,M
Boys,67.13,11,Tucker Schuring,Decatur,64.77,117.93,77.11,108.86,303.91,Single-ply,SBD,M
Boys,74.84,12,Chance Hall,Peaster,67.22,104.33,65.77,124.74,294.84,Single-ply,SBD,M
Boys,67.13,13,Trace Humphreys,Brock,63.41,102.06,40.82,108.86,251.74,Single-ply,SBD,M
Boys,67.13,DQ,Keaton Green,Brock,65.95,145.15,72.57,,,Single-ply,SBD,M
Boys,67.13,DQ,Avery Carter,Mansfield Summit,60.87,158.76,,,,Single-ply,SBD,M
Boys,74.84,1,Tumarius Flowers,Mansfield Summit,74.57,208.65,131.54,226.8,566.99,Single-ply,SBD,M
Boys,74.84,2,Seth Rogers,Jacksboro,73.57,208.65,133.81,222.26,564.72,Single-ply,SBD,M
Boys,82.1,3,Brice Chaney,Whitesboro,75.07,204.12,115.67,235.87,555.65,Single-ply,SBD,M
Boys,74.84,4,Tanner Johnson,Whitesboro,72.48,197.31,102.06,199.58,498.95,Single-ply,SBD,M
Boys,74.84,5,Holden Keenan,Pottsboro,74.84,181.44,97.52,190.51,469.47,Single-ply,SBD,M
Boys,74.84,6,Darrion Riggs,Chico,70.85,172.37,113.4,181.44,467.2,Single-ply,SBD,M
Boys,82.1,7,Elijah Walker,Lindsay,75.02,181.44,113.4,165.56,460.4,Single-ply,SBD,M
Boys,74.84,8,Brendan Beach,Ponder,74.66,172.37,104.33,176.9,453.59,Single-ply,SBD,M
Boys,74.84,9,Cody Woolsey,Whitesboro,70.94,167.83,88.45,183.7,439.98,Single-ply,SBD,M
Boys,82.1,10,Hatson Abbott,Boyd,74.93,151.95,95.25,170.1,417.3,Single-ply,SBD,M
Boys,74.84,11,Jacob Baker,Pottsboro,71.94,142.88,88.45,147.42,378.75,Single-ply,SBD,M
Boys,82.1,DQ,Kieantae Czarnek,Wichita Falls City View,75.07,197.31,,,,Single-ply,SBD,M
Boys,74.84,DQ,Chad Layton,Decatur,73.39,185.97,115.67,,,Single-ply,SBD,M
Boys,82.1,1,Tri Hoang,Wichita Falls City View,78.47,254.01,117.93,267.62,639.57,Single-ply,SBD,M
Boys,89.81,2,Luis Erives,Sadler S & S Cons,82.19,204.12,124.74,219.99,548.85,Single-ply,SBD,M
Boys,82.1,3,Jesse Herd,Jacksboro,75.48,192.78,136.08,204.12,532.97,Single-ply,SBD,M
Boys,82.1,4,Jacobi Verdin,Sanger,81.92,183.7,122.47,158.76,464.93,Single-ply,SBD,M
Boys,82.1,5,Brandon Dodson,Ponder,79.29,188.24,90.72,167.83,446.79,Single-ply,SBD,M
Boys,82.1,6,Magnum Sampson,Ponder,78.29,163.29,83.91,161.03,408.23,Single-ply,SBD,M
Boys,89.81,7,Anthony Jordan,Pottsboro,82.19,147.42,83.91,136.08,367.41,Single-ply,SBD,M
Boys,82.1,8,Abraham Espinosa,Chico,78.02,117.93,79.38,149.69,347,Single-ply,SBD,M
Boys,82.1,9,Josh Pitman,Ponder,78.29,127.01,65.77,138.35,331.12,Single-ply,SBD,M
Boys,82.1,DQ,Tyler Collier,Brock,80.29,136.08,,,,Single-ply,SBD,M
Boys,89.81,1,Derek Shelby,Sanger,89.09,219.99,154.22,222.26,596.47,Single-ply,SBD,M
Boys,89.81,2,O'Shea Nolan,Wichita Falls City View,84.28,226.8,120.2,226.8,573.79,Single-ply,SBD,M
Boys,89.81,3,Austin Hanson,Jacksboro,87.18,199.58,122.47,192.78,514.83,Single-ply,SBD,M
Boys,89.81,4,Garrett Ragsdale,Boyd,88.99,195.04,133.81,176.9,505.76,Single-ply,SBD,M
Boys,89.81,5,Matt Sinclair,Boyd,84.64,185.97,111.13,181.44,478.54,Single-ply,SBD,M
Boys,89.81,6,Ty Norman,Brock,87.82,149.69,97.52,163.29,410.5,Single-ply,SBD,M
Boys,89.81,7,Seth Wallace,Boyd,84.28,145.15,81.65,172.37,399.16,Single-ply,SBD,M
Boys,89.81,DQ,Clark Sulivant,Sadler S & S Cons,82.37,133.81,,,,Single-ply,SBD,M
Boys,99.79,1,Jearld McGlothin,Mansfield Summit,98.34,242.67,145.15,272.16,659.98,Single-ply,SBD,M
Boys,99.79,2,Ej Lozada,Jacksboro,95.35,226.8,127.01,240.4,594.21,Single-ply,SBD,M
Boys,99.79,3,Sam Scribner,Wichita Falls Rider,98.34,204.12,131.54,251.74,587.4,Single-ply,SBD,M
Boys,99.79,4,Thomas Morales,Whitesboro,96.8,229.06,131.54,206.38,566.99,Single-ply,SBD,M
Boys,99.79,5,Conner Barnes,Sanger,98.52,215.46,151.95,181.44,548.85,Single-ply,SBD,M
Boys,99.79,6,Justin Silva,Wichita Falls City View,99.52,226.8,102.06,215.46,544.31,Single-ply,SBD,M
Boys,109.77,7,Jackson Towery,Nocona,99.88,199.58,113.4,219.99,532.97,Single-ply,SBD,M
Boys,99.79,8,Andrew Rodriquez,Wichita Falls City View,91.53,204.12,117.93,208.65,530.7,Single-ply,SBD,M
Boys,99.79,9,Adam Stapleton,Whitesboro,98.88,213.19,117.93,195.04,526.17,Single-ply,SBD,M
Boys,99.79,10,Ronnie Killen,Wichita Falls City View,97.07,183.7,86.18,204.12,474,Single-ply,SBD,M
Boys,99.79,11,Grayson Briney,Sanger,94.89,181.44,81.65,174.63,437.72,Single-ply,SBD,M
Boys,109.77,12,Nick Thompson,Ponder,100.02,158.76,102.06,170.1,430.91,Single-ply,SBD,M
Boys,109.77,13,Mike Galindo,Chico,100.02,142.88,86.18,158.76,387.82,Single-ply,SBD,M
Boys,109.77,DQ,Mitchell Coker,Millsap,99.88,,,,,Single-ply,SBD,M
Boys,124.74,1,Justin Lawler,Pottsboro,109.86,256.28,154.22,219.99,630.49,Single-ply,SBD,M
Boys,109.77,2,Orion Rodriguez,Wichita Falls,108.32,258.55,120.2,226.8,605.55,Single-ply,SBD,M
Boys,109.77,3,Ethan Lawson,Sadler S & S Cons,105.96,229.06,124.74,215.46,569.26,Single-ply,SBD,M
Boys,109.77,4,Graham Cowdrey,Decatur,107.59,204.12,131.54,188.24,523.9,Single-ply,SBD,M
Boys,109.77,5,Tim Edmonds,Pottsboro,101.42,181.44,83.91,181.44,446.79,Single-ply,SBD,M
Boys,109.77,6,Drew Filkens,Nocona,107.95,165.56,88.45,158.76,412.77,Single-ply,SBD,M
Boys,109.77,7,Justin Wagner,Ponder,100.88,174.63,88.45,145.15,408.23,Single-ply,SBD,M
Boys,109.77,8,Zach Walton,Pottsboro,101.79,167.83,72.57,167.83,408.23,Single-ply,SBD,M
Boys,109.77,DQ,Ryan Langley,Sanger,100.15,,,,,Single-ply,SBD,M
Boys,109.77,DQ,Cooper Edington,Chico,104.19,129.27,,161.03,,Single-ply,SBD,M
Boys,124.74,1,Bryan Townsend,Whitesboro,123.2,249.48,158.76,249.48,657.71,Single-ply,SBD,M
Boys,124.74,2,Dakota Williams #1,Decatur,114.76,226.8,136.08,219.99,582.87,Single-ply,SBD,M
Boys,124.74,3,Kasey Misenheimer,Whitesboro,120.11,222.26,120.2,199.58,542.04,Single-ply,SBD,M
Boys,124.74,4,Tyler Melton,Chico,115.21,217.72,113.4,183.7,514.83,Single-ply,SBD,M
Boys,124.74,5,Rickey Roberts,Decatur,111.22,158.76,129.27,222.26,510.29,Single-ply,SBD,M
Boys,124.74,6,Lucas Sims,Boyd,113.94,190.51,97.52,158.76,446.79,Single-ply,SBD,M
Boys,124.74,7,Conner Strocher,Pottsboro,110.59,151.95,120.2,167.83,439.98,Single-ply,SBD,M
Boys,124.74,8,Jacob Carter,Chico,114.89,172.37,111.13,156.49,439.98,Single-ply,SBD,M
Boys,124.74,9,Wyatt McNallen,Jacksboro,113.67,161.03,86.18,165.56,412.77,Single-ply,SBD,M
Boys,124.74,10,Jacob Poole,Ponder,122.83,136.08,65.77,117.93,319.78,Single-ply,SBD,M
Boys,124.74+,1,Jimmy Schuetz,Chico,137.26,249.48,138.35,217.72,605.55,Single-ply,SBD,M
Boys,124.74+,2,Kyle Scheffler,Sanger,125.74,197.31,170.1,226.8,594.21,Single-ply,SBD,M
Boys,124.74+,3,Jacob Hartsell,Decatur,131.18,217.72,140.61,217.72,576.06,Single-ply,SBD,M
Boys,124.74+,4,Zach Graham,Nocona,145.69,195.04,99.79,181.44,476.27,Single-ply,SBD,M
Boys,124.74+,5,Ryan Ford,Wichita Falls City View,127.37,172.37,104.33,170.1,446.79,Single-ply,SBD,M
Boys,124.74+,6,Quentin Jones,Wichita Falls City View,129.09,147.42,97.52,181.44,426.38,Single-ply,SBD,M
Boys,124.74+,DQ,Caleb Mitcheson,Whitesboro,127.46,249.48,145.15,,,Single-ply,SBD,M
Boys,,NS,Ricardo Carrillo,Wichita Falls City View,,,,,,Single-ply,SBD,M
Boys,,NS,Dominique Moreland,Mansfield Summit,,,,,,Single-ply,SBD,M
Boys,,NS,Matthew Barrett,Mansfield Summit,,,,,,Single-ply,SBD,M
Boys,,NS,Andrew Brownfield,Peaster,,,,,,Single-ply,SBD,M
Boys,,NS,Christian DuBoise,Peaster,,,,,,Single-ply,SBD,M
Boys,,NS,Tommy Morrison,Peaster,,,,,,Single-ply,SBD,M
Boys,,NS,Tyler Dobbs,Peaster,,,,,,Single-ply,SBD,M
Boys,,NS,Brett Brownfield,Peaster,,,,,,Single-ply,SBD,M
Boys,,NS,Jarrod Wooten,Peaster,,,,,,Single-ply,SBD,M
Boys,,NS,Seth Skaggs,Pottsboro,,,,,,Single-ply,SBD,M
Boys,,NS,Billy Tedford,Brock,,,,,,Single-ply,SBD,M
Boys,,NS,Brennan Sooter,Ponder,,,,,,Single-ply,SBD,M
Boys,,NS,Chris Alvaliotis,Ponder,,,,,,Single-ply,SBD,M
