Division,WeightClassKg,Place,Name,Team,BodyweightKg,Best3SquatKg,Best3BenchKg,Best3DeadliftKg,TotalKg,Equipment,Event,Sex
Girls,44.23,1,Sonia Quiroga,Baytown Goose Creek Memorial,40.1,54.43,22.68,65.77,142.88,Single-ply,SBD,F
Girls,44.23,DQ,Deja Thomas,Navasota,43.54,,,,,Single-ply,SBD,F
Girls,44.23,DQ,Peyton Payne,Willis,44.09,,,,,Single-ply,SBD,F
Girls,47.85,1,Mia Hamlin,Wharton,46.63,95.25,40.82,102.06,238.14,Single-ply,SBD,F
Girls,47.85,2,Andie Seagraves,Coldspring-Oakhurst,47.08,90.72,45.36,92.99,229.06,Single-ply,SBD,F
Girls,47.85,3,Jacqueline Ruiz,Houston Northbrook,47.26,79.38,34.02,90.72,204.12,Single-ply,SBD,F
Girls,47.85,4,Lainey McDonald,Willis,47.36,79.38,34.02,90.72,204.12,Single-ply,SBD,F
Girls,47.85,5,Isabel Narvaez,Woodville,46.81,74.84,34.02,83.91,192.78,Single-ply,SBD,F
Girls,47.85,6,Rishawn Barnes,Beaumont West Brook,46.36,58.97,31.75,83.91,174.63,Single-ply,SBD,F
Girls,47.85,7,Darineasha Waldrup,Houston Northbrook,45,61.23,27.22,74.84,163.29,Single-ply,SBD,F
Girls,47.85,DQ,Morgan Williams,New Caney Porter,47.63,,,,,Single-ply,SBD,F
Girls,51.94,1,Micah Hughes #1,Corrigan-Camden,51.26,99.79,43.09,108.86,251.74,Single-ply,SBD,F
Girls,51.94,2,Ruby Ochoa,Houston Northbrook,51.62,99.79,40.82,104.33,244.94,Single-ply,SBD,F
Girls,51.94,3,Akerionta Lavergne,Port Arthur Memorial,50.08,92.99,40.82,104.33,238.14,Single-ply,SBD,F
Girls,51.94,4,Brelynn Ellisor,Coldspring-Oakhurst,48.99,90.72,38.56,92.99,222.26,Single-ply,SBD,F
Girls,51.94,5,Paoula Umanzor,Pasadena,49.44,74.84,24.95,81.65,181.44,Single-ply,SBD,F
Girls,51.94,6,Yasmine Valcenia,Liberty,49.53,65.77,31.75,83.91,181.44,Single-ply,SBD,F
Girls,51.94,7,Celeste Grana Espinoza,Liberty,50.08,65.77,31.75,83.91,181.44,Single-ply,SBD,F
Girls,51.94,8,Bailey English,Beaumont United,49.44,61.23,31.75,83.91,176.9,Single-ply,SBD,F
Girls,51.94,9,Evelyn Mariles,Pasadena,50.53,65.77,27.22,65.77,158.76,Single-ply,SBD,F
Girls,51.94,DQ,Mariu Escalante,Baytown Goose Creek Memorial,51.71,120.2,43.09,,,Single-ply,SBD,F
Girls,56.02,1,Carol Cardenas,New Caney Porter,55.97,120.2,61.23,115.67,297.1,Single-ply,SBD,F
Girls,56.02,2,Taylor Lewis,Beaumont West Brook,53.98,95.25,56.7,122.47,274.42,Single-ply,SBD,F
Girls,56.02,3,BriYan Nichols,Baytown Lee,53.43,90.72,49.9,122.47,263.08,Single-ply,SBD,F
Girls,56.02,4,Delaney Jackson,Willis,55.97,108.86,43.09,104.33,256.28,Single-ply,SBD,F
Girls,56.02,5,Debanni Piedra,Baytown Lee,54.88,102.06,38.56,102.06,242.67,Single-ply,SBD,F
Girls,56.02,6,Kallie Kelm,Corrigan-Camden,55.88,88.45,49.9,97.52,235.87,Single-ply,SBD,F
Girls,56.02,7,Raymunda Cobarrubius,Splendora,55.88,83.91,43.09,102.06,229.06,Single-ply,SBD,F
Girls,56.02,8,Aubrey Kennepohl,Baytown Goose Creek Memorial,55.88,86.18,34.02,79.38,199.58,Single-ply,SBD,F
Girls,56.02,9,Hope Tousha,Liberty,52.25,70.31,40.82,79.38,190.51,Single-ply,SBD,F
Girls,56.02,10,Destani Villarreal,Houston Northbrook,52.07,61.23,27.22,74.84,163.29,Single-ply,SBD,F
Girls,56.02,DQ,Lark Walker,Liberty,55.79,,,,,Single-ply,SBD,F
Girls,56.02,DQ,Breisa Salinas,Pasadena,55.79,,,,,Single-ply,SBD,F
Girls,60.1,1,Camber Castellanos,Woodville,58.97,124.74,61.23,124.74,310.71,Single-ply,SBD,F
Girls,60.1,2,Raylie Pagan,Splendora,56.43,113.4,65.77,120.2,299.37,Single-ply,SBD,F
Girls,60.1,3,Kynadee Benestante,Coldspring-Oakhurst,58.88,113.4,54.43,124.74,292.57,Single-ply,SBD,F
Girls,60.1,4,Rash Tori,Needville,59.78,124.74,52.16,106.59,283.5,Single-ply,SBD,F
Girls,60.1,5,Alleana Jacobs,Port Arthur Memorial,58.15,99.79,47.63,129.27,276.69,Single-ply,SBD,F
Girls,60.1,6,Nuhoang Phan,Dickinson,58.88,117.93,45.36,113.4,276.69,Single-ply,SBD,F
Girls,60.1,7,Ashley Taunton,Beaumont West Brook,59.06,102.06,52.16,117.93,272.16,Single-ply,SBD,F
Girls,60.1,8,Samantha Rogers,New Caney Porter,59.87,102.06,58.97,108.86,269.89,Single-ply,SBD,F
Girls,60.1,9,Leila Abel,Beaumont West Brook,58.88,90.72,54.43,117.93,263.08,Single-ply,SBD,F
Girls,60.1,10,Emily Rubio,Dickinson,59.24,106.59,43.09,113.4,263.08,Single-ply,SBD,F
Girls,60.1,11,Abby Allen,Needville,59.15,102.06,58.97,99.79,260.82,Single-ply,SBD,F
Girls,60.1,12,Phuong Nam Khuu,Port Arthur Memorial,57.52,115.67,38.56,104.33,258.55,Single-ply,SBD,F
Girls,60.1,13,Valeria Cantu,Baytown Goose Creek Memorial,58.06,102.06,34.02,111.13,247.21,Single-ply,SBD,F
Girls,60.1,14,Keiara Ochoa,Port Arthur Memorial,57.7,90.72,43.09,106.59,240.4,Single-ply,SBD,F
Girls,60.1,DQ,Emily Mixon,Woodville,56.34,88.45,45.36,,,Single-ply,SBD,F
Girls,60.1,DQ,Brianna Salinas,Pasadena,59.87,,,,,Single-ply,SBD,F
Girls,67.36,1,Salome Norwood,New Caney,66.86,136.08,70.31,136.08,342.46,Single-ply,SBD,F
Girls,67.36,2,Ahniyah Walker,Beaumont West Brook,67.31,127.01,65.77,136.08,328.85,Single-ply,SBD,F
Girls,67.36,3,Kaitlin Chaffin,Willis,67.13,97.52,54.43,138.35,290.3,Single-ply,SBD,F
Girls,67.36,4,Kaelyn Andrus,Beaumont West Brook,67.04,115.67,56.7,115.67,288.03,Single-ply,SBD,F
Girls,67.36,5,Kayla Lawrence,Beaumont West Brook,67.31,108.86,49.9,127.01,285.76,Single-ply,SBD,F
Girls,67.36,6,Aundrea Cuevas,Corrigan-Camden,60.51,111.13,49.9,120.2,281.23,Single-ply,SBD,F
Girls,67.36,7,Arimoney McQuirter,Liberty,65.32,127.01,52.16,102.06,281.23,Single-ply,SBD,F
Girls,67.36,8,Tayler Landry,Beaumont West Brook,66.41,104.33,58.97,117.93,281.23,Single-ply,SBD,F
Girls,67.36,9,Brianna King,Woodville,64.77,97.52,52.16,129.27,278.96,Single-ply,SBD,F
Girls,67.36,10,Kaymen Anderson,Dickinson,64.5,115.67,47.63,113.4,276.69,Single-ply,SBD,F
Girls,67.36,11,Lucero Villafana,Splendora,63.23,102.06,54.43,106.59,263.08,Single-ply,SBD,F
Girls,67.36,12,Elizabeth Ochoa,Corrigan-Camden,67.13,102.06,38.56,115.67,256.28,Single-ply,SBD,F
Girls,67.36,13,Cynthia Alvarez,Baytown Goose Creek Memorial,66.13,102.06,38.56,108.86,249.48,Single-ply,SBD,F
Girls,67.36,14,Kara Lambert,Willis,65.05,92.99,52.16,102.06,247.21,Single-ply,SBD,F
Girls,67.36,15,Lillian Ratcliff,Dayton,63.23,95.25,40.82,108.86,244.94,Single-ply,SBD,F
Girls,67.36,16,Janice Maldonado,Willis,66.68,106.59,45.36,90.72,242.67,Single-ply,SBD,F
Girls,67.36,17,Zoe Martinez,Baytown Goose Creek Memorial,67.31,95.25,45.36,102.06,242.67,Single-ply,SBD,F
Girls,67.36,18,Destyni Trevino,La Marque,61.6,108.86,38.56,83.91,231.33,Single-ply,SBD,F
Girls,67.36,19,Riley Ellis,Dayton,63.59,88.45,36.29,102.06,226.8,Single-ply,SBD,F
Girls,67.36,20,Sulemy Toscano,Baytown Goose Creek Memorial,64.59,83.91,34.02,83.91,201.85,Single-ply,SBD,F
Girls,67.36,21,Kariana Horta,Baytown Goose Creek Memorial,67.36,77.11,36.29,81.65,195.04,Single-ply,SBD,F
Girls,67.36,22,Jessica Olivio,Dayton,64.14,70.31,31.75,81.65,183.7,Single-ply,SBD,F
Girls,67.36,23,Sidney Garcia,Dayton,60.33,70.31,31.75,79.38,181.44,Single-ply,SBD,F
Girls,67.36,DQ,Elissa Torres,Baytown Lee,62.96,106.59,,,,Single-ply,SBD,F
Girls,67.36,DQ,Kenzie McKey,Liberty,67.13,,,,,Single-ply,SBD,F
Girls,67.36,DQ,Alssya Craft,Liberty,67.13,,,,,Single-ply,SBD,F
Girls,75.07,1,Cristen Perera,Conroe Woodlands College Park,70.94,136.08,61.23,127.01,324.32,Single-ply,SBD,F
Girls,75.07,2,Kaitlyn Odom,Woodville,68.13,113.4,61.23,122.47,297.1,Single-ply,SBD,F
Girls,75.07,3,Amanda Harrell,New Caney,70.31,113.4,63.5,115.67,292.57,Single-ply,SBD,F
Girls,75.07,4,Kaiya Castle,Woodville,73.21,108.86,56.7,127.01,292.57,Single-ply,SBD,F
Girls,75.07,5,Camille Thompson,Beaumont West Brook,70.67,120.2,54.43,111.13,285.76,Single-ply,SBD,F
Girls,75.07,6,Alaya Roddey,Coldspring-Oakhurst,74.57,106.59,49.9,117.93,274.42,Single-ply,SBD,F
Girls,75.07,7,Amalia Flores,Baytown Lee,70.76,97.52,38.56,124.74,260.82,Single-ply,SBD,F
Girls,75.07,8,Cassy Nguyen,Corrigan-Camden,67.49,92.99,45.36,120.2,258.55,Single-ply,SBD,F
Girls,75.07,9,Victoria Herrera,La Porte,72.3,102.06,40.82,111.13,254.01,Single-ply,SBD,F
Girls,75.07,10,Kennedi Mumphrey,Dayton,71.12,106.59,45.36,97.52,249.48,Single-ply,SBD,F
Girls,75.07,11,Mariah Hayes,Beaumont United,72.48,104.33,43.09,102.06,249.48,Single-ply,SBD,F
Girls,75.07,12,Aliviah Hood,Willis,70.94,92.99,40.82,108.86,242.67,Single-ply,SBD,F
Girls,75.07,13,Kadence Garlington,Beaumont United,74.93,97.52,43.09,99.79,240.4,Single-ply,SBD,F
Girls,75.07,14,Anaiya Darkins,Beaumont United,72.12,79.38,52.16,104.33,235.87,Single-ply,SBD,F
Girls,75.07,15,Alysia Brown,Port Arthur Memorial,68.95,86.18,34.02,99.79,219.99,Single-ply,SBD,F
Girls,75.07,16,Hailey Ramos,La Porte,74.93,74.84,43.09,97.52,215.46,Single-ply,SBD,F
Girls,75.07,17,Dasmine Jefferson,Beaumont United,71.12,68.04,40.82,95.25,204.12,Single-ply,SBD,F
Girls,75.07,18,Amberly Mares,Pasadena,68.04,68.04,29.48,95.25,192.78,Single-ply,SBD,F
Girls,75.07,19,Kaytlyn Frankum,Liberty,69.4,68.04,31.75,90.72,190.51,Single-ply,SBD,F
Girls,75.07,20,Blessing Menifee,Corrigan-Camden,67.77,122.47,52.16,,174.63,Single-ply,SB,F
Girls,75.07,DQ,Arlen Hernandez,Pasadena,74.39,113.4,,62.6,,Single-ply,SBD,F
Girls,82.33,1,Katera Perkins,Beaumont West Brook,80.74,147.42,65.77,142.88,356.07,Single-ply,SBD,F
Girls,82.33,2,Kaylee Sims,Hamshire-Fannett,80.47,133.81,65.77,111.13,310.71,Single-ply,SBD,F
Girls,82.33,3,Allie Bumpurs,Splendora,78.65,122.47,52.16,133.81,308.44,Single-ply,SBD,F
Girls,82.33,4,Paula Torres,La Porte,79.83,136.08,52.16,117.93,306.17,Single-ply,SBD,F
Girls,82.33,5,Rosa Marroquin,Needville,79.11,129.27,63.5,111.13,303.91,Single-ply,SBD,F
Girls,82.33,6,Lety Rodriguez,Pasadena Memorial,80.92,127.01,40.82,127.01,294.84,Single-ply,SBD,F
Girls,82.33,7,Madison Branham,Hamshire-Fannett,79.02,129.27,47.63,113.4,290.3,Single-ply,SBD,F
Girls,82.33,8,Briana Williams,Beaumont West Brook,76.66,115.67,49.9,122.47,288.03,Single-ply,SBD,F
Girls,82.33,9,Aaliyah Oliver,La Marque,80.2,115.67,47.63,115.67,278.96,Single-ply,SBD,F
Girls,82.33,10,Jade Dominguez,Navasota,75.48,92.99,43.09,115.67,251.74,Single-ply,SBD,F
Girls,82.33,11,Stacey Trejo,Coldspring-Oakhurst,78.02,106.59,36.29,104.33,247.21,Single-ply,SBD,F
Girls,82.33,12,Eliza Guzman,Baytown Lee,81.1,77.11,43.09,115.67,235.87,Single-ply,SBD,F
Girls,82.33,13,Angelica Freas,La Porte,75.48,90.72,27.22,92.99,210.92,Single-ply,SBD,F
Girls,82.33,DQ,Iran Inzunza,Beaumont West Brook,79.11,,,,,Single-ply,SBD,F
Girls,82.33,DQ,Chasitie Evans,Liberty,82.1,,,,,Single-ply,SBD,F
Girls,82.33,DQ,Gabriella Gomez,Pasadena,78.2,,,,,Single-ply,SBD,F
Girls,90.04,1,Nubia Rodriguez,Liberty,86.09,158.76,72.57,147.42,378.75,Single-ply,SBD,F
Girls,90.04,2,Skylyn Flores,Navasota,88.81,133.81,79.38,151.95,365.14,Single-ply,SBD,F
Girls,90.04,3,Alyna Mickens,Beaumont West Brook,89.36,142.88,68.04,145.15,356.07,Single-ply,SBD,F
Girls,90.04,4,Kennedy Bonsal,New Caney Porter,89.99,115.67,79.38,111.13,306.17,Single-ply,SBD,F
Girls,90.04,5,Paulina Hernandez,Baytown Lee,86.73,124.74,47.63,129.27,301.64,Single-ply,SBD,F
Girls,90.04,6,Kloee Wells,Dayton,82.92,90.72,56.7,120.2,267.62,Single-ply,SBD,F
Girls,90.04,7,Shelby Kaack,Needville,87.09,108.86,58.97,99.79,267.62,Single-ply,SBD,F
Girls,90.04,8,Brianna Alanis,Baytown Lee,83.46,97.52,47.63,113.4,258.55,Single-ply,SBD,F
Girls,90.04,9,Armani Thompson,Beaumont United,85.46,79.38,43.09,95.25,217.72,Single-ply,SBD,F
Girls,90.04,10,Alexus Bluitt,Beaumont United,87.54,79.38,38.56,90.72,208.65,Single-ply,SBD,F
Girls,90.04,11,Sharina Johnson,Beaumont United,89.54,63.5,36.29,70.31,170.1,Single-ply,SBD,F
Girls,100.02,1,Zyria Basey,Navasota,96.98,142.88,61.23,147.42,351.53,Single-ply,SBD,F
Girls,100.02,2,Maria Pena,Pasadena Memorial,97.07,127.01,65.77,145.15,337.93,Single-ply,SBD,F
Girls,100.02,3,Ashanti Robinson,Dickinson,94.53,120.2,70.31,136.08,326.59,Single-ply,SBD,F
Girls,100.02,4,BreAnna Baker,New Caney,91.99,136.08,49.9,136.08,322.05,Single-ply,SBD,F
Girls,100.02,5,Madi Woods,New Caney Porter,95.44,122.47,83.91,115.67,322.05,Single-ply,SBD,F
Girls,100.02,6,Jennifer Galarza,New Caney Porter,91.35,106.59,74.84,124.74,306.17,Single-ply,SBD,F
Girls,100.02,7,Alexia Aquirre,Dickinson,96.16,117.93,54.43,117.93,290.3,Single-ply,SBD,F
Girls,100.02,8,Olivier Payton,La Marque,99.06,113.4,54.43,122.47,290.3,Single-ply,SBD,F
Girls,100.02,9,Jayden Hanks,Woodville,98.97,104.33,68.04,106.59,278.96,Single-ply,SBD,F
Girls,100.02,10,Tamia Ester,Conroe Woodlands College Park,99.88,104.33,56.7,97.52,258.55,Single-ply,SBD,F
Girls,100.02,DQ,Niya Humphrey,La Porte,96.52,,,,,Single-ply,SBD,F
Girls,117.71,1,Stephanie Hawkins,Dickinson,101.33,151.95,63.5,138.35,353.8,Single-ply,SBD,F
Girls,117.71,2,Madison Hall,Channelview,105.23,142.88,68.04,138.35,349.27,Single-ply,SBD,F
Girls,117.71,3,Toni Vargas,Dayton,114.31,131.54,68.04,131.54,331.12,Single-ply,SBD,F
Girls,117.71,4,Nattali Vonessen,Woodville,104.96,117.93,74.84,127.01,319.78,Single-ply,SBD,F
Girls,117.71,5,Jalecia Myles,Dickinson,111.67,115.67,61.23,133.81,310.71,Single-ply,SBD,F
Girls,117.71,6,Anina Miller,Beaumont West Brook,107.23,104.33,72.57,127.01,303.91,Single-ply,SBD,F
Girls,117.71,7,Tara Boone,Needville,100.33,120.2,58.97,111.13,290.3,Single-ply,SBD,F
Girls,117.71,8,Kirah Williams,Beaumont United,112.67,74.84,38.56,108.86,222.26,Single-ply,SBD,F
Girls,117.71,DQ,Aleicya Sells,Beaumont West Brook,102.69,88.45,,,,Single-ply,SBD,F
Girls,117.71+,1,Koral Sylestine,Woodville,121.93,170.1,97.52,170.1,437.72,Single-ply,SBD,F
Girls,117.71+,2,Avari Ford,Willis,139.89,142.88,63.5,147.42,353.8,Single-ply,SBD,F
Girls,117.71+,3,Brooke McClelland,Willis,121.02,133.81,77.11,104.33,315.25,Single-ply,SBD,F
Girls,117.71+,4,Aniaya Hart,Port Arthur Memorial,121.29,122.47,52.16,106.59,281.23,Single-ply,SBD,F
Girls,117.71+,DQ,Karynton Mitchell,Beaumont West Brook,129.46,124.74,,,,Single-ply,SBD,F
Girls,117.71+,DQ,Tynealle Brown,Houston Northbrook,138.07,90.72,43.09,,,Single-ply,SBD,F
