Name,Sex,Division,Equipment,WeightClassKg,BodyweightKg,Age,Squat4Kg,Best3SquatKg,Bench4Kg,Best3BenchKg,Deadlift4Kg,Best3DeadliftKg,TotalKg,Tested,Event,Place
Heather LoRocque,F,F_TR_3_APF,Raw,56,54.5,18,,72.5,,50,92.5,85,207.5,,SBD,1
Jessica Hockemeyer,F,F_JR_APF,Raw,67.5,61.1,21,,55,,45,,92.5,192.5,,SBD,1
Jessica Hockemeyer,F,F_OR_APF,Raw,67.5,61.1,21,,55,,45,,92.5,192.5,,SBD,1
Jessi Metz,F,F_OR_APF,Raw,75,71.5,26,,62.5,,45,,92.5,200,,SBD,1
Sarah Tal,F,F_SR_APF,Raw,52,50.2,36,,30,,60,,125,215,,SBD,1
Jody Tripp,F,F_MR_1_APF,Raw,75,74.2,40,,85,,72.5,,140,297.5,,SBD,1
Josh Smith #29,M,M_TR_1_APF,Raw,60,59.7,15,,85,,70,,137.5,292.5,,SBD,1
Devan Govatos,M,M_TR_1_APF,Raw,75,71.4,15,,115,,100,,170,385,,SBD,1
Landon Fisher,M,M_TR_1_APF,Raw,100,95.7,15,,155,105,102.5,212.5,205,462.5,,SBD,1
Jacob Harris,M,M_TR_1_APF,Raw,100,97.6,15,137.5,127.5,,102.5,,167.5,397.5,,SBD,2
Brock Parkinson,M,M_TR_1_APF,Raw,100,95.4,15,,105,,77.5,142.5,132.5,315,,SBD,3
Ryan Turner,M,M_TR_2_APF,Raw,75,71.4,16,75,70,,85,147.5,142.5,297.5,,SBD,1
Justin Garner,M,M_TR_3_APF,Raw,67.5,64.4,18,,,,,,,,,SBD,DQ
Ryan Lund,M,M_TR_3_APF,Raw,75,71.4,18,,115,,100,192.5,187.5,402.5,,SBD,1
Sheyden Turner,M,M_TR_3_APF,Raw,82.5,80.8,19,115,102.5,,90,192.5,187.5,380,,SBD,1
Josh Winterrowd,M,M_TR_3_APF,Raw,100,99.2,19,,247.5,,132.5,,245,625,,SBD,1
Cesar Romero,M,M_TR_3_APF,Raw,125,124.8,18,,185,,122.5,227.5,212.5,520,,SBD,1
Bret Luoma,M,M_JR_APF,Raw,,,21,,,,,,,,,SBD,DQ
Francisco Enriquez,M,M_JR_APF,Raw,90,87.3,20,,175,,102.5,212.5,205,482.5,,SBD,1
Marcelo Arantes,M,M_OR_APF,Raw,75,71.8,36,,130,,95,,177.5,402.5,,SBD,2
Ryan Lund,M,M_OR_APF,Raw,75,71.4,18,,115,,100,192.5,187.5,402.5,,SBD,1
Michael Saunders,M,M_OR_APF,Raw,82.5,82.2,29,,215,,155,,250,620,,SBD,1
Austin Knight,M,M_OR_APF,Raw,82.5,81.2,30,,182.5,,105,,185,472.5,,SBD,2
Todd Light,M,M_OR_APF,Raw,90,88.6,28,,170,,115,,192.5,477.5,,SBD,1
Vito Palazolo,M,M_OR_APF,Raw,100,99.6,53,,217.5,187.5,182.5,237.5,227.5,627.5,,SBD,1
JT Jichia,M,M_OR_APF,Raw,100,97.5,25,,160,,137.5,,215,512.5,,SBD,2
Kyle Taylor,M,M_OR_APF,Raw,125,124.1,24,,182.5,,182.5,,250,615,,SBD,1
Kelly Kimzey,M,M_OR_APF,Raw,,,,,,,,,,,,SBD,DQ
Clay Tawzer,M,M_OR_APF,Raw,140+,164.6,26,,227.5,170,165,235,227.5,620,,SBD,1
Bob Rogers,M,M_SR_APF,Raw,,,35,,,,,,,,,SBD,DQ
Erik Rasmussen,M,M_SR_APF,Raw,140,135.1,33,,207.5,,,,,,,SBD,DQ
Dallas Whiting,M,M_MR_1_APF,Raw,125,121.2,44,,205,,137.5,,207.5,550,,SBD,1
Jesse Israel,M,M_MR_2_APF,Raw,90,87.5,45,200,195,,137.5,,210,542.5,,SBD,1
Keith Utz,M,M_MR_2_APF,Raw,100,99.7,45,,182.5,,135,,250,567.5,,SBD,1
John Winterrowd,M,M_MR_2_APF,Raw,100,92.5,47,,185,,122.5,,185,492.5,,SBD,2
Phil Turner,M,M_MR_2_APF,Raw,110,108.4,45,,170,,130,235,230,530,,SBD,1
J.J. Putnam,M,M_MR_2_APF,Raw,125,115,47,,142.5,147.5,145,190,185,472.5,,SBD,1
Richard Neumann,M,M_MR_3_APF,Raw,90,89.6,52,,147.5,,127.5,,215,490,,SBD,1
Vito Palazolo,M,M_MR_3_APF,Raw,100,99.6,53,,217.5,187.5,182.5,237.5,227.5,627.5,,SBD,1
Monte Davis,M,M_MR_4_APF,Raw,125,120,55,201,195,,132.5,232.5,227.5,555,,SBD,1
Sonny Nummi,M,M_MR_5_APF,Raw,82.5,81.1,62,,30,,97.5,155,152.5,280,,SBD,1
Raquel Redmond,F,F_JR_APF,Raw,75,73.8,22,,,,55,,,55,,B,1
Hedy Miller,F,F_OR_APF,Raw,56,53.8,56,,,,75,,,75,,B,1
Josh Smith #29,M,M_TR_1_APF,Raw,60,59.7,15,,,,70,,,70,,B,1
Caleb Walgamott,M,M_TR_1_APF,Raw,75,69,14,,,,,,,,,B,DQ
Devan Govatos,M,M_TR_1_APF,Raw,75,71.4,15,,,,100,,,100,,B,1
Gabriel Archuleta,M,M_TR_1_APF,Raw,90,86.5,14,,,,115,,,115,,B,1
Landon Fisher,M,M_TR_1_APF,Raw,100,95.7,15,,,,102.5,,,102.5,,B,1
Jacob Harris,M,M_TR_1_APF,Raw,100,97.6,15,,,,95,,,95,,B,2
Brock Parkinson,M,M_TR_1_APF,Raw,100,95.4,15,,,,77.5,,,77.5,,B,3
Justin Garner,M,M_TR_3_APF,Raw,67.5,64.4,18,,,,87.5,,,87.5,,B,1
Brandon Utz,M,M_TR_3_APF,Raw,75,75,,,,,95,,,,,B,DQ
Conner Gordon,M,M_TR_3_APF,Raw,100,94.9,19,,,,130,,,130,,B,1
Jody Anest,M,M_OR_APF,Raw,75,73.5,45,,,,145,,,145,,B,1
Marcelo Arantes,M,M_OR_APF,Raw,75,71.8,36,,,,95,,,95,,B,2
Austin Knight,M,M_OR_APF,Raw,82.5,81.2,30,,,,105,,,105,,B,1
Brandon Parks,M,M_OR_APF,Raw,,,,,,,,,,,,B,DQ
Bryon Branning,M,M_OR_APF,Raw,90,89.9,28,,,,135,,,135,,B,1
Todd Light,M,M_OR_APF,Raw,90,88.6,28,,,,115,,,115,,B,2
Vito Palazolo,M,M_OR_APF,Raw,100,99.6,53,,,,182.5,,,182.5,,B,1
Brandon Branning,M,M_OR_APF,Raw,100,97.5,29,,,,175,,,175,,B,2
Rich Farris,M,M_OR_APF,Raw,110,108,36,,,,,,,,,B,DQ
Kyle Taylor,M,M_OR_APF,Raw,125,124.1,24,,,,192.5,,,192.5,,B,1
Brad Tripp,M,M_OR_APF,Raw,140+,152.1,44,,,,207.5,,,207.5,,B,1
Clay Tawzer,M,M_OR_APF,Raw,140+,164.6,26,,,,165,,,165,,B,2
Larry Modena,M,M_OR_APF,Raw,140+,161.3,43,,,,,,,,,B,DQ
Rich Farris,M,M_SR_APF,Raw,110,108,36,,,,,,,,,B,DQ
Bart Adamson,M,M_SR_APF,Raw,125,115,38,,,,107.5,,,107.5,,B,1
Erik Rasmussen,M,M_SR_APF,Raw,,,33,,,,,,,,,B,DQ
Mike Haynes,M,M_MR_1_APF,Raw,75,71.6,40,,,,115,,,115,,B,1
Mike Baker,M,M_MR_1_APF,Raw,90,83,40,,,,122.5,,,122.5,,B,1
Larry Modena,M,M_MR_1_APF,Raw,140+,161.3,43,,,,,,,,,B,DQ
Jody Anest,M,M_MR_2_APF,Raw,75,73.5,45,,,,145,,,145,,B,1
J.J. Putnam,M,M_MR_2_APF,Raw,125,115.5,47,,,147.5,145,,,145,,B,1
Bob Baker,M,M_MR_3_APF,Raw,82.5,82.5,52,,,,132.5,,,132.5,,B,1
Vito Palazolo,M,M_MR_3_APF,Raw,100,99.6,53,,,,182.5,,,182.5,,B,2
Ralph Branning,M,M_MR_3_APF,Raw,100,97.5,52,,,,200,,,200,,B,1
Douglas Ward,M,M_MR_4_APF,Raw,67.5,64.4,59,,,131,125,,,125,,B,1
Peter Herdt,M,M_MR_4_APF,Raw,140+,162,59,,,,165,,,165,,B,1
Sonny Nummi,M,M_MR_5_APF,Raw,82.5,81.1,62,,,,97.5,,,97.5,,B,1
Margaret Kirkland,F,F_OEM_APF,Multi-ply,56,55.4,45,,190,,112.5,,185,487.5,,SBD,1
Jessi Metz,F,F_OEM_APF,Multi-ply,75,71.6,26,,72.5,,52.5,,95,220,,SBD,1
Jacqueline Stone,F,F_OEM_APF,Multi-ply,90+,98.6,30,,192.5,,115,,170,477.5,,SBD,1
Heather Gibson,F,F_OEM_APF,Multi-ply,90+,102.9,35,,187.5,,115,,132.5,435,,SBD,2
Mary Rubcic-Tawzer,F,F_OEM_APF,Multi-ply,90+,101.8,52,,82.5,,67.5,,125,275,,SBD,3
Mary Rubcic-Tawzer,F,F_MEM_3_APF,Multi-ply,90+,101.8,52,,82.5,,67.5,,125,275,,SBD,1
Nora Langdon,F,F_MEM_6_APF,Multi-ply,90,84.1,66,,165,,72.5,,162.5,400,,SBD,1
Mary Chatel,F,F_MEM_8_APF,Multi-ply,44,42.6,79,,42.5,,25,,60,127.5,,SBD,1
Jordan Gibson,M,M_TEM_1_APF,Multi-ply,110,106.3,15,,295,,150,250,237.5,682.5,,SBD,1
Alex Whitaker,M,M_TEM_3_APF,Multi-ply,140,131.4,19,,320,,,,,,,SBD,DQ
Nick Lenhart,M,M_JEM_APF,Multi-ply,67.5,65.5,22,,205,,165,,247.5,617.5,,SBD,1
Jordan Conley,M,M_JEM_APF,Multi-ply,75,69.4,20,,192.5,,137.5,,165,495,,SBD,1
De'Andre Nunn,M,M_JEM_APF,Multi-ply,100,99.7,23,,282.5,,182.5,,275,740,,SBD,1
Tyler Roessler,M,M_JEM_APF,Multi-ply,140,137.3,23,,272.5,,225,,275,772.5,,SBD,1
Kurt Larsen,M,M_SEM_APF,Multi-ply,90,83.6,36,,227.5,,182.5,,210,620,,SBD,1
David Edgil,M,M_SEM_APF,Multi-ply,140+,154.7,37,,182.5,,227.5,,327.5,737.5,,SBD,1
Geri Cunningham,F,F_TEM_2_AAPF,Multi-ply,44,40.6,16,,,,47.5,,,47.5,Yes,B,1
Geri Cunningham,F,F_OEM_AAPF,Multi-ply,44,40.6,16,,,,47.5,,,47.5,Yes,B,1
Ambyr Reyes,F,F_TEM_3_AAPF,Multi-ply,,,,,,,,,,,Yes,B,DQ
Gabriel Archuleta,M,M_TEM_1_AAPF,Multi-ply,90,86.5,15,,,138.5,137.5,,,137.5,Yes,B,1
Kevin Platt,M,M_JEM_AAPF,Multi-ply,90,90,21,,,,,,,,Yes,B,DQ
Mary Rubcic-Tawzer,F,F_MEM_3_AAPF,Multi-ply,90+,101.8,52,,,,67.5,,,67.5,Yes,B,1
Wilma Cadavona,F,F_MEM_4_AAPF,Multi-ply,,,56,,,,,,,,Yes,B,DQ
Nora Langdon,F,F_MEM_6_AAPF,Multi-ply,90,84.1,66,,,,72.5,,,72.5,Yes,B,1
Mary Chatel,F,F_MEM_8_AAPF,Multi-ply,44,43,79,,,,25,,,25,Yes,B,1
Gabriel Archuleta,M,M_TEM_1_AAPF,Multi-ply,90,87,15,,,,137.5,,,137.5,Yes,B,2
Ken Wentworth,M,M_SEM_AAPF,Multi-ply,82.5,82.5,38,,,,207.5,,,207.5,Yes,B,1
Thomas Ponzio,M,M_SEM_AAPF,Multi-ply,90,89.8,39,,,236,217.5,,,217.5,Yes,B,1
Dale Szymanski,M,M_SEM_AAPF,Multi-ply,125,123.5,39,,,,292.5,,,292.5,Yes,B,1
Dave Fortner,M,M_SEM_AAPF,Multi-ply,125,121.8,38,,,,237.5,,,237.5,Yes,B,2
James Straight,M,M_SEM_AAPF,Multi-ply,140+,175.6,38,,,,265,,,265,Yes,B,1
David Edgil,M,M_SEM_AAPF,Multi-ply,140+,154.7,37,,,,227.5,,,227.5,Yes,B,2
Spencer Westwood,M,M_OEM_AAPF,Multi-ply,67.5,67.5,26,,247.5,,152.5,,227.5,627.5,Yes,SBD,1
Devin Cagnolatti,M,M_OEM_AAPF,Multi-ply,82.5,81.8,35,,302.5,,247.5,,255,805,Yes,SBD,1
Eric Stone,M,M_OEM_AAPF,Multi-ply,82.5,80.6,26,,292.5,,195,,230,717.5,Yes,SBD,2
Ronnie Paras,M,M_OEM_AAPF,Multi-ply,90,88.5,47,,,,,,,,Yes,SBD,DQ
Jason Visny,M,M_OEM_AAPF,Multi-ply,100,99.2,29,,292.5,,205,,237.5,735,Yes,SBD,1
John Tomasoski,M,M_OEM_AAPF,Multi-ply,110,109.2,32,,227.5,,165,,237.5,630,Yes,SBD,2
Tyler Nelson,M,M_OEM_AAPF,Multi-ply,110,110,24,,297.5,,202.5,,255,755,Yes,SBD,1
John Grosulak,M,M_OEM_AAPF,Multi-ply,,,23,,,,,,,,Yes,SBD,DQ
Jason Gibson,M,M_OEM_AAPF,Multi-ply,140,126,35,,,,,,,,Yes,SBD,DQ
Brian Mielke,M,M_MEM_1_AAPF,Multi-ply,140+,144,43,,210,,165,,240,615,Yes,SBD,1
David Edmondson,M,M_MEM_2_AAPF,Multi-ply,75,67.6,47,,247.5,,122.5,231,230,600,Yes,SBD,1
Keith Penny,M,M_MEM_2_AAPF,Multi-ply,82.5,82.4,48,,222.5,,145,,250,617.5,Yes,SBD,1
Phil Turner,M,M_MEM_2_AAPF,Multi-ply,110,103.6,45,,110,,100,,150,360,Yes,SBD,1
Russ Bennett,M,M_MEM_2_AAPF,Multi-ply,140,130.1,46,,245,,210,,277.5,732.5,Yes,SBD,1
Francis Rudy Ruettiger,M,M_MEM_3_AAPF,Multi-ply,82.5,81.6,54,,227.5,,175,,240,642.5,Yes,SBD,1
Andy Scardino,M,M_MEM_5_AAPF,Multi-ply,,,60,,,,,,,,Yes,SBD,DQ
Larry Sandberg,M,M_MEM_6_AAPF,Multi-ply,125,111.4,68,,215,,197.5,,227.5,640,Yes,SBD,1
Dennis Shock,M,M_MEM_5_AAPF,Multi-ply,125,116.6,61,220,215,,92.5,,182.5,490,Yes,SBD,1
David Edmondson,M,M_PFEM_AAPF,Multi-ply,75,67.6,47,,247.5,,122.5,231,230,600,Yes,SBD,1
David Edmondson,M,M_OEM_AAPF,Multi-ply,75,67.6,47,,247.5,,122.5,231,230,600,Yes,SBD,1
David Edmondson,M,M_PFEM_AAPF,Multi-ply,75,67.6,47,,247.5,,122.5,231,230,600,Yes,SBD,2
David Edmondson,M,M_MEM_2_AAPF,Multi-ply,75,67.6,47,,247.5,,122.5,231,230,600,Yes,SBD,2
Francis Rudy Ruettiger,M,M_PFEM_AAPF,Multi-ply,82.5,81.6,54,,227.5,,175,,240,642.5,Yes,SBD,1
Francis Rudy Ruettiger,M,M_MEM_3_AAPF,Multi-ply,82.5,81.6,54,,227.5,,175,,240,642.5,Yes,SBD,2
Scott Mecham,M,M_OEM_AAPF,Multi-ply,100,100,29,,,,275,,,275,Yes,B,1
Leo Warmsbecker,M,M_OEM_AAPF,Multi-ply,,,43,,,,,,,,Yes,B,DQ
Donald McKinney,M,M_OEM_AAPF,Multi-ply,110,110,28,,,,190,,,190,Yes,B,1
Brian Longie,M,M_OEM_AAPF,Multi-ply,110,108.5,32,,,,152.5,,,152.5,Yes,B,3
Brent Monson,M,M_OEM_AAPF,Multi-ply,,,35,,,,,,,,Yes,B,DQ
Dave Fortner,M,M_OEM_AAPF,Multi-ply,,,38,,,,,,,,Yes,B,DQ
Tim Cowgar,M,M_OEM_AAPF,Multi-ply,,,42,,,,,,,,Yes,B,DQ
Erik Belakton,M,M_OEM_AAPF,Multi-ply,,,26,,,,,,,,Yes,B,DQ
Sava Basic,M,M_OEM_AAPF,Multi-ply,140,138.8,24,,,,220,,,220,Yes,B,1
Brad Tripp,M,M_OEM_AAPF,Multi-ply,140+,153.5,44,,,,290,,,290,Yes,B,1
Leo Warmsbecker,M,M_MEM_1_AAPF,Multi-ply,,,43,,,,,,,,Yes,B,DQ
Tim Cowgar,M,M_MEM_1_AAPF,Multi-ply,,,42,,,,,,,,Yes,B,DQ
Jody Anest,M,M_MEM_2_AAPF,Multi-ply,75,73.7,45,,,,167.5,,,167.5,Yes,B,1
Russ Bennett,M,M_MEM_2_AAPF,Multi-ply,140,130.1,46,,,,210,,,210,Yes,B,1
Doug Clayton,M,M_MEM_3_AAPF,Multi-ply,90,88.2,52,,,,177.5,,,177.5,Yes,B,1
Randy Marchant,M,M_MEM_4_AAPF,Multi-ply,100,96.8,57,,,,172.5,,,172.5,Yes,B,1
Douglas Ward,M,M_MEM_4_AAPF,Multi-ply,125,113.4,59,,,,152.5,,,152.5,Yes,B,2
Ken Tawzer,M,M_MEM_4_AAPF,Multi-ply,125,113.1,57,,,186,185,,,185,Yes,B,1
Larry Sandberg,M,M_MEM_6_AAPF,Multi-ply,125,111.4,68,,,,197.5,,,197.5,Yes,B,1
Jeffery Haiduke,M,M_PFEM_AAPF,Multi-ply,75,71.9,25,,,,192.5,,,192.5,Yes,B,1
Jeffery Haiduke,M,M_OEM_AAPF,Multi-ply,75,71.9,25,,,,192.5,,,192.5,Yes,B,1
Donald McKinney,M,M_PFEM_AAPF,Multi-ply,110,110,28,,,,190,,,190,Yes,B,1
Donald McKinney,M,M_OEM_AAPF,Multi-ply,110,110,28,,,,190,,,190,Yes,B,2
Sava Basic,M,M_PFEM_AAPF,Multi-ply,140,138.8,24,,,,220,,,220,Yes,B,1
Sava Basic,M,M_OEM_AAPF,Multi-ply,140,138.8,24,,,,220,,,220,Yes,B,2
Ken Tawzer,M,M_PFEM_AAPF,Multi-ply,125,113.1,52,,,186,185,,,185,Yes,B,1
Ken Tawzer,M,M_MEM_3_AAPF,Multi-ply,125,113.1,52,,,186,185,,,185,Yes,B,1
