Name,Team,Division,BodyweightKg,WeightClassKg,Squat1Kg,Squat2Kg,Squat3Kg,Best3SquatKg,Bench1Kg,Bench2Kg,Bench3Kg,Best3BenchKg,Deadlift1Kg,Deadlift2Kg,Deadlift3Kg,Best3DeadliftKg,TotalKg,Sex,Event,Place,Equipment,BirthDate
Alex Summers,SE,MR-Sj,50.45,53,105,-115,115,115,-65,68.5,72.5,72.5,130,-137.5,137.5,137.5,325,M,SBD,1,Raw,
Anthony Moszuti,GL,MR-Sj,58.5,59,105,120,130,130,55,65,70,70,130,140,-145,140,340,M,SBD,1,Raw,
Leo Low-Foon,SE,MR-Sj,64,66,-105,110,120,120,60,70,77.5,77.5,140,161,165,165,362.5,M,SBD,1,Raw,
Oliver Woodman,GL,MR-Sj,78,83,162.5,172.5,180,180,112.5,120,-127.5,120,190,200,210,210,510,M,SBD,1,Raw,
Edward Owen #1,SE,MR-Sj,81.8,83,160,170,180,180,110,117.5,-122.5,117.5,190,202.5,-215,202.5,500,M,SBD,2,Raw,
Jonathan Lewis #1,SE,MR-Sj,81.5,83,-135,135,-165,135,100,115,-130,115,190,220,245,245,495,M,SBD,3,Raw,2001-02-10
Reece Dickenson,SE,MR-Sj,79.4,83,150,-170,-170,150,70,77.5,82.5,82.5,175,185,195,195,427.5,M,SBD,4,Raw,
Andrew Chalkley,SE,MR-Sj,80.05,83,140,-150,-150,140,85,92.5,-97.5,92.5,157.5,165,-170,165,397.5,M,SBD,5,Raw,
Tomas Chu,GL,MR-Sj,75.1,83,125,135,140,140,70,77.5,-82.5,77.5,140,147.5,155,155,372.5,M,SBD,6,Raw,
Ben Jeacock,SE,MR-Sj,92.45,93,140,150,160,160,95,100,105,105,165,175,182.5,182.5,447.5,M,SBD,1,Raw,2001-05-25
Brendan Atkinson,SE,MR-Sj,109.6,120,-160,165,-172.5,165,90,-102.5,-102.5,90,170,190,-202.5,190,445,M,SBD,1,Raw,
Archie Reid,SE,MR-Sj,128,120+,100,-110,110,110,90,-95,100,100,160,-200,-200,160,370,M,SBD,1,Raw,
Max Young,SE,MR-Jr,73.55,74,180,-190,-192.5,180,110,115,120,120,200,210,-220,210,510,M,SBD,1,Raw,
Adam Scott #1,SE,MR-Jr,73.25,74,150,165,175,175,110,117.5,-125,117.5,175,187.5,200,200,492.5,M,SBD,2,Raw,
Tommy Croud,SE,MR-Jr,70.7,74,-135,140,-150,140,95,102.5,-107.5,102.5,190,200,-210,200,442.5,M,SBD,3,Raw,
Saifullah Cepalovic,SE,MR-Jr,73,74,120,125,130,130,80,85,-90,85,140,147.5,-152.5,147.5,362.5,M,SBD,4,Raw,
Kaine Hills,SE,MR-Jr,73,74,95,-110,-110,95,52.5,-62.5,62.5,62.5,140,150,-165,150,307.5,M,SBD,5,Raw,
Conor Eede,SE,MR-Jr,68.7,74,145,160,-170,160,-102.5,-102.5,-102.5,,185,195,202.5,202.5,,M,SBD,DQ,Raw,
Mike Engelkamp,SE,MR-Jr,82.85,83,-170,170,180,180,117.5,-125,-125,117.5,230,-246,-246,230,527.5,M,SBD,1,Raw,
Mohammed Rahman #1,SE,MR-Jr,80.8,83,175,185,-190,185,100,105,107.5,107.5,220,230,-235,230,522.5,M,SBD,2,Raw,
Oliver Davies,SE,MR-Jr,80.6,83,145,-155,-160,145,110,117.5,125,125,195,205,220,220,490,M,SBD,3,Raw,
Samuel Dussek,SE,MR-Jr,92.6,93,145,147.5,165,165,-100,110,115,115,215,-230,-235,215,495,M,SBD,1,Raw,
Boris Bartenev,SE,MR-Jr,88,93,-180,-200,200,200,-100,105,-110,105,-200,-220,-220,,,M,SBD,DQ,Raw,
Callum Halit,SE,MR-Jr,94.8,105,190,205,-220,205,125,140,-147.5,140,220,235,-245,235,580,M,SBD,1,Raw,
Dean Fisher,SE,MR-Jr,96.8,105,170,185,195,195,105,115,130,130,210,220,235,235,560,M,SBD,2,Raw,
Richard Rorak,GL,MR-Jr,102,105,190,195,200,200,120,125,130,130,210,220,-225,220,550,M,SBD,3,Raw,
Guy Kennedy,SE,MR-Jr,95.6,105,180,182.5,190,190,105,112.5,-117.5,112.5,220,-230,-230,220,522.5,M,SBD,4,Raw,
Paul Martin,SE,MR-Jr,114.4,120,180,190,200,200,140,-155,-162.5,140,190,210,-235,210,550,M,SBD,1,Raw,
Bradley May,SE,MR-Jr,120.5,120+,280,-300,-305,280,165,172.5,177.5,177.5,275,300,315,315,772.5,M,SBD,1,Raw,
Luke Bennett,SE,MR-O,57.95,59,185,195,200,200,110,115,120,120,-185,185,-200.5,185,505,M,SBD,1,Raw,
Adam Hamilton,GL,MR-O,73.6,74,200,210,220,220,110,115,-122.5,115,190,210,-212.5,210,545,M,SBD,1,Raw,
Nixon Tay,SE,MR-O,72.2,74,60,,,60,120,127.5,-135,127.5,60,,,60,247.5,M,SBD,2,Raw,
Carlo Manzi,SE,MR-O,69.15,74,-160,-160,-160,,100,-102.5,-105,100,190,-205,-205,190,,M,SBD,DQ,Raw,
Dan Chipps,SE,MR-O,80.35,83,-200,-215,215,215,150,155,160,160,230,245,250,250,625,M,SBD,1,Raw,
Zach Noble-Davies,GL,MR-O,77.85,83,170,172.5,190,190,90,100,115,115,180,200,-210,200,505,M,SBD,2,Raw,
Daniel Bush,SE,MR-O,82.9,83,137.5,145,150,150,112.5,117.5,120,120,165,177.5,185,185,455,M,SBD,3,Raw,
Jesse Sharplin,SE,MR-O,90.2,93,240,250,-255,250,185,192.5,-195,192.5,262.5,272.5,-282.5,272.5,715,M,SBD,1,Raw,
Richard Perfield,SE,MR-O,90.05,93,220,235,245,245,170,-180,,170,-250,250,280,280,695,M,SBD,2,Raw,
Michael Tennant,SE,MR-O,92.1,93,232.5,245,250.5,250.5,142.5,150,155,155,285.5,-303,-310,285.5,691,M,SBD,3,Raw,
Yusufu Shehu,SE,MR-O,90.8,93,195,205,215,215,137.5,145,-152.5,145,-245,260,272.5,272.5,632.5,M,SBD,4,Raw,
Stewart Hill,SE,MR-O,91.6,93,185,197.5,205,205,140,150,-155,150,250,262.5,270,270,625,M,SBD,5,Raw,
Oliver Helm,SE,MR-O,87.25,93,-217.5,217.5,225,225,122.5,130,135,135,220,-230,-240,220,580,M,SBD,6,Raw,
Ross Thompson,SE,MR-O,89.8,93,185,195,202.5,202.5,117.5,127.5,-132.5,127.5,215,227.5,235,235,565,M,SBD,7,Raw,
Jack Meadwell,SE,MR-O,90.2,93,180,190,200,200,-120,120,125,125,200,210,220,220,545,M,SBD,8,Raw,
Jaime Bradford,SE,MR-O,92.1,93,-172.5,-172.5,172.5,172.5,-140,140,-145,140,205,-212.5,-212.5,205,517.5,M,SBD,9,Raw,
Alfie Andrews,SE,MR-O,88.55,93,115,-125,125,125,80,85,-92.5,85,130,145,-152.5,145,355,M,SBD,1,Raw,
Ashley Watson,EM,MR-O,91.8,93,210,-220,-220,210,-155,-155,-155,,-240,-240,240,240,,M,SBD,DQ,Raw,
Ross Brimsted,SE,MR-O,104.5,105,267.5,-281,281,281,165,170,175,175,300,313,,313,769,M,SBD,1,Raw,
Joey Watson,SE,MR-O,104.7,105,210,220,227.5,227.5,180,188,-192.5,188,245,255,,255,670.5,M,SBD,2,Raw,
Matthew Smith #5,SE,MR-O,102.8,105,215,-225,225,225,147.5,150,-152.5,150,245,252.5,-260,252.5,627.5,M,SBD,3,Raw,
Tom Andrews,SE,MR-O,103.1,105,197.5,210,217.5,217.5,132.5,140,-145,140,225,237.5,250,250,607.5,M,SBD,4,Raw,
Darren Humphreys,SE,MR-O,97.7,105,135,-150,-150,135,70,-85,-85,70,170,185,202.5,202.5,407.5,M,SBD,5,Raw,
Simon Mercer,SE,MR-O,117.5,120,205,215,222.5,222.5,160,165,170,170,250,265,-275,265,657.5,M,SBD,1,Raw,
Jack Morecroft,SE,MR-O,109.9,120,210,220,230,230,140,150,155,155,240,-250,250,250,635,M,SBD,2,Raw,
Christopher Gillard,SE,MR-O,148.6,120+,185,195,202.5,202.5,145,150,155,155,210,220,230,230,587.5,M,SBD,1,Raw,
Jodi Collins,SE,FR-Sj,61.8,63,70,80,87.5,87.5,45,52.5,-56,52.5,105,115,120,120,260,F,SBD,1,Raw,
Abigail Mahoney,SE,FR-Jr,76.4,84,125,130,-132.5,130,62.5,-67.5,-67.5,62.5,130,140,-145,140,332.5,F,SBD,1,Raw,
Kristina March,SE,FR-O,56.35,57,102.5,110,-115,110,70,75,78,78,135,145,152.5,152.5,340.5,F,SBD,1,Raw,
Kirstie Elbourn,SE,FR-O,56.9,57,105,-110,110,110,55,-57.5,-57.5,55,135,145,-150,145,310,F,SBD,2,Raw,
Katie Reid,SE,FR-O,55.9,57,80,90,100,100,47.5,50,-55,50,115,125,127.5,127.5,277.5,F,SBD,3,Raw,
Kim Godfrey,SE,FR-O,56.4,57,70,72.5,-75,72.5,35,37.5,-40,37.5,90,97.5,102.5,102.5,212.5,F,SBD,4,Raw,
Elly Barr-Richardson,SE,FR-O,62.7,63,102.5,-110,110,110,70,-75,-75,70,,,,,,F,SBD,DQ,Raw,
Bronte Williams,SE,FR-O,69.05,72,105,-112.5,112.5,112.5,60,-62.5,62.5,62.5,135,145,150,150,325,F,SBD,1,Raw,
Ruth Long,SE,FR-O,69.15,72,80,85,90,90,50,52.5,-55,52.5,115,125,-130,125,267.5,F,SBD,2,Raw,
Beth Kidd,SE,FR-O,68.6,72,80,90,-95,90,40,42.5,-47.5,42.5,95,105,107.5,107.5,240,F,SBD,3,Raw,
Shannon Rigler,SM,FR-O,68.5,72,115,120,-125,120,-60,-62.5,-62.5,,,,,,,F,SBD,DQ,Raw,
Natalie Fletcher,SE,FR-O,78.05,84,105,-112.5,115,115,57.5,-62.5,62.5,62.5,125,147.5,,147.5,325,F,SBD,1,Raw,
Rebecca Coggle,SE,FR-O,130.5,84+,-160,160,-175,160,85,95,-102.5,95,137.5,145,155,155,410,F,SBD,1,Raw,
Gemma Price,SE,FR-O,113.4,84+,90,-100,100,100,65,-70,-70,65,110,-125,,110,275,F,SBD,2,Raw,
Helen Falconer,SE,FR-O,122.5,84+,-65,-70,-70,,-57.5,-62.5,62.5,62.5,100,107.5,110,110,,F,SBD,DQ,Raw,
Nicky Edgar,SE,FR-M1,83.5,84,112.5,117.5,-120,117.5,52.5,57.5,-60,57.5,115,120,125,125,300,F,SBD,1,Raw,
Suzie Millns,SE,FR-M2,120.1,84+,112.5,120,-125,120,57.5,60,62.5,62.5,137.5,145,152.5,152.5,335,F,SBD,1,Raw,
Birgitte Ligeon,SE,FR-M2,109.1,84+,-72.5,72.5,-77.5,72.5,67.5,72.5,-75,72.5,105,115,125,125,270,F,SBD,2,Raw,
Margaret Hasler,SE,FR-M2,95.5,84+,-40,,,,40,45,-47.5,45,87.5,-90,-90,87.5,,F,SBD,DQ,Raw,
Nick Bentley,SE,MR-M1,73.5,74,145,152.5,157.5,157.5,102.5,105,107.5,107.5,210,225,-230,225,490,M,SBD,1,Raw,
Warren Curtis,EM,MR-M1,91.75,93,165,170,177.5,177.5,120,125,127.5,127.5,200,215,220,220,525,M,SBD,1,Raw,
Alan Waite,EM,MR-M1,115,120,170,-180,-180,170,135,140,-145,140,185,192.5,-205,192.5,502.5,M,SBD,1,Raw,
John Mulley,SE,MR-M2,74,74,125,132.5,140,140,90,95,97.5,97.5,200,212.5,215,215,452.5,M,SBD,1,Raw,
Doug Graham,SE,MR-M3,77.15,83,115,122.5,127.5,127.5,72.5,75,-80,75,155,165,-170,165,367.5,M,SBD,1,Raw,
Malcolm Bainbridge,SE,MR-M4,67.8,74,105,110,117.5,117.5,72.5,77.5,80,80,160,172.5,180,180,377.5,M,SBD,1,Raw,
Mick Ellender,SE,MR-M4,92.6,93,110,120,-130,120,90,100.5,105,105,180,200.5,205,205,430,M,SBD,1,Raw,
Julie Briggs,SE,FR-M2,71.8,72,,,,,45,47.5,52.5,52.5,,,,,52.5,F,B,1,Raw,
Toby Caswell,SE,MR-O,126.7,120+,,,,,157.5,165,-170,165,,,,,165,M,B,1,Raw,
