Division,WeightClassKg,Place,Name,Team,BodyweightKg,Best3SquatKg,Best3BenchKg,Best3DeadliftKg,TotalKg,Equipment,Event,Sex,BirthDate
Girls,44.23,1,Aliyah Abalos,Winnie East Chambers,42.18,56.7,27.22,70.31,154.22,Single-ply,SBD,F,
Girls,47.85,DQ,Roselyn Garcia,Hamshire-Fannett,47.63,63.5,,,,Single-ply,SBD,F,
Girls,51.94,1,Jamie Delacruz,Winnie East Chambers,48.53,106.59,52.16,115.67,274.42,Single-ply,SBD,F,
Girls,51.94,2,Hadlee Richard,Anahuac,49.9,58.97,34.02,83.91,176.9,Single-ply,SBD,F,
Girls,51.94,3,Ja'Nyah Guillory,Nederland,51.71,63.5,34.02,77.11,174.63,Single-ply,SBD,F,
Girls,51.94,4,Jasmin Chavez,Winnie East Chambers,51.26,68.04,27.22,70.31,165.56,Single-ply,SBD,F,
Girls,51.94,DQ,Brooke Mitcham,Colmesneil,50.35,,,,,Single-ply,SBD,F,
Girls,51.94,DQ,Blake Walter,Hamshire-Fannett,48.99,,,,,Single-ply,SBD,F,
Girls,56.02,1,Haily Trevino,Winnie East Chambers,55.79,147.42,72.57,115.67,335.66,Single-ply,SBD,F,
Girls,56.02,2,Rachael Smith,Winnie East Chambers,54.88,92.99,47.63,120.2,260.82,Single-ply,SBD,F,
Girls,56.02,3,Shellby Carouthers,Hull-Daisetta,55.79,56.7,47.63,88.45,192.78,Single-ply,SBD,F,
Girls,60.1,1,Autum Chamagne,Hull-Daisetta,59.42,117.93,56.7,117.93,292.57,Single-ply,SBD,F,
Girls,60.1,2,Braeleigh Pinson,Winnie East Chambers,56.25,102.06,43.09,113.4,258.55,Single-ply,SBD,F,
Girls,60.1,3,Kelly Roosendaal,Deweyville,58.97,97.52,47.63,102.06,247.21,Single-ply,SBD,F,
Girls,60.1,4,Karrenton Fillyaw,Hamshire-Fannett,57.61,88.45,49.9,102.06,240.4,Single-ply,SBD,F,
Girls,60.1,5,Taya Fowler,Colmesneil,58.97,81.65,43.09,102.06,226.8,Single-ply,SBD,F,
Girls,60.1,6,Samantha Rose,Hull-Daisetta,58.97,77.11,45.36,90.72,213.19,Single-ply,SBD,F,
Girls,60.1,7,Destiny Brown,Hardin,56.7,49.9,31.75,74.84,156.49,Single-ply,SBD,F,
Girls,60.1,DQ,Taylor Davis,Colmesneil,58.51,,,,,Single-ply,SBD,F,
Girls,67.36,1,Jodee Maloy,Deweyville,65.32,124.74,68.04,138.35,331.12,Single-ply,SBD,F,
Girls,67.36,2,Gracie Moore,Winnie East Chambers,61.69,113.4,72.57,124.74,310.71,Single-ply,SBD,F,
Girls,67.36,3,Kaylee Hardin,Deweyville,63.5,124.74,63.5,122.47,310.71,Single-ply,SBD,F,
Girls,67.36,4,Marianna Matehuala,Winnie East Chambers,67.13,74.84,40.82,92.99,208.65,Single-ply,SBD,F,
Girls,67.36,5,Kanyon Cook,Anahuac,64.86,58.97,38.56,74.84,172.37,Single-ply,SBD,F,
Girls,75.07,1,Brooke Clippa,Deweyville,70.31,115.67,43.09,115.67,274.42,Single-ply,SBD,F,
Girls,75.07,2,Ashley Alvarez,Winnie East Chambers,73.94,115.67,52.16,106.59,274.42,Single-ply,SBD,F,
Girls,75.07,3,Beverly Castillo,Winnie East Chambers,72.12,95.25,43.09,104.33,242.67,Single-ply,SBD,F,
Girls,75.07,4,Ryan Huffman #1,Nederland,70.76,102.06,29.48,97.52,229.06,Single-ply,SBD,F,
Girls,75.07,5,Shai Burgess,Hardin,72.57,72.57,40.82,104.33,217.72,Single-ply,SBD,F,
Girls,75.07,6,Michaela Loflin,Hamshire-Fannett,71.21,79.38,40.82,68.04,188.24,Single-ply,SBD,F,
Girls,75.07,DQ,Kiya Stanley,Hamshire-Fannett,72.57,,,,,Single-ply,SBD,F,
Girls,82.33,1,Madison Maloy,Deweyville,79.38,136.08,72.57,145.15,353.8,Single-ply,SBD,F,
Girls,82.33,2,Destiny McKean,Deweyville,77.11,127.01,52.16,127.01,306.17,Single-ply,SBD,F,
Girls,82.33,3,Cheyan Foote,Winnie East Chambers,77.11,122.47,61.23,115.67,299.37,Single-ply,SBD,F,
Girls,82.33,4,Rylee Case,Winnie East Chambers,80.74,113.4,54.43,113.4,281.23,Single-ply,SBD,F,
Girls,82.33,5,Brianna Sanchez,Winnie East Chambers,77.56,102.06,56.7,113.4,272.16,Single-ply,SBD,F,
Girls,82.33,6,Sophia Pittner,Hamshire-Fannett,81.65,102.06,58.97,99.79,260.82,Single-ply,SBD,F,
Girls,82.33,7,Olivia Waldrep,Colmesneil,79.38,79.38,38.56,111.13,229.06,Single-ply,SBD,F,
Girls,90.04,1,Jessica Camacho,Winnie East Chambers,84.82,102.06,52.16,113.4,267.62,Single-ply,SBD,F,
Girls,90.04,2,Josey Staner,Anahuac,88.9,83.91,43.09,90.72,217.72,Single-ply,SBD,F,
Girls,90.04,3,Yulissa Reyes,Nederland,83.46,58.97,52.16,81.65,192.78,Single-ply,SBD,F,
Girls,90.04,DQ,Athena Hurd,Hamshire-Fannett,82.55,,,,,Single-ply,SBD,F,
Girls,90.04,DQ,Kaylee Sims,Hamshire-Fannett,87.09,,,,,Single-ply,SBD,F,
Girls,100.02,1,Lacie McCollough,Deweyville,95.25,149.69,70.31,136.08,356.07,Single-ply,SBD,F,
Girls,100.02,2,Sarah Taylor,Hull-Daisetta,99.34,86.18,58.97,97.52,242.67,Single-ply,SBD,F,
Girls,100.02,3,Bianca Aguilar,Hull-Daisetta,98.88,68.04,47.63,77.11,192.78,Single-ply,SBD,F,
Girls,117.71+,1,Mia Watler,Nederland,120.66,83.91,63.5,95.25,242.67,Single-ply,SBD,F,
Girls,117.71+,2,Starr Lee,Hamshire-Fannett,136.08,97.52,40.82,102.06,240.4,Single-ply,SBD,F,
