Division,WeightClassKg,Place,Name,Team,BodyweightKg,Best3SquatKg,Best3BenchKg,Best3DeadliftKg,TotalKg,Equipment,Event,Sex
Girls,44.23,1,Natalie Pruneda,Pharr Valley View,42.46,90.72,38.56,99.79,229.06,Single-ply,SBD,F
Girls,44.23,2,Leah Sandoval,La Joya Palmview,43.45,81.65,43.09,95.25,219.99,Single-ply,SBD,F
Girls,44.23,3,Briana Cisneros,McAllen Memorial,43.91,88.45,45.36,86.18,219.99,Single-ply,SBD,F
Girls,44.23,4,Breanna Rodriguez,Edinburg Vela,44,74.84,52.16,92.99,219.99,Single-ply,SBD,F
Girls,44.23,5,Elida Arregullin,PSJA North,43.27,83.91,45.36,88.45,217.72,Single-ply,SBD,F
Girls,44.23,6,Valeria Reyes,Edinburg Vela,42.91,79.38,43.09,88.45,210.92,Single-ply,SBD,F
Girls,44.23,7,Tiffany Herrera,Edinburg Vela,44.18,83.91,38.56,86.18,208.65,Single-ply,SBD,F
Girls,44.23,8,Vanessa Saldivar,Rio Grande City,43.36,72.57,29.48,77.11,179.17,Single-ply,SBD,F
Girls,44.23,9,Abigail Palacios,Edinburg,42.46,54.43,34.02,70.31,158.76,Single-ply,SBD,F
Girls,47.85,1,Laisha Lopez,La Joya Palmview,46.9,131.54,72.57,106.59,310.71,Single-ply,SBD,F
Girls,47.85,2,Yliana Beltran,Donna,45,124.74,58.97,113.4,297.1,Single-ply,SBD,F
Girls,47.85,3,Anahi Castro,PSJA North,46.99,108.86,47.63,113.4,269.89,Single-ply,SBD,F
Girls,47.85,4,Xochitl Gamez,Edinburg Vela,45.45,102.06,56.7,108.86,267.62,Single-ply,SBD,F
Girls,47.85,5,Michelle Rodriguez,La Joya Palmview,46.36,95.25,49.9,102.06,247.21,Single-ply,SBD,F
Girls,47.85,6,Brittany Salcido,PSJA Memorial,46.9,92.99,45.36,99.79,238.14,Single-ply,SBD,F
Girls,47.85,7,Andrea Mendoza,Donna North,46.81,81.65,38.56,102.06,222.26,Single-ply,SBD,F
Girls,47.85,8,Janira Gonzalez,Edinburg Vela,47.54,79.38,38.56,92.99,210.92,Single-ply,SBD,F
Girls,47.85,9,Ashley Arevalo,McAllen Rowe,47.72,52.16,45.36,68.04,165.56,Single-ply,SBD,F
Girls,47.85,DQ,Abby Esquivel,La Joya Palmview,45.99,,,,,Single-ply,SBD,F
Girls,47.85,DQ,Victoria Rodriguez,Edinburg North,46.63,45.36,,,,Single-ply,SBD,F
Girls,47.85,DQ,Geneva Magallan,Edinburg North,46.99,49.9,,,,Single-ply,SBD,F
Girls,51.94,1,Pricilla Hernandez,La Joya Palmview,50.53,111.13,61.23,120.2,292.57,Single-ply,SBD,F
Girls,51.94,2,Alina Corpus,PSJA,50.62,97.52,54.43,120.2,272.16,Single-ply,SBD,F
Girls,51.94,3,Daphne Antu,PSJA North,51.71,108.86,47.63,113.4,269.89,Single-ply,SBD,F
Girls,51.94,4,Daniela Hernandez,Donna North,51.89,79.38,31.75,90.72,201.85,Single-ply,SBD,F
Girls,51.94,5,Monica Trevino,McAllen Rowe,50.98,63.5,34.02,63.5,161.03,Single-ply,SBD,F
Girls,51.94,6,Ashley Garza,Edinburg North,48.26,54.43,29.48,54.43,138.35,Single-ply,SBD,F
Girls,51.94,DQ,Irali Cerda,Donna North,49.62,70.31,,,,Single-ply,SBD,F
Girls,51.94,DQ,Monserrat Collado,Pharr Valley View,51.8,70.31,,,,Single-ply,SBD,F
Girls,51.94,DQ,Tiffany Olvera,Pharr Valley View,50.53,56.7,27.22,,,Single-ply,SBD,F
Girls,56.02,1,Yesenia Valdez,Edinburg,55.88,142.88,74.84,142.88,360.61,Single-ply,SBD,F
Girls,56.02,2,Corina Yanez,Donna,54.07,145.15,72.57,136.08,353.8,Single-ply,SBD,F
Girls,56.02,3,Veronica Alaniz,Edinburg,54.7,120.2,65.77,138.35,324.32,Single-ply,SBD,F
Girls,56.02,4,Kimberly Salas,Edinburg Vela,55.16,129.27,58.97,111.13,299.37,Single-ply,SBD,F
Girls,56.02,5,Odalys Serna,Edinburg Economedes,54.88,113.4,54.43,127.01,294.84,Single-ply,SBD,F
Girls,56.02,6,Nicole Rodriguez,Donna North,53.8,108.86,49.9,127.01,285.76,Single-ply,SBD,F
Girls,56.02,7,Donna Mondragon,La Joya Palmview,55.16,117.93,54.43,113.4,285.76,Single-ply,SBD,F
Girls,56.02,8,Miranda Barraza,Edinburg,55.43,99.79,54.43,122.47,276.69,Single-ply,SBD,F
Girls,56.02,9,Natalie Villalon,La Joya Palmview,53.16,106.59,52.16,113.4,272.16,Single-ply,SBD,F
Girls,56.02,10,Lesly Perez,PSJA North,52.25,88.45,54.43,102.06,244.94,Single-ply,SBD,F
Girls,56.02,11,Maritza Espinoza,Donna North,55.52,95.25,45.36,99.79,240.4,Single-ply,SBD,F
Girls,56.02,12,Audrey Gutierrez,Pharr Valley View,53.71,81.65,45.36,108.86,235.87,Single-ply,SBD,F
Girls,56.02,13,Desirae Ary,Edinburg Vela,55.34,88.45,49.9,95.25,233.6,Single-ply,SBD,F
Girls,56.02,14,Emilee Lopez,Edinburg Vela,54.61,81.65,47.63,97.52,226.8,Single-ply,SBD,F
Girls,56.02,15,Josefina Bueno,McAllen Memorial,55.88,77.11,47.63,99.79,224.53,Single-ply,SBD,F
Girls,56.02,16,Mercedes Hernandez,PSJA Memorial,55.79,72.57,40.82,99.79,213.19,Single-ply,SBD,F
Girls,56.02,17,Heidi Rosales,Donna North,55.88,68.04,38.56,88.45,195.04,Single-ply,SBD,F
Girls,56.02,18,Izabel Juarez,Edinburg North,54.7,58.97,38.56,81.65,179.17,Single-ply,SBD,F
Girls,60.1,1,Karen Martinez,Donna,59.15,145.15,58.97,151.95,356.07,Single-ply,SBD,F
Girls,60.1,2,Nora Balladares,Edinburg,56.79,138.35,83.91,131.54,353.8,Single-ply,SBD,F
Girls,60.1,3,Pamela Arce,Edinburg,59.96,127.01,86.18,129.27,342.46,Single-ply,SBD,F
Girls,60.1,4,Destini Thomas,Donna,59.6,127.01,74.84,115.67,317.51,Single-ply,SBD,F
Girls,60.1,5,Jocelyn Martinez,Pharr Valley View,59.06,122.47,47.63,140.61,310.71,Single-ply,SBD,F
Girls,60.1,6,Erin Quiroz,Edinburg Vela,59.96,111.13,65.77,133.81,310.71,Single-ply,SBD,F
Girls,60.1,7,Arlene Palomo,Edinburg Vela,59.78,115.67,52.16,133.81,301.64,Single-ply,SBD,F
Girls,60.1,8,Mireya Martinez,PSJA Memorial,59.78,113.4,58.97,120.2,292.57,Single-ply,SBD,F
Girls,60.1,9,Susan Jaramillo,PSJA Memorial,60.06,106.59,45.36,120.2,272.16,Single-ply,SBD,F
Girls,60.1,10,Cassandra Vargas,PSJA North,58.88,104.33,45.36,106.59,256.28,Single-ply,SBD,F
Girls,60.1,11,Cynthia Contreras,Edinburg,56.88,97.52,52.16,97.52,247.21,Single-ply,SBD,F
Girls,60.1,12,Penelope Brambila,McAllen Memorial,58.33,83.91,56.7,102.06,242.67,Single-ply,SBD,F
Girls,60.1,13,Kimberly Ramos,Donna North,59.06,92.99,45.36,92.99,231.33,Single-ply,SBD,F
Girls,60.1,14,Jacqueline Rios,McAllen Rowe,58.06,81.65,49.9,97.52,229.06,Single-ply,SBD,F
Girls,60.1,15,Clarissa Guel,Edinburg Economedes,58.79,70.31,36.29,83.91,190.51,Single-ply,SBD,F
Girls,60.1,16,Mariah Gonzales,PSJA,59.78,77.11,36.29,74.84,188.24,Single-ply,SBD,F
Girls,60.1,DQ,Brianna Cortez,Edinburg,56.61,97.52,,,,Single-ply,SBD,F
Girls,67.36,1,Ashley Garza,PSJA North,67.22,127.01,58.97,129.27,315.25,Single-ply,SBD,F
Girls,67.36,2,Tiffany Borrego,PSJA North,60.51,127.01,58.97,127.01,312.98,Single-ply,SBD,F
Girls,67.36,3,Dalila Sanchez,Donna North,66.5,122.47,58.97,131.54,312.98,Single-ply,SBD,F
Girls,67.36,4,Andrea Ochoa,Edinburg Vela,67,117.93,70.31,108.86,297.1,Single-ply,SBD,F
Girls,67.36,5,April Arellano,McAllen Memorial,65.41,88.45,54.43,111.13,254.01,Single-ply,SBD,F
Girls,67.36,6,Laura Flores,Edinburg Economedes,62.23,99.79,49.9,102.06,251.74,Single-ply,SBD,F
Girls,67.36,7,Yvette Solis,Donna,63.5,81.65,40.82,86.18,208.65,Single-ply,SBD,F
Girls,67.36,8,Susie Martinez,Edinburg Economedes,66.59,70.31,43.09,61.23,174.63,Single-ply,SBD,F
Girls,67.36,9,Imelda Salinas,Edinburg North,60.42,43.09,36.29,65.77,145.15,Single-ply,SBD,F
Girls,67.36,DQ,Emma Alvarado,Edinburg Vela,64.68,83.91,,,,Single-ply,SBD,F
Girls,67.36,DQ,Bethany Islas,McAllen Rowe,62.87,90.72,,,,Single-ply,SBD,F
Girls,67.36,DQ,Nicole Anderson,Pharr Valley View,67.31,74.84,,,,Single-ply,SBD,F
Girls,67.36,DQ,Keiry Miller,PSJA North,66.59,,,,,Single-ply,SBD,F
Girls,75.07,1,Felissa Ponce de Leon,La Joya Palmview,69.85,174.63,102.06,176.9,453.59,Single-ply,SBD,F
Girls,75.07,2,Alex Bazan #1,La Joya Palmview,73.75,154.22,88.45,149.69,392.36,Single-ply,SBD,F
Girls,75.07,3,Jorja Vela,Edinburg,70.31,142.88,74.84,133.81,351.53,Single-ply,SBD,F
Girls,75.07,4,Angeles Almaraz,PSJA North,74.03,129.27,63.5,120.2,312.98,Single-ply,SBD,F
Girls,75.07,5,Lorena Martinez,Edinburg Economedes,68.86,122.47,63.5,122.47,308.44,Single-ply,SBD,F
Girls,75.07,6,Teresa Rodriguez,PSJA North,70.85,120.2,54.43,133.81,308.44,Single-ply,SBD,F
Girls,75.07,7,Nicole Avelar,Edinburg Vela,72.94,117.93,68.04,120.2,306.17,Single-ply,SBD,F
Girls,75.07,8,Dehlila Cantu,Edinburg Vela,74.39,120.2,61.23,115.67,297.1,Single-ply,SBD,F
Girls,75.07,9,Ashley Pena,PSJA Memorial,71.58,117.93,54.43,108.86,281.23,Single-ply,SBD,F
Girls,75.07,10,Mitzi de la Cruz,Edinburg Economedes,69.67,108.86,52.16,111.13,272.16,Single-ply,SBD,F
Girls,75.07,11,Briana Rodriguez,Edinburg Vela,74.21,108.86,52.16,108.86,269.89,Single-ply,SBD,F
Girls,75.07,12,Audrey Waller,Edinburg Vela,70.67,106.59,52.16,106.59,265.35,Single-ply,SBD,F
Girls,75.07,13,Alyssa de la Garza,McAllen Rowe,69.85,108.86,52.16,102.06,263.08,Single-ply,SBD,F
Girls,75.07,14,Maricela Ramos,Edinburg North,71.94,104.33,43.09,106.59,254.01,Single-ply,SBD,F
Girls,75.07,15,Mia Murphy,McAllen Rowe,67.59,97.52,56.7,97.52,251.74,Single-ply,SBD,F
Girls,75.07,16,Zayra Cavazos,Edinburg North,73.75,92.99,52.16,102.06,247.21,Single-ply,SBD,F
Girls,75.07,17,Amanda De Luna,Edinburg Vela,74.39,83.91,52.16,108.86,244.94,Single-ply,SBD,F
Girls,75.07,18,Marisol Sauceda,Edinburg Economedes,68.86,88.45,61.23,92.99,242.67,Single-ply,SBD,F
Girls,75.07,DQ,Marisela Gonzalez,Edinburg,74.93,145.15,92.99,,,Single-ply,SBD,F
Girls,75.07,DQ,Priscilla Acosta,McAllen Rowe,73.66,147.42,,,,Single-ply,SBD,F
Girls,75.07,DQ,Victoria Trevino,PSJA Memorial,73.21,131.54,,,,Single-ply,SBD,F
Girls,75.07,DQ,Alex Estevanes,PSJA,72.85,,,,,Single-ply,SBD,F
Girls,82.33,1,Jamie Cisneros,Edinburg,78.83,120.2,97.52,111.13,328.85,Single-ply,SBD,F
Girls,82.33,2,Kayla Cox,Edinburg North,78.56,102.06,56.7,115.67,274.42,Single-ply,SBD,F
Girls,82.33,3,Audrey Estevanes,PSJA,79.83,102.06,49.9,122.47,274.42,Single-ply,SBD,F
Girls,82.33,4,Natalie Maldonado,PSJA Memorial,77.93,90.72,49.9,106.59,247.21,Single-ply,SBD,F
Girls,82.33,5,Samantha Soto,PSJA Memorial,77.38,97.52,40.82,106.59,244.94,Single-ply,SBD,F
Girls,82.33,6,Ruby Martinez,PSJA Memorial,81.28,92.99,40.82,97.52,231.33,Single-ply,SBD,F
Girls,82.33,7,Kimberly Reyna,Edinburg North,81.47,61.23,29.48,74.84,165.56,Single-ply,SBD,F
Girls,82.33,DQ,Brittany Garza,Donna,79.83,106.59,,,,Single-ply,SBD,F
Girls,90.04,1,Tiffani Gonzalez,Donna North,89.72,136.08,68.04,136.08,340.19,Single-ply,SBD,F
Girls,90.04,2,Kaylee Lopez,Donna,84.64,140.61,65.77,131.54,337.93,Single-ply,SBD,F
Girls,90.04,3,Kayla Cantu,Edinburg Vela,88.99,142.88,77.11,113.4,333.39,Single-ply,SBD,F
Girls,90.04,4,Sofia Lopez,Edinburg,87.91,120.2,65.77,138.35,324.32,Single-ply,SBD,F
Girls,90.04,5,Ashley Garza,Rio Grande City,83.64,113.4,68.04,133.81,315.25,Single-ply,SBD,F
Girls,90.04,6,Amabella Gonzalez,Pharr Valley View,84.55,106.59,43.09,115.67,265.35,Single-ply,SBD,F
Girls,90.04,7,Jackie Rios,Edinburg Economedes,86.82,97.52,54.43,99.79,251.74,Single-ply,SBD,F
Girls,90.04,8,Rachel Canche,Donna,89.72,104.33,38.56,86.18,229.06,Single-ply,SBD,F
Girls,90.04,9,Mariela Hefferan,Pharr Valley View,85.64,72.57,43.09,108.86,224.53,Single-ply,SBD,F
Girls,90.04,DQ,Jaretze Ramon,La Joya Palmview,86,,,,,Single-ply,SBD,F
Girls,100.02,1,Jennifer Acuna,Edinburg North,92.17,113.4,56.7,111.13,281.23,Single-ply,SBD,F
Girls,100.02,2,Ester Martinez,PSJA Memorial,90.72,90.72,54.43,97.52,242.67,Single-ply,SBD,F
Girls,100.02,3,Leslie Villela,Donna North,93.8,68.04,52.16,111.13,231.33,Single-ply,SBD,F
Girls,100.02,DQ,Alysha Torres,PSJA North,99.97,,,,,Single-ply,SBD,F
Girls,100.02,DQ,Brenda Lopez,Pharr Valley View,95.71,,,,,Single-ply,SBD,F
Girls,117.71,1,Crystal Hernandez,PSJA North,111.58,181.44,117.93,176.9,476.27,Single-ply,SBD,F
Girls,117.71,2,Angelica Lozano,McAllen Rowe,102.97,124.74,68.04,142.88,335.66,Single-ply,SBD,F
Girls,117.71,3,Gwendalyn Montemayor,Edinburg Vela,105.51,124.74,81.65,120.2,326.59,Single-ply,SBD,F
Girls,117.71,4,Mariah Padron,Donna,102.24,136.08,61.23,127.01,324.32,Single-ply,SBD,F
Girls,117.71,DQ,Roxanne Martinez,Donna,110.77,,,,,Single-ply,SBD,F
Girls,117.71,DQ,Alexis Guajardo,Rio Grande City,101.7,,,,,Single-ply,SBD,F
Girls,117.71+,1,Marlene Martinez,Edinburg Economedes,123.38,183.7,102.06,149.69,435.45,Single-ply,SBD,F
Girls,117.71+,2,Victoria Casares,Donna,123.29,142.88,54.43,117.93,315.25,Single-ply,SBD,F
Girls,117.71+,3,Lizette Ramirez,Edinburg Economedes,133.45,102.06,56.7,102.06,260.82,Single-ply,SBD,F
Girls,117.71+,4,Anyssa Arellano,Edinburg North,120.66,49.9,54.43,104.33,208.65,Single-ply,SBD,F
