Division,WeightClassKg,Place,Name,Team,BodyweightKg,Best3SquatKg,Best3BenchKg,Best3DeadliftKg,TotalKg,Equipment,Event,Sex
Girls,44.23,1,Shawntel Hall,Seagraves,44.18,90.72,47.63,117.93,256.28,Single-ply,SBD,F
Girls,44.23,2,Casandra Corpus,Levelland,43.91,90.72,31.75,95.25,217.72,Single-ply,SBD,F
Girls,44.23,3,Arocely Saenz,Olton,44,68.04,40.82,104.33,213.19,Single-ply,SBD,F
Girls,44.23,4,Emily Prisk,Floydada,43.82,81.65,34.02,95.25,210.92,Single-ply,SBD,F
Girls,44.23,5,Jordan Ramirez,Levelland,39.92,86.18,34.02,86.18,206.38,Single-ply,SBD,F
Girls,44.23,6,Jessica Sosa,Anton,44.18,81.65,34.02,77.11,192.78,Single-ply,SBD,F
Girls,44.23,7,Alex Bravo,Olton,43.45,54.43,29.48,97.52,181.44,Single-ply,SBD,F
Girls,44.23,8,Jessica Pena,Plainview,40.01,38.56,20.41,49.9,108.86,Single-ply,SBD,F
Girls,44.23,DQ,Elizabeth Lopez,Abernathy,44,,,,,Single-ply,SBD,F
Girls,47.85,1,Vicky Minjarez,Seagraves,46.49,136.08,63.5,117.93,317.51,Single-ply,SBD,F
Girls,47.85,2,Kim Balderas,Plainview,47.72,102.06,45.36,111.13,258.55,Single-ply,SBD,F
Girls,47.85,3,Olivia Riley,Levelland,47.72,88.45,43.09,111.13,242.67,Single-ply,SBD,F
Girls,47.85,4,Melissa Lucio,Plainview,47.81,81.65,36.29,88.45,206.38,Single-ply,SBD,F
Girls,47.85,5,Roxy Chavarria,Floydada,44.81,72.57,36.29,81.65,190.51,Single-ply,SBD,F
Girls,47.85,6,Devin Jordan,Levelland,47.81,65.77,31.75,88.45,185.97,Single-ply,SBD,F
Girls,47.85,7,Veronika Hernandez,Levelland,47.72,63.5,31.75,88.45,183.7,Single-ply,SBD,F
Girls,47.85,DQ,Gabby Lebario,Levelland,47.63,,,,,Single-ply,SBD,F
Girls,51.94,1,Samantha Gonzalez,Lamesa,50.62,117.93,52.16,129.27,299.37,Single-ply,SBD,F
Girls,51.94,2,Samantha Cabrera,Plainview,48.08,111.13,45.36,115.67,272.16,Single-ply,SBD,F
Girls,51.94,3,Alyssa Flores,Snyder,50.89,99.79,45.36,111.13,256.28,Single-ply,SBD,F
Girls,51.94,4,Bryannah Minjarez,Seagraves,50.89,95.25,47.63,104.33,247.21,Single-ply,SBD,F
Girls,51.94,5,Alani Juarez,Anton,51.71,95.25,34.02,99.79,229.06,Single-ply,SBD,F
Girls,51.94,6,Zoili Cardenas,Slaton,51.53,83.91,36.29,104.33,224.53,Single-ply,SBD,F
Girls,51.94,7,Kallie Hernandez,Snyder,50.62,79.38,43.09,95.25,217.72,Single-ply,SBD,F
Girls,51.94,8,Krystin Gonzales,Muleshoe,47.99,79.38,40.82,90.72,210.92,Single-ply,SBD,F
Girls,51.94,9,Kim Brooks,Levelland,51.8,74.84,31.75,79.38,185.97,Single-ply,SBD,F
Girls,51.94,10,Brittany Pilip,Levelland,48.63,70.31,29.48,77.11,176.9,Single-ply,SBD,F
Girls,51.94,11,Angelica Eggert,Levelland,51.26,65.77,27.22,81.65,174.63,Single-ply,SBD,F
Girls,51.94,12,Anissa Porras,Plainview,49.53,65.77,27.22,58.97,151.95,Single-ply,SBD,F
Girls,56.02,1,Chelsea Byrd,Floydada,52.25,108.86,47.63,108.86,265.35,Single-ply,SBD,F
Girls,56.02,2,Amparo Flores,Anton,54.79,95.25,36.29,115.67,247.21,Single-ply,SBD,F
Girls,56.02,3,Melissa Arizpe,Floydada,53.98,95.25,38.56,108.86,242.67,Single-ply,SBD,F
Girls,56.02,4,Maci French,Levelland,53.25,86.18,40.82,95.25,222.26,Single-ply,SBD,F
Girls,56.02,5,April Vargas,Levelland,55.79,81.65,38.56,102.06,222.26,Single-ply,SBD,F
Girls,56.02,6,Maggie Shelton,Post,55.16,74.84,34.02,92.99,201.85,Single-ply,SBD,F
Girls,56.02,7,Michaely Ledesma,Levelland,55.97,68.04,31.75,81.65,181.44,Single-ply,SBD,F
Girls,56.02,8,Alexis Antillon,Post,53.34,65.77,40.82,70.31,176.9,Single-ply,SBD,F
Girls,56.02,9,Victoria Gutierrez,Post,55.79,52.16,31.75,74.84,158.76,Single-ply,SBD,F
Girls,56.02,10,Katie Quintana,Post,51.98,45.36,29.48,70.31,145.15,Single-ply,SBD,F
Girls,60.1,1,Kayla Flores,Seagraves,59.78,136.08,65.77,122.47,324.32,Single-ply,SBD,F
Girls,60.1,2,Bryana Alvarez,Levelland,57.15,97.52,52.16,115.67,265.35,Single-ply,SBD,F
Girls,60.1,3,Mariah Jimenez,Anton,58.24,102.06,52.16,111.13,265.35,Single-ply,SBD,F
Girls,60.1,4,Jessica Garcia,Lamesa,58.15,102.06,45.36,111.13,258.55,Single-ply,SBD,F
Girls,60.1,5,Aimee Rosas,Muleshoe,57.42,86.18,45.36,115.67,247.21,Single-ply,SBD,F
Girls,60.1,6,Malori Garcia,Plainview,59.6,95.25,45.36,102.06,242.67,Single-ply,SBD,F
Girls,60.1,7,Kasandra Culp,Anton,58.97,88.45,43.09,99.79,231.33,Single-ply,SBD,F
Girls,60.1,8,Veda Poe,Snyder,59.33,83.91,43.09,95.25,222.26,Single-ply,SBD,F
Girls,60.1,9,Stormie Mendez,Slaton,59.78,72.57,34.02,113.4,219.99,Single-ply,SBD,F
Girls,60.1,10,Amanda Torrez,Levelland,59.6,79.38,43.09,83.91,206.38,Single-ply,SBD,F
Girls,60.1,DQ,Katelyn Gable,Muleshoe,59.87,,,,,Single-ply,SBD,F
Girls,67.36,1,Syrena Robles,Lamesa,62.69,115.67,54.43,129.27,299.37,Single-ply,SBD,F
Girls,67.36,2,Jacy White,Lamesa,64.14,106.59,49.9,124.74,281.23,Single-ply,SBD,F
Girls,67.36,3,Bridget Lopez,Abernathy,65.14,102.06,56.7,117.93,276.69,Single-ply,SBD,F
Girls,67.36,4,Gabby Munoz,Snyder,64.23,99.79,54.43,113.4,267.62,Single-ply,SBD,F
Girls,67.36,5,Ragan Holder,Sundown,65.5,99.79,45.36,122.47,267.62,Single-ply,SBD,F
Girls,67.36,6,Shyann Nevares,Plainview,64.86,97.52,49.9,97.52,244.94,Single-ply,SBD,F
Girls,67.36,7,Rylan Sanchez,Snyder,62.32,79.38,40.82,111.13,231.33,Single-ply,SBD,F
Girls,67.36,8,Bethany Irons,Levelland,64.41,81.65,36.29,108.86,226.8,Single-ply,SBD,F
Girls,67.36,9,Kyla Mays,Slaton,61.14,81.65,38.56,90.72,210.92,Single-ply,SBD,F
Girls,67.36,10,Caitlyn Torres,Slaton,63.14,65.77,38.56,83.91,188.24,Single-ply,SBD,F
Girls,67.36,DQ,Cheyenna Martinez,Anton,67.13,,,,,Single-ply,SBD,F
Girls,75.07,1,Alexis Ayala #1,Lamesa,74.12,142.88,61.23,142.88,347,Single-ply,SBD,F
Girls,75.07,2,Krayah Langford,Levelland,68.86,138.35,68.04,133.81,340.19,Single-ply,SBD,F
Girls,75.07,3,Delylah Henry,Floydada,70.49,113.4,52.16,120.2,285.76,Single-ply,SBD,F
Girls,75.07,4,Azucena Gonzales,Snyder,69.49,99.79,52.16,106.59,258.55,Single-ply,SBD,F
Girls,75.07,5,Emily Edwards,Levelland,68.13,99.79,38.56,108.86,247.21,Single-ply,SBD,F
Girls,75.07,6,Samantha Kenner,Snyder,74.21,99.79,47.63,99.79,247.21,Single-ply,SBD,F
Girls,75.07,7,Julia McDaniel,Seagraves,72.85,86.18,45.36,108.86,240.4,Single-ply,SBD,F
Girls,75.07,8,Sierra Adams,Levelland,68.95,72.57,43.09,117.93,233.6,Single-ply,SBD,F
Girls,82.33,1,Sarai Coronado,Olton,81.47,140.61,54.43,142.88,337.93,Single-ply,SBD,F
Girls,82.33,2,Alexis Perez,Abernathy,78.29,122.47,52.16,120.2,294.84,Single-ply,SBD,F
Girls,82.33,3,Paula Cuellar,Lockney,81.83,113.4,52.16,124.74,290.3,Single-ply,SBD,F
Girls,82.33,4,Denise Rivera,Abernathy,81.92,117.93,56.7,104.33,278.96,Single-ply,SBD,F
Girls,82.33,5,Amberly Asiatico,Plainview,80.1,111.13,40.82,115.67,267.62,Single-ply,SBD,F
Girls,82.33,6,Reina Vargas,Levelland,75.75,104.33,47.63,104.33,256.28,Single-ply,SBD,F
Girls,82.33,7,Whitney Ascensio,Lockney,78.02,74.84,47.63,99.79,222.26,Single-ply,SBD,F
Girls,90.04,1,Thyme Martinez,Plainview,84.46,124.74,61.23,131.54,317.51,Single-ply,SBD,F
Girls,90.04,2,Angel Garcia,Slaton,87,97.52,52.16,104.33,254.01,Single-ply,SBD,F
Girls,90.04,3,Heather Fierros,Lockney,84.82,95.25,54.43,102.06,251.74,Single-ply,SBD,F
Girls,90.04,4,Mari Castillo,Sundown,86.45,99.79,38.56,113.4,251.74,Single-ply,SBD,F
Girls,100.02,1,Carissa Castillo,Plainview,98.61,127.01,61.23,149.69,337.93,Single-ply,SBD,F
Girls,100.02,2,Rachel Payne,Slaton,99.34,61.23,49.9,102.06,213.19,Single-ply,SBD,F
Girls,100.02,DQ,Mollie Burtch,Post,91.08,97.52,52.16,,,Single-ply,SBD,F
Girls,100.02+,1,Karis Carstensen,Lockney,102.15,108.86,58.97,113.4,281.23,Single-ply,SBD,F
Girls,100.02+,2,Ashly Alvarado,Lockney,111.13,108.86,43.09,117.93,269.89,Single-ply,SBD,F
Girls,100.02+,3,Kristi Castillo,Slaton,103.6,102.06,47.63,117.93,267.62,Single-ply,SBD,F
Girls,100.02+,4,Qu'Vonna Tealer,Levelland,149.69,102.06,45.36,97.52,244.94,Single-ply,SBD,F
Girls,100.02+,DQ,Skye Johnson,Plainview,126.46,,,,,Single-ply,SBD,F
