Division,WeightClassKg,Place,Name,Team,BodyweightKg,Best3SquatKg,Best3BenchKg,Best3DeadliftKg,TotalKg,Equipment,Event,Sex,BirthDate
Boys,51.71,1,Tyler Morrow,Copperas Cove,51.35,151.95,83.91,176.9,412.77,Single-ply,SBD,M,
Boys,51.71,2,Isaac Jones,Belton,49.9,127.01,77.11,140.61,344.73,Single-ply,SBD,M,
Boys,51.71,3,Carlos Bolivar,Cameron Yoe,47.26,113.4,70.31,140.61,324.32,Single-ply,SBD,M,
Boys,51.71,4,Nick Perez,Belton,40.64,90.72,47.63,104.33,242.67,Single-ply,SBD,M,
Boys,51.71,5,Marco Castelli,Belton,47.08,77.11,52.16,90.72,219.99,Single-ply,SBD,M,
Boys,51.71,6,Colin Gascon,Belton,44.09,86.18,45.36,86.18,217.72,Single-ply,SBD,M,
Boys,55.79,1,Junior Cox,Belton,55.79,156.49,104.33,170.1,430.91,Single-ply,SBD,M,
Boys,55.79,2,Richard Willess,Belton,55.16,151.95,92.99,161.03,405.97,Single-ply,SBD,M,
Boys,55.79,3,Peyton Parnell,Waco Midway,55.25,122.47,72.57,147.42,342.46,Single-ply,SBD,M,
Boys,55.79,4,Joshua Donoso,Temple,54.43,111.13,72.57,117.93,301.64,Single-ply,SBD,M,
Boys,55.79,DQ,Adrian Fairley,Copperas Cove,55.43,90.72,,,,Single-ply,SBD,M,
Boys,59.87,1,Kyle Gascon,Belton,59.42,183.7,92.99,161.03,437.72,Single-ply,SBD,M,
Boys,59.87,2,Jair Perez,Little River Academy,59.69,181.44,95.25,156.49,433.18,Single-ply,SBD,M,
Boys,59.87,3,Angel Longoria,Belton,59.42,149.69,106.59,158.76,415.04,Single-ply,SBD,M,
Boys,59.87,4,Caleb Dawkins,Waco,56.79,131.54,83.91,117.93,333.39,Single-ply,SBD,M,
Boys,67.13,1,Larry Young,Little River Academy,65.5,174.63,99.79,197.31,471.74,Single-ply,SBD,M,
Boys,67.13,2,Gavin Green,Moody,66.5,181.44,81.65,172.37,435.45,Single-ply,SBD,M,
Boys,67.13,3,Sean Galvan,Belton,63.68,142.88,102.06,174.63,419.57,Single-ply,SBD,M,
Boys,67.13,4,William Bradley,Little River Academy,67.13,136.08,111.13,170.1,417.3,Single-ply,SBD,M,
Boys,67.13,5,Kaleb Hill,Temple,66.32,127.01,90.72,142.88,360.61,Single-ply,SBD,M,
Boys,67.13,6,Chance Baladez,Belton,65.23,108.86,83.91,136.08,328.85,Single-ply,SBD,M,
Boys,67.13,7,Owen Watson,Moody,60.96,136.08,56.7,120.2,312.98,Single-ply,SBD,M,
Boys,67.13,8,Jacob Sterriker,Waco Midway,64.59,95.25,65.77,104.33,265.35,Single-ply,SBD,M,
Boys,67.13,NS,Cody Stone,Moody,,,,,,Single-ply,SBD,M,
Boys,67.13,NS,Clayton Lawson,Little River Academy,,,,,,Single-ply,SBD,M,
Boys,67.13,DQ,Ladavon Springs-Hargrove,Waco,65.23,154.22,,,,Single-ply,SBD,M,
Boys,67.13,DQ,Gerald Fountain,Belton,64.95,161.03,108.86,,,Single-ply,SBD,M,
Boys,74.84,1,TraShawn Hill,Moody,73.48,195.04,127.01,229.06,551.11,Single-ply,SBD,M,
Boys,74.84,2,Scott Gurnett,Belton,73.94,197.31,124.74,185.97,508.02,Single-ply,SBD,M,
Boys,74.84,3,Tyrese Francis,Copperas Cove,73.48,188.24,111.13,190.51,489.88,Single-ply,SBD,M,
Boys,74.84,4,Thomas McVade,Temple,70.85,170.1,113.4,199.58,483.08,Single-ply,SBD,M,
Boys,74.84,5,Chandler Gastelo,Copperas Cove,71.4,176.9,104.33,181.44,462.66,Single-ply,SBD,M,
Boys,74.84,6,Tavaris Sullivan,Temple,74.39,163.29,104.33,185.97,453.59,Single-ply,SBD,M,
Boys,74.84,7,Javin Salinas,Waco,74.66,136.08,102.06,170.1,408.23,Single-ply,SBD,M,
Boys,74.84,7,Riley Tabat,Belton,71.4,172.37,106.59,163.29,442.25,Single-ply,SBD,M,
Boys,74.84,8,Julian Estrada,Waco,74.12,145.15,111.13,181.44,437.72,Single-ply,SBD,M,
Boys,74.84,9,Aaron Acosta,Waco Midway,70.76,165.56,104.33,156.49,426.38,Single-ply,SBD,M,
Boys,74.84,10,Ivan Diaz,Waco,70.49,170.1,97.52,136.08,403.7,Single-ply,SBD,M,
Boys,74.84,11,Blake Kanz,Waco Midway,71.58,149.69,90.72,163.29,403.7,Single-ply,SBD,M,
Boys,74.84,12,Luke Chrisman,Belton,71.58,142.88,95.25,142.88,381.02,Single-ply,SBD,M,
Boys,74.84,13,Cody Fishbourne,Temple,68.31,138.35,79.38,136.08,353.8,Single-ply,SBD,M,
Boys,74.84,14,Luke Bodkins,Cameron Yoe,69.94,108.86,74.84,136.08,319.78,Single-ply,SBD,M,
Boys,74.84,DQ,Austin Morin,Belton,73.57,,,,,Single-ply,SBD,M,
Boys,82.1,1,Tim Apodaca,Belton,80.56,229.06,131.54,208.65,569.26,Single-ply,SBD,M,
Boys,82.1,2,Kendall Parker,Copperas Cove,81.01,163.29,102.06,183.7,449.06,Single-ply,SBD,M,
Boys,82.1,3,Colton Kirk,Waco Midway,78.2,154.22,111.13,174.63,439.98,Single-ply,SBD,M,
Boys,82.1,4,Ryan Saxton,Belton,79.74,181.44,99.79,158.76,439.98,Single-ply,SBD,M,
Boys,82.1,5,Carlos Salomon,Cameron Yoe,76.66,165.56,97.52,172.37,435.45,Single-ply,SBD,M,
Boys,82.1,6,Rodney Rodgers,Waco Midway,80.74,147.42,102.06,181.44,430.91,Single-ply,SBD,M,
Boys,82.1,NS,Keith Guillory,Waco,,,,,,Single-ply,SBD,M,
Boys,89.81,1,Jonah Myers,Belton,89.18,219.99,122.47,199.58,542.04,Single-ply,SBD,M,
Boys,89.81,2,Brandon Ortega,Copperas Cove,83.01,199.58,138.35,197.31,535.24,Single-ply,SBD,M,
Boys,89.81,3,Hunter Berry,Copperas Cove,89.54,176.9,127.01,226.8,530.7,Single-ply,SBD,M,
Boys,89.81,4,Tyler Lambert,Little River Academy,83.73,170.1,108.86,213.19,492.15,Single-ply,SBD,M,
Boys,89.81,5,Hunter Mach,Moody,85.64,176.9,102.06,172.37,451.32,Single-ply,SBD,M,
Boys,89.81,6,Darren Paul,Waco,89.27,149.69,108.86,188.24,446.79,Single-ply,SBD,M,
Boys,89.81,7,Christopher Rodriguez,Waco,82.64,158.76,102.06,170.1,430.91,Single-ply,SBD,M,
Boys,89.81,8,Dylan Smith #5,Cameron Yoe,87.72,142.88,102.06,170.1,415.04,Single-ply,SBD,M,
Boys,89.81,9,Isaiah Thomas,Temple,87.09,117.93,79.38,138.35,335.66,Single-ply,SBD,M,
Boys,89.81,DQ,Santiago Hernandez,Waco,89.27,,,,,Single-ply,SBD,M,
Boys,89.81,NS,Dhamir McDonnaugh,Waco Midway,,,,,,Single-ply,SBD,M,
Boys,99.79,1,Dylan Froehlich,Moody,96.25,247.21,140.61,240.4,628.23,Single-ply,SBD,M,
Boys,99.79,2,Brian Burton,Waco Midway,97.61,226.8,138.35,215.46,580.6,Single-ply,SBD,M,
Boys,99.79,3,McKenneth Davis,Copperas Cove,97.52,183.7,145.15,213.19,542.04,Single-ply,SBD,M,
Boys,99.79,4,Treton Nix,Cameron Yoe,90.45,183.7,129.27,183.7,496.68,Single-ply,SBD,M,
Boys,99.79,5,Derek Kunz,Waco Midway,93.98,181.44,108.86,172.37,462.66,Single-ply,SBD,M,
Boys,109.77,1,Zach Hoyle,Copperas Cove,109.13,249.48,183.7,263.08,696.26,Single-ply,SBD,M,
Boys,109.77,2,Jacob Sinkwich,Belton,108.41,263.08,163.29,238.14,664.51,Single-ply,SBD,M,
Boys,109.77,3,Dai'Shawn Fisher,Waco,100.24,272.16,124.74,249.48,646.37,Single-ply,SBD,M,
Boys,109.77,4,Jasper James,Belton,106.5,240.4,147.42,176.9,564.72,Single-ply,SBD,M,
Boys,109.77,5,Declan McCabe,Waco Midway,102.51,188.24,113.4,188.24,489.88,Single-ply,SBD,M,
Boys,109.77,6,Franquan Sauls,Temple,100.97,188.24,106.59,149.69,444.52,Single-ply,SBD,M,
Boys,109.77,7,Andrew Mornes,Waco,106.05,129.27,74.84,149.69,353.8,Single-ply,SBD,M,
Boys,109.77,8,Evan Lovejoy,Waco Midway,105.14,149.69,65.77,136.08,351.53,Single-ply,SBD,M,
Boys,109.77,NS,Wyatt Gardner,Little River Academy,,,,,,Single-ply,SBD,M,
Boys,124.74,1,Bryan Luna,Belton,122.56,299.37,192.78,235.87,728.02,Single-ply,SBD,M,
Boys,124.74,2,Demontavian Carprew,Waco,118.84,249.48,156.49,233.6,639.57,Single-ply,SBD,M,
Boys,124.74,3,Trenton Freeman,Waco,114.94,204.12,124.74,185.97,514.83,Single-ply,SBD,M,
Boys,124.74,4,Korbyn Peaslee,Waco Midway,117.21,204.12,102.06,204.12,510.29,Single-ply,SBD,M,
Boys,124.74,5,Jeremy Carter,Copperas Cove,121.47,192.78,113.4,201.85,508.02,Single-ply,SBD,M,
Boys,124.74,6,Blake Keith,Waco Midway,114.4,181.44,104.33,181.44,467.2,Single-ply,SBD,M,
Boys,124.74,7,Colby Arney,Cameron Yoe,124.38,181.44,99.79,183.7,464.93,Single-ply,SBD,M,
Boys,124.74,8,Jayden De La Cruz,Temple,110.59,142.88,113.4,161.03,417.3,Single-ply,SBD,M,
Boys,124.74,DQ,Christian Lenued,Cameron Yoe,123.29,136.08,92.99,,,Single-ply,SBD,M,
Boys,124.74,DQ,Challen Maileoi,Belton,121.74,226.8,115.67,,,Single-ply,SBD,M,
Boys,124.74,DQ,John Gorrell,Waco Midway,116.39,,,,,Single-ply,SBD,M,
Boys,124.74+,1,Aaron Shanahan,Copperas Cove,162.02,294.84,190.51,283.5,768.84,Single-ply,SBD,M,
Boys,124.74+,2,David Achu,Little River Academy,138.98,210.92,170.1,204.12,585.13,Single-ply,SBD,M,
Boys,124.74+,3,Joseph Kiraly,Waco,147.96,244.94,136.08,199.58,580.6,Single-ply,SBD,M,
Boys,124.74+,4,Xamier Latchison,Waco,137.26,238.14,124.74,204.12,566.99,Single-ply,SBD,M,
Boys,124.74+,5,Brandon Bartek,Moody,138.62,213.19,151.95,190.51,555.65,Single-ply,SBD,M,
Boys,124.74+,6,Jordan Beccerra,Waco,135.44,215.46,115.67,204.12,535.24,Single-ply,SBD,M,
Boys,124.74+,7,Davis Orr,Moody,128.46,181.44,145.15,206.38,532.97,Single-ply,SBD,M,
Boys,124.74+,8,Jayce McBride,Moody,137.44,226.8,124.74,181.44,532.97,Single-ply,SBD,M,
Boys,124.74+,9,Pj Stidom,Cameron Yoe,128.28,183.7,104.33,145.15,433.18,Single-ply,SBD,M,
