Division,WeightClassKg,Place,Name,Team,BodyweightKg,Best3SquatKg,Best3BenchKg,Best3DeadliftKg,TotalKg,Equipment,Event,Sex
Girls,44.23,1,Kenzee Gerik,Waco Connally,42.18,88.45,38.56,97.52,224.53,Single-ply,SBD,F
Girls,44.23,2,Elizabeth Warren,Moody,42.27,88.45,36.29,90.72,215.46,Single-ply,SBD,F
Girls,44.23,3,Liz Perkins,Moody,44.09,83.91,36.29,92.99,213.19,Single-ply,SBD,F
Girls,44.23,4,Samantha Garcia,Whitney,44.18,83.91,31.75,88.45,204.12,Single-ply,SBD,F
Girls,44.23,5,Angela Foss,Crawford,35.74,56.7,29.48,74.84,161.03,Single-ply,SBD,F
Girls,44.23,6,Alexus Guzman,Chilton,41.1,49.9,29.48,74.84,154.22,Single-ply,SBD,F
Girls,47.85,1,Amanda Hubbard,Moody,46.9,99.79,58.97,117.93,276.69,Single-ply,SBD,F
Girls,47.85,2,Maribel Reyna,Rogers,45,113.4,45.36,102.06,260.82,Single-ply,SBD,F
Girls,47.85,3,Tara Moreno,Alvarado,47.26,99.79,49.9,106.59,256.28,Single-ply,SBD,F
Girls,47.85,4,Mikaela Bonner,Waco Connally,46.36,106.59,43.09,104.33,254.01,Single-ply,SBD,F
Girls,47.85,5,Jacquelyn Washington,Hillsboro,46.45,104.33,43.09,99.79,247.21,Single-ply,SBD,F
Girls,47.85,6,Rachael Zacharias,West,45.81,88.45,34.02,97.52,219.99,Single-ply,SBD,F
Girls,47.85,7,Daylon LaFever,Riesel,47.81,83.91,45.36,90.72,219.99,Single-ply,SBD,F
Girls,47.85,8,Hannah Fraga,Waco Connally,46.36,88.45,34.02,90.72,213.19,Single-ply,SBD,F
Girls,47.85,9,Makayla Hashaw,Chilton,45.45,72.57,36.29,92.99,201.85,Single-ply,SBD,F
Girls,47.85,10,Sydney Bird,Bosqueville,46.9,79.38,31.75,79.38,190.51,Single-ply,SBD,F
Girls,47.85,11,Kori Giles,Crawford,45.36,65.77,34.02,83.91,183.7,Single-ply,SBD,F
Girls,47.85,12,Daniella Duran,Waco Reicher Catholic,46.45,63.5,34.02,79.38,176.9,Single-ply,SBD,F
Girls,51.94,1,Madelon Sander,Palestine,49.71,111.13,52.16,111.13,274.42,Single-ply,SBD,F
Girls,51.94,2,Jessica Eastham,Robinson,50.08,97.52,49.9,122.47,269.89,Single-ply,SBD,F
Girls,51.94,3,Stephanie Piar,Hillsboro,50.8,102.06,40.82,102.06,244.94,Single-ply,SBD,F
Girls,51.94,4,Angel Griggs,Hillsboro,50.8,86.18,40.82,115.67,242.67,Single-ply,SBD,F
Girls,51.94,5,Bryanna Torres,Waco Connally,49.62,86.18,38.56,104.33,229.06,Single-ply,SBD,F
Girls,51.94,6,Bria Dokupil,West,51.17,74.84,47.63,106.59,229.06,Single-ply,SBD,F
Girls,51.94,7,Stephanie Murrow,Rogers,51.07,90.72,38.56,95.25,224.53,Single-ply,SBD,F
Girls,51.94,8,Noelia Delgado,Whitney,50.17,83.91,38.56,92.99,215.46,Single-ply,SBD,F
Girls,51.94,9,Skye Barak,Crawford,51.89,83.91,29.48,81.65,195.04,Single-ply,SBD,F
Girls,51.94,10,Malan Brewer,Clifton,49.17,77.11,36.29,79.38,192.78,Single-ply,SBD,F
Girls,51.94,11,Elisa Chutes,Waco La Vega,50.89,70.31,40.82,79.38,190.51,Single-ply,SBD,F
Girls,51.94,12,Chloe Reinke,Bosqueville,50.17,72.57,31.75,83.91,188.24,Single-ply,SBD,F
Girls,51.94,13,Presley Cowan,Bosqueville,49.08,63.5,38.56,74.84,176.9,Single-ply,SBD,F
Girls,51.94,14,Candace Gautreaux,Thrall,49.35,63.5,38.56,70.31,172.37,Single-ply,SBD,F
Girls,51.94,15,Juanita Rueda,Chilton,48.53,65.77,29.48,74.84,170.1,Single-ply,SBD,F
Girls,51.94,16,Grace Kershner,Alvarado,50.53,61.23,27.22,68.04,156.49,Single-ply,SBD,F
Girls,51.94,17,Tiffany James,Chilton,48.44,47.63,24.95,70.31,142.88,Single-ply,SBD,F
Girls,51.94,18,Melissa Cruz,Hillsboro,49.8,52.16,29.48,61.23,142.88,Single-ply,SBD,F
Girls,51.94,19,Kayla Perkins,Axtell,50.08,90.72,,,90.72,Single-ply,S,F
Girls,51.94,20,Grace Barkley,Rogers,51.07,68.04,,,68.04,Single-ply,S,F
Girls,56.02,1,Sarah Gautreaux,Thrall,54.52,142.88,79.38,124.74,347,Single-ply,SBD,F
Girls,56.02,2,Alexandra Aycock,Riesel,53.71,127.01,68.04,111.13,306.17,Single-ply,SBD,F
Girls,56.02,3,Bella Weatherby,Alvarado,55.79,122.47,54.43,127.01,303.91,Single-ply,SBD,F
Girls,56.02,4,Jayce Cummings,Moody,54.52,120.2,54.43,124.74,299.37,Single-ply,SBD,F
Girls,56.02,5,Chassie Fisher,Moody,52.62,117.93,52.16,113.4,283.5,Single-ply,SBD,F
Girls,56.02,6,Amber Pavelka,West,54.98,108.86,52.16,111.13,272.16,Single-ply,SBD,F
Girls,56.02,7,Kayley Roberson,Clifton,55.07,95.25,43.09,102.06,240.4,Single-ply,SBD,F
Girls,56.02,8,Haley Newman,Waco Connally,54.61,97.52,47.63,92.99,238.14,Single-ply,SBD,F
Girls,56.02,9,Kayla Torres,Waco Connally,53.07,95.25,40.82,99.79,235.87,Single-ply,SBD,F
Girls,56.02,10,Roselie Cruz,Bosqueville,52.44,81.65,52.16,95.25,229.06,Single-ply,SBD,F
Girls,56.02,11,Sydney Finney,Clifton,54.79,90.72,43.09,95.25,229.06,Single-ply,SBD,F
Girls,56.02,12,Brooke Webb,Whitney,55.07,95.25,36.29,97.52,229.06,Single-ply,SBD,F
Girls,56.02,13,Madison Flores,Chilton,53.07,86.18,43.09,97.52,226.8,Single-ply,SBD,F
Girls,56.02,14,Jackie Ortiz,Valley Mills,53.8,72.57,43.09,99.79,215.46,Single-ply,SBD,F
Girls,56.02,15,Najada Green,Hillsboro,54.25,79.38,27.22,99.79,206.38,Single-ply,SBD,F
Girls,56.02,16,Katie Reyes,Palestine,55.43,77.11,34.02,92.99,204.12,Single-ply,SBD,F
Girls,56.02,17,Jordyn Hubnik,Thrall,55.52,70.31,45.36,79.38,195.04,Single-ply,SBD,F
Girls,56.02,18,Laynie Grisham,Waco Connally,54.43,74.84,27.22,90.72,192.78,Single-ply,SBD,F
Girls,56.02,19,Madison Sikes,Rosebud-Lott,52.44,61.23,43.09,79.38,183.7,Single-ply,SBD,F
Girls,56.02,20,Moe Tome,Mexia,55.52,77.11,24.95,79.38,181.44,Single-ply,SBD,F
Girls,56.02,21,Lina Lopez,Waco Reicher Catholic,54.61,68.04,24.95,79.38,172.37,Single-ply,SBD,F
Girls,60.1,1,Taylor Jones,Little River Academy,57.52,131.54,56.7,138.35,326.59,Single-ply,SBD,F
Girls,60.1,2,Meisha McNeil,Mexia,59.42,102.06,52.16,127.01,281.23,Single-ply,SBD,F
Girls,60.1,3,Brianna Shilling,Waco La Vega,56.61,111.13,47.63,113.4,272.16,Single-ply,SBD,F
Girls,60.1,4,Mia Rodriguez,Robinson,59.06,99.79,38.56,120.2,258.55,Single-ply,SBD,F
Girls,60.1,5,Jillian Costen,Bruceville-Eddy,58.15,106.59,43.09,104.33,254.01,Single-ply,SBD,F
Girls,60.1,6,Katelyn Edmonds,Little River Academy,58.6,95.25,49.9,106.59,251.74,Single-ply,SBD,F
Girls,60.1,7,Skyler Flippo,Moody,58.79,97.52,43.09,97.52,238.14,Single-ply,SBD,F
Girls,60.1,8,Caren Contreras,Whitney,57.79,95.25,38.56,102.06,235.87,Single-ply,SBD,F
Girls,60.1,9,Emma Foster,Moody,58.97,95.25,49.9,90.72,235.87,Single-ply,SBD,F
Girls,60.1,10,Saphiana Zamora,Waco Connally,58.42,95.25,40.82,97.52,233.6,Single-ply,SBD,F
Girls,60.1,11,Destiny Smith,Bruceville-Eddy,58.24,83.91,38.56,102.06,224.53,Single-ply,SBD,F
Girls,60.1,12,Lacey Finley,Bruceville-Eddy,56.61,90.72,36.29,88.45,215.46,Single-ply,SBD,F
Girls,60.1,13,Haley Romero,Whitney,57.24,79.38,38.56,95.25,213.19,Single-ply,SBD,F
Girls,60.1,14,Christine Santana,Hillsboro,58.79,86.18,38.56,86.18,210.92,Single-ply,SBD,F
Girls,60.1,15,Cassandra Harmon,Troy,60.1,79.38,40.82,90.72,210.92,Single-ply,SBD,F
Girls,60.1,16,Paige Tamez,Chilton,56.97,72.57,36.29,86.18,195.04,Single-ply,SBD,F
Girls,60.1,17,Blair Brunson,Crawford,56.97,63.5,34.02,86.18,183.7,Single-ply,SBD,F
Girls,60.1,18,Zabrina Scroggins,Palestine,58.33,74.84,27.22,79.38,181.44,Single-ply,SBD,F
Girls,60.1,19,Savannah Bertand,Hamilton,57.24,88.45,,,88.45,Single-ply,S,F
Girls,67.36,1,Mallorie Sander,Palestine,64.95,176.9,72.57,140.61,390.09,Single-ply,SBD,F
Girls,67.36,2,Alexandrea Nall,Waco Connally,65.5,154.22,63.5,154.22,371.95,Single-ply,SBD,F
Girls,67.36,3,Emoni Cooper,Waco Connally,61.33,127.01,72.57,129.27,328.85,Single-ply,SBD,F
Girls,67.36,4,Kirstyne Huggins,Moody,65.95,136.08,61.23,131.54,328.85,Single-ply,SBD,F
Girls,67.36,5,Crystal Williams,Little River Academy,62.78,131.54,54.43,127.01,312.98,Single-ply,SBD,F
Girls,67.36,6,Nemy Arzola,Rogers,67.31,129.27,52.16,124.74,306.17,Single-ply,SBD,F
Girls,67.36,7,Alivia Waters,Chilton,61.6,108.86,43.09,129.27,281.23,Single-ply,SBD,F
Girls,67.36,8,Baylie Gann,Axtell,67.13,120.2,47.63,113.4,281.23,Single-ply,SBD,F
Girls,67.36,9,Krystanie Cox,West,66.32,104.33,56.7,102.06,263.08,Single-ply,SBD,F
Girls,67.36,10,Sydney Smith,West,66.5,108.86,45.36,108.86,263.08,Single-ply,SBD,F
Girls,67.36,11,Kaci Donaldson,Lorena,63.05,104.33,45.36,111.13,260.82,Single-ply,SBD,F
Girls,67.36,12,Abby Eoff,Valley Mills,65.41,90.72,49.9,117.93,258.55,Single-ply,SBD,F
Girls,67.36,13,Emily Hafernik,Thrall,67.31,79.38,52.16,122.47,254.01,Single-ply,SBD,F
Girls,67.36,14,Emma Kramer,Thrall,64.14,95.25,54.43,102.06,251.74,Single-ply,SBD,F
Girls,67.36,15,Adrianna Contreras,Whitney,64.59,92.99,45.36,108.86,247.21,Single-ply,SBD,F
Girls,67.36,16,Shamara Hall,Alvarado,61.42,97.52,38.56,108.86,244.94,Single-ply,SBD,F
Girls,67.36,17,Kristan Hoelscher,Rogers,60.6,90.72,49.9,102.06,242.67,Single-ply,SBD,F
Girls,67.36,18,Landrie Waid,Thrall,60.78,88.45,45.36,99.79,233.6,Single-ply,SBD,F
Girls,67.36,19,Ashton Langley,Mexia,61.05,92.99,38.56,99.79,231.33,Single-ply,SBD,F
Girls,67.36,20,Tiffany Grumbles,Thrall,63.87,86.18,52.16,92.99,231.33,Single-ply,SBD,F
Girls,67.36,21,Dionna Raney,Hamilton,62.96,83.91,49.9,95.25,229.06,Single-ply,SBD,F
Girls,67.36,22,Esmeralda Navarro,Moody,66.77,79.38,40.82,95.25,215.46,Single-ply,SBD,F
Girls,67.36,23,Antonia Miranda,West,62.87,79.38,40.82,86.18,206.38,Single-ply,SBD,F
Girls,67.36,24,Kelly Tran #1,Mexia,61.69,88.45,29.48,83.91,201.85,Single-ply,SBD,F
Girls,67.36,25,Kiara Ross,Hillsboro,65.41,77.11,43.09,79.38,199.58,Single-ply,SBD,F
Girls,67.36,26,Lily Nolan,Palestine,65.95,77.11,34.02,83.91,195.04,Single-ply,SBD,F
Girls,67.36,27,Julianna Johnson,Bosqueville,64.41,68.04,36.29,83.91,188.24,Single-ply,SBD,F
Girls,67.36,28,Lacy Sergeant,Whitney,65.77,68.04,29.48,79.38,176.9,Single-ply,SBD,F
Girls,67.36,29,Elexxus Ipsen,Hillsboro,65.95,49.9,29.48,63.5,142.88,Single-ply,SBD,F
Girls,75.07,1,Kyndall Hoelscher,West,73.12,147.42,83.91,147.42,378.75,Single-ply,SBD,F
Girls,75.07,2,Brittany Carter,Bosqueville,73.03,138.35,58.97,165.56,362.87,Single-ply,SBD,F
Girls,75.07,3,Brittany Frillou,Axtell,73.3,147.42,77.11,136.08,360.61,Single-ply,SBD,F
Girls,75.07,4,Kaylie Hudson,Axtell,71.85,136.08,58.97,138.35,333.39,Single-ply,SBD,F
Girls,75.07,5,Kristiina Penttinen,Robinson,71.03,131.54,65.77,133.81,331.12,Single-ply,SBD,F
Girls,75.07,6,Keila Molina,Mexia,72.57,140.61,56.7,122.47,319.78,Single-ply,SBD,F
Girls,75.07,7,Infiniti Morrow,Palestine,69.13,127.01,52.16,127.01,306.17,Single-ply,SBD,F
Girls,75.07,8,Hannah Byrd,Lorena,71.58,120.2,45.36,120.2,285.76,Single-ply,SBD,F
Girls,75.07,9,Wendy Flores,Alvarado,70.22,111.13,49.9,120.2,281.23,Single-ply,SBD,F
Girls,75.07,10,Adele Chaffer,Little River Academy,67.77,102.06,49.9,120.2,272.16,Single-ply,SBD,F
Girls,75.07,11,Juliana Flores,Waco Reicher Catholic,69.13,111.13,43.09,117.93,272.16,Single-ply,SBD,F
Girls,75.07,12,Hailey Gonzalez,Moody,71.12,113.4,45.36,113.4,272.16,Single-ply,SBD,F
Girls,75.07,13,Raven Choquette,Clifton,69.49,102.06,38.56,117.93,258.55,Single-ply,SBD,F
Girls,75.07,14,Indira Bonilla,Hillsboro,70.13,92.99,47.63,102.06,242.67,Single-ply,SBD,F
Girls,75.07,15,Lilly Perez,West,69.85,95.25,47.63,92.99,235.87,Single-ply,SBD,F
Girls,75.07,16,Darby Block,Crawford,70.03,90.72,43.09,97.52,231.33,Single-ply,SBD,F
Girls,75.07,17,Alyssa Rice,Riesel,70.76,97.52,43.09,90.72,231.33,Single-ply,SBD,F
Girls,75.07,18,Anna Donaldson,Crawford,69.94,88.45,43.09,92.99,224.53,Single-ply,SBD,F
Girls,75.07,19,Mellisa Alleman,Valley Mills,74.3,74.84,54.43,95.25,224.53,Single-ply,SBD,F
Girls,75.07,20,Miranda Hallford,Franklin,74.84,97.52,43.09,81.65,222.26,Single-ply,SBD,F
Girls,75.07,21,Summer Howard,Bosqueville,68.58,83.91,34.02,83.91,201.85,Single-ply,SBD,F
Girls,75.07,22,Kodee Crouch,Hamilton,69.76,74.84,40.82,86.18,201.85,Single-ply,SBD,F
Girls,75.07,23,Jazmine Breeding,Waco La Vega,69.85,70.31,45.36,83.91,199.58,Single-ply,SBD,F
Girls,75.07,24,Molly Augeri,Crawford,70.31,65.77,34.02,83.91,183.7,Single-ply,SBD,F
Girls,75.07,25,Miranda Candanoza,Mexia,69.58,61.23,34.02,83.91,179.17,Single-ply,SBD,F
Girls,75.07,26,Monserrat Serrano,Hillsboro,69.67,58.97,34.02,70.31,163.29,Single-ply,SBD,F
Girls,82.33,1,Alexis Davis,Jewett Leon,79.74,176.9,77.11,151.95,405.97,Single-ply,SBD,F
Girls,82.33,2,Michaela McGeary,Jewett Leon,80.47,138.35,65.77,140.61,344.73,Single-ply,SBD,F
Girls,82.33,3,Allana Bettge,Waco Reicher Catholic,81.19,138.35,70.31,136.08,344.73,Single-ply,SBD,F
Girls,82.33,4,Ashley Porter,Thrall,75.93,136.08,58.97,129.27,324.32,Single-ply,SBD,F
Girls,82.33,5,Chesney Kuper,Little River Academy,80.83,117.93,61.23,124.74,303.91,Single-ply,SBD,F
Girls,82.33,6,Tytiana Phillips,Waco La Vega,79.11,111.13,49.9,131.54,292.57,Single-ply,SBD,F
Girls,82.33,7,Anna True,Crawford,79.11,104.33,58.97,111.13,274.42,Single-ply,SBD,F
Girls,82.33,8,Allure Cavazos,Waco Reicher Catholic,78.02,104.33,43.09,104.33,251.74,Single-ply,SBD,F
Girls,82.33,9,Ivey Mount,Crawford,76.02,99.79,40.82,92.99,233.6,Single-ply,SBD,F
Girls,82.33,10,Callie Adkisson,Palestine,75.39,79.38,34.02,92.99,206.38,Single-ply,SBD,F
Girls,82.33,DQ,Tara Logue,Troy,76.93,,,,,Single-ply,SBD,F
Girls,90.04,1,Taylor Strmiska,Little River Academy,84.73,183.7,90.72,181.44,455.86,Single-ply,SBD,F
Girls,90.04,2,Cheyenne Meyer,Bruceville-Eddy,85.91,167.83,74.84,167.83,410.5,Single-ply,SBD,F
Girls,90.04,3,Beth Bounds,Moody,85.73,167.83,68.04,156.49,392.36,Single-ply,SBD,F
Girls,90.04,4,Jordan Bush,Little River Academy,84.55,145.15,58.97,147.42,351.53,Single-ply,SBD,F
Girls,90.04,5,Mikayla Jowers,Crawford,88.45,145.15,72.57,131.54,349.27,Single-ply,SBD,F
Girls,90.04,6,Lea Cuevas,Moody,83.1,149.69,56.7,124.74,331.12,Single-ply,SBD,F
Girls,90.04,7,Yulissa Recio,Moody,88.99,136.08,52.16,117.93,306.17,Single-ply,SBD,F
Girls,90.04,8,Hope Jenson,Clifton,84.82,106.59,52.16,124.74,283.5,Single-ply,SBD,F
Girls,90.04,9,Laura Chavez,West,87.27,102.06,47.63,111.13,260.82,Single-ply,SBD,F
Girls,90.04,10,Hope Goodrich,Mexia,83.37,95.25,43.09,99.79,238.14,Single-ply,SBD,F
Girls,90.04,11,Meranda Loftin,Alvarado,86.09,102.06,36.29,79.38,217.72,Single-ply,SBD,F
Girls,90.04,12,Mills Wood,Valley Mills,86.27,81.65,40.82,95.25,217.72,Single-ply,SBD,F
Girls,90.04,13,ShauTavia Crenshaw,Waco La Vega,88.99,92.99,,,92.99,Single-ply,S,F
Girls,100.02,1,Lacy LeBoeuf,Bosqueville,95.8,156.49,72.57,154.22,383.29,Single-ply,SBD,F
Girls,100.02,2,Kaci Gauntt,Mexia,91.44,154.22,68.04,151.95,374.21,Single-ply,SBD,F
Girls,100.02,3,Gabrielle Lopez,West,99.16,149.69,77.11,111.13,337.93,Single-ply,SBD,F
Girls,100.02,4,Zaida Soto,Waco La Vega,99.88,129.27,70.31,129.27,328.85,Single-ply,SBD,F
Girls,100.02,5,Madison Perry,Bruceville-Eddy,96.71,120.2,61.23,133.81,315.25,Single-ply,SBD,F
Girls,100.02,6,Alexyss Herzog,Little River Academy,97.43,122.47,58.97,129.27,310.71,Single-ply,SBD,F
Girls,100.02,7,Grace Black,Clifton,99.84,113.4,52.16,108.86,274.42,Single-ply,SBD,F
Girls,100.02,8,Jamie Comer,Mexia,93.53,92.99,43.09,104.33,240.4,Single-ply,SBD,F
Girls,100.02,9,Paige Trigleth,Riesel,95.35,90.72,45.36,70.31,206.38,Single-ply,SBD,F
Girls,100.02+,1,Sydney Robins,Bruceville-Eddy,110.31,163.29,77.11,172.37,412.77,Single-ply,SBD,F
Girls,100.02+,2,Haley Morehead,Franklin,125.92,172.37,70.31,163.29,405.97,Single-ply,SBD,F
Girls,100.02+,3,Emilia Betancourt,Bruceville-Eddy,109.32,167.83,68.04,163.29,399.16,Single-ply,SBD,F
Girls,100.02+,4,Erica Greybill,Bruceville-Eddy,105.51,165.56,70.31,140.61,376.48,Single-ply,SBD,F
Girls,100.02+,5,Andrea Garcia,Chilton,112.22,136.08,61.23,142.88,340.19,Single-ply,SBD,F
Girls,100.02+,6,Kaylee Shilling,Waco La Vega,120.66,129.27,72.57,124.74,326.59,Single-ply,SBD,F
Girls,100.02+,7,Deonshae Milliner,Moody,110.86,127.01,58.97,138.35,324.32,Single-ply,SBD,F
Girls,100.02+,8,McKaylen Drake,Rogers,111.31,147.42,68.04,106.59,322.05,Single-ply,SBD,F
Girls,100.02+,9,Mikayla Cox,Franklin,118.57,129.27,63.5,124.74,317.51,Single-ply,SBD,F
Girls,100.02+,10,Judith Gonzalez,Mexia,102.15,127.01,49.9,115.67,292.57,Single-ply,SBD,F
Girls,100.02+,11,Aliyah Allison,Waco La Vega,136.17,111.13,49.9,129.27,290.3,Single-ply,SBD,F
Girls,100.02+,12,Maggie Conlon,Troy,101.24,108.86,56.7,104.33,269.89,Single-ply,SBD,F
Girls,100.02+,13,Cheynne Fulton,Rosebud-Lott,121.93,83.91,38.56,97.52,219.99,Single-ply,SBD,F
Girls,100.02+,14,Maria Bradford,Palestine,123.83,68.04,34.02,90.72,192.78,Single-ply,SBD,F
Girls,,NS,Alexis Compean,Moody,,,,,,Single-ply,SBD,F
Girls,,NS,Alycia Ybarra,Mexia,,,,,,Single-ply,SBD,F
Girls,,NS,Samantha Jacobs,Mexia,,,,,,Single-ply,SBD,F
Girls,,NS,Lacey Tillis,Palestine,,,,,,Single-ply,SBD,F
Girls,,NS,Yatziri Castillo,Hillsboro,,,,,,Single-ply,SBD,F
Girls,,NS,Diana Feria,Alvarado,,,,,,Single-ply,SBD,F
