Division,WeightClassKg,Place,Name,Team,BodyweightKg,Best3SquatKg,Best3BenchKg,Best3DeadliftKg,TotalKg,Equipment,Event,Sex
Boys,55.79,1,Jacob Kemp,Bonham,51.8,90.72,49.9,115.67,256.28,Single-ply,SBD,M
Boys,51.71,2,Cj McKinzie,Whitesboro,51.07,102.06,47.63,86.18,235.87,Single-ply,SBD,M
Boys,51.71,3,Matthew Palmer,Bonham,48.44,77.11,54.43,102.06,233.6,Single-ply,SBD,M
Boys,51.71,4,Levi Schofield,Sanger,48.99,86.18,38.56,102.06,226.8,Single-ply,SBD,M
Boys,51.71,5,Parker Sneed,Whitesboro,42.64,58.97,38.56,81.65,179.17,Single-ply,SBD,M
Boys,51.71,6,Peyton Raymer,Blue Ridge,45,61.23,34.02,74.84,170.1,Single-ply,SBD,M
Boys,51.71,7,Justin Bilbrey,Howe,51.71,58.97,45.36,65.77,170.1,Single-ply,SBD,M
Boys,55.79,8,Tyler Rollwage,Aubrey,51.89,74.84,31.75,,106.59,Single-ply,SB,M
Boys,51.71,9,Tristan Bannister,Tom Bean,47.26,61.23,,,61.23,Single-ply,S,M
Boys,55.79,1,Ethan Brooks,Bonham,55.43,151.95,63.5,179.17,394.63,Single-ply,SBD,M
Boys,55.79,2,Stephen Nelson,Pottsboro,55.79,158.76,88.45,147.42,394.63,Single-ply,SBD,M
Boys,55.79,3,Jonathan Juarez,Celina,55.79,133.81,68.04,163.29,365.14,Single-ply,SBD,M
Boys,59.87,4,Romario Hernandez,Krum,55.88,120.2,56.7,113.4,290.3,Single-ply,SBD,M
Boys,59.87,5,Mark Steinhoff,Aubrey,55.88,83.91,65.77,108.86,258.55,Single-ply,SBD,M
Boys,55.79,6,Justin Keeton,Anna,55.07,92.99,52.16,104.33,249.48,Single-ply,SBD,M
Boys,55.79,7,Justin Hughes,Gainesville,53.89,97.52,45.36,102.06,244.94,Single-ply,SBD,M
Boys,55.79,8,Austin Caldwell,Callisburg,54.79,95.25,47.63,102.06,244.94,Single-ply,SBD,M
Boys,55.79,9,Will Carter,Sanger,55.34,124.74,,,124.74,Single-ply,S,M
Boys,55.79,10,Cole Prince,Aubrey,53.25,72.57,,,72.57,Single-ply,S,M
Boys,59.87,1,Jordan Smith #7,Bonham,59.69,170.1,86.18,195.04,451.32,Single-ply,SBD,M
Boys,59.87,2,Grey Berry,Whitewright,59.78,149.69,74.84,149.69,374.21,Single-ply,SBD,M
Boys,59.87,3,Sasha Shannon,Sanger,57.52,136.08,77.11,142.88,356.07,Single-ply,SBD,M
Boys,59.87,4,Stephen Steele,Pottsboro,59.6,136.08,72.57,147.42,356.07,Single-ply,SBD,M
Boys,59.87,5,Michael Vest,Celina,59.24,154.22,61.23,136.08,351.53,Single-ply,SBD,M
Boys,59.87,6,Kyle Garner,Gunter,58.33,120.2,83.91,145.15,349.27,Single-ply,SBD,M
Boys,67.13,7,Kyle Rhinehart,Celina,60.06,133.81,61.23,124.74,319.78,Single-ply,SBD,M
Boys,67.13,8,Robert Delatorre,Aubrey,60.06,108.86,70.31,138.35,317.51,Single-ply,SBD,M
Boys,59.87,9,Dylan Serna,Krum,59.33,158.76,,142.88,301.64,Single-ply,SD,M
Boys,59.87,10,Cameron Glover,Whitewright,58.06,77.11,58.97,90.72,226.8,Single-ply,SBD,M
Boys,59.87,11,Kyle Malone,Whitewright,59.24,77.11,52.16,92.99,222.26,Single-ply,SBD,M
Boys,59.87,12,David Bowling,Blue Ridge,56.88,74.84,49.9,88.45,213.19,Single-ply,SBD,M
Boys,59.87,13,Roger Bryant,Krum,58.24,113.4,,,113.4,Single-ply,S,M
Boys,67.13,14,Charlie Radford,Aubrey,60.06,113.4,,,113.4,Single-ply,S,M
Boys,59.87,15,Jake Vest,Blue Ridge,57.97,99.79,,,99.79,Single-ply,S,M
Boys,67.13,16,Jacob Blagburn,Blue Ridge,60.06,95.25,,,95.25,Single-ply,S,M
Boys,59.87,DQ,Nate Ferguson,Honey Grove,57.79,,,,,Single-ply,S,M
Boys,67.13,DQ,Clayton McGar,Decatur,60.06,,,,,Single-ply,S,M
Boys,74.84,1,Nathan Markiewics,Bonham,67.31,181.44,120.2,215.46,517.1,Single-ply,SBD,M
Boys,67.13,2,Garrett Syfert,Pottsboro,64.68,199.58,97.52,181.44,478.54,Single-ply,SBD,M
Boys,67.13,3,Jeremy Croney,Sadler S & S Cons,64.32,179.17,81.65,176.9,437.72,Single-ply,SBD,M
Boys,67.13,4,Tony Solis,Krum,64.77,161.03,83.91,165.56,410.5,Single-ply,SBD,M
Boys,67.13,5,Chance Willits,Howe,61.87,149.69,83.91,170.1,403.7,Single-ply,SBD,M
Boys,67.13,6,Willie Winborne,Sadler S & S Cons,66.22,147.42,88.45,167.83,403.7,Single-ply,SBD,M
Boys,67.13,7,Jd Long,Gainesville,63.96,136.08,83.91,170.1,390.09,Single-ply,SBD,M
Boys,67.13,8,Mason Thompson,Whitewright,62.6,149.69,79.38,136.08,365.14,Single-ply,SBD,M
Boys,67.13,9,Aaron Decker,Whitewright,65.5,122.47,83.91,145.15,351.53,Single-ply,SBD,M
Boys,67.13,10,Brennan Ellis,Krum,66.41,140.61,72.57,136.08,349.27,Single-ply,SBD,M
Boys,67.13,11,Hunter Hall,Gainesville,64.14,124.74,68.04,154.22,347,Single-ply,SBD,M
Boys,67.13,12,Jd Gandy,Decatur,62.78,124.74,70.31,147.42,342.46,Single-ply,SBD,M
Boys,67.13,13,Zecharia Heath,Anna,63.41,151.95,68.04,122.47,342.46,Single-ply,SBD,M
Boys,67.13,14,Brad Lovick,Sadler S & S Cons,65.05,133.81,70.31,138.35,342.46,Single-ply,SBD,M
Boys,67.13,15,Hunter Green,Anna,65.32,138.35,81.65,122.47,342.46,Single-ply,SBD,M
Boys,74.84,16,Chris Rhinehart,Celina,67.22,124.74,61.23,154.22,340.19,Single-ply,SBD,M
Boys,67.13,17,Danny Nunez,Blue Ridge,66.77,115.67,65.77,142.88,324.32,Single-ply,SBD,M
Boys,67.13,18,Alex Garcia,Callisburg,65.41,102.06,65.77,138.35,306.17,Single-ply,SBD,M
Boys,67.13,19,Tyler Wier,Decatur,61.6,111.13,70.31,111.13,292.57,Single-ply,SBD,M
Boys,67.13,20,Cody Long,Anna,64.41,102.06,47.63,122.47,272.16,Single-ply,SBD,M
Boys,67.13,DQ,Matt Jelen,Krum,64.41,,,,,Single-ply,SBD,M
Boys,67.13,DQ,Josh Maynar,Pottsboro,67.04,163.29,,,,Single-ply,SBD,M
Boys,67.13,DQ,Eric Rodriguez,Aubrey,66.77,167.83,,,,Single-ply,SBD,M
Boys,67.13,DQ,Luke Parrish,Tom Bean,61.46,156.49,,,,Single-ply,SBD,M
Boys,74.84,1,Adrian Guay,Sanger,69.22,204.12,106.59,204.12,514.83,Single-ply,SBD,M
Boys,74.84,2,Sebastian Spencer,Anna,68.58,183.7,117.93,179.17,480.81,Single-ply,SBD,M
Boys,74.84,3,Mitchell Erp,Aubrey,70.85,170.1,104.33,185.97,460.4,Single-ply,SBD,M
Boys,74.84,4,James Jackson,Callisburg,72.26,151.95,104.33,204.12,460.4,Single-ply,SBD,M
Boys,74.84,5,John Eskue,Sanger,74.21,170.1,102.06,181.44,453.59,Single-ply,SBD,M
Boys,82.1,6,Dustin Richards,Krum,74.93,165.56,90.72,188.24,444.52,Single-ply,SBD,M
Boys,74.84,7,Dakota Burchfield,Van Alstyne,71.3,129.27,97.52,136.08,362.87,Single-ply,SBD,M
Boys,74.84,8,Craig Wood,Whitewright,73.75,136.08,77.11,149.69,362.87,Single-ply,SBD,M
Boys,74.84,9,Collin Skaggs,Callisburg,71.67,136.08,79.38,145.15,360.61,Single-ply,SBD,M
Boys,74.84,10,Korey Sanchez,Anna,67.68,129.27,74.84,149.69,353.8,Single-ply,SBD,M
Boys,74.84,11,Levi Rust,Decatur,72.21,124.74,74.84,147.42,347,Single-ply,SBD,M
Boys,74.84,12,Chase Pinion,Anna,71.03,117.93,81.65,138.35,337.93,Single-ply,SBD,M
Boys,74.84,13,Ryan Bridges,Bells,71.21,122.47,68.04,136.08,326.59,Single-ply,SBD,M
Boys,74.84,14,Logan Shipley,Krum,72.76,122.47,63.5,136.08,322.05,Single-ply,SBD,M
Boys,74.84,15,Andrew Lopez,Decatur,72.26,111.13,70.31,127.01,308.44,Single-ply,SBD,M
Boys,74.84,16,Travis Fulton,Howe,73.03,136.08,68.04,68.04,272.16,Single-ply,SBD,M
Boys,74.84,17,Atticus Kilcrecse,Whitesboro,70.67,77.11,56.7,99.79,233.6,Single-ply,SBD,M
Boys,82.1,DQ,Connor Oldham,Van Alstyne,75.02,,,,,Single-ply,SBD,M
Boys,82.1,1,Jesus Vargas,Celina,78.74,206.38,147.42,217.72,571.53,Single-ply,SBD,M
Boys,82.1,2,Marcus Vera,Howe,77.47,235.87,120.2,201.85,557.92,Single-ply,SBD,M
Boys,82.1,3,Anthony Garcia,Celina,81.37,190.51,111.13,204.12,505.76,Single-ply,SBD,M
Boys,82.1,4,Stryker Hunnicutt,Bonham,82.01,181.44,104.33,195.04,480.81,Single-ply,SBD,M
Boys,82.1,5,Cody Alexander,Bonham,78.47,183.7,104.33,190.51,478.54,Single-ply,SBD,M
Boys,82.1,6,Dakota Barnes,Bonham,81.28,172.37,88.45,213.19,474,Single-ply,SBD,M
Boys,82.1,7,Derek Shelby,Sanger,80.1,163.29,106.59,176.9,446.79,Single-ply,SBD,M
Boys,82.1,8,Jeffery McClinton,Callisburg,80.74,165.56,95.25,176.9,437.72,Single-ply,SBD,M
Boys,82.1,9,John Norrell,Anna,80.56,165.56,99.79,170.1,435.45,Single-ply,SBD,M
Boys,82.1,10,Justin Haggard,Bonham,77.29,170.1,99.79,163.29,433.18,Single-ply,SBD,M
Boys,82.1,11,Donovan Inman,Aubrey,76.38,170.1,90.72,163.29,424.11,Single-ply,SBD,M
Boys,82.1,12,Jordan Buckaloo,Leonard,78.02,149.69,92.99,174.63,417.3,Single-ply,SBD,M
Boys,82.1,13,Austin Gaddis,Bells,80.47,165.56,95.25,151.95,412.77,Single-ply,SBD,M
Boys,82.1,14,Luis Erives,Sadler S & S Cons,78.11,122.47,104.33,174.63,401.43,Single-ply,SBD,M
Boys,82.1,15,Dylan Cole,Decatur,81.37,136.08,111.13,154.22,401.43,Single-ply,SBD,M
Boys,82.1,16,Sean Kyle,Anna,77.84,140.61,90.72,147.42,378.75,Single-ply,SBD,M
Boys,82.1,17,Dustin Short,Decatur,80.83,136.08,83.91,156.49,376.48,Single-ply,SBD,M
Boys,82.1,18,Seth Skaggs,Pottsboro,75.57,142.88,88.45,142.88,374.21,Single-ply,SBD,M
Boys,82.1,19,Arnold Contreras,Leonard,79.29,156.49,74.84,133.81,365.14,Single-ply,SBD,M
Boys,82.1,20,Gabriel Rivera,Gainesville,78.29,115.67,88.45,138.35,342.46,Single-ply,SBD,M
Boys,82.1,21,Dennis Lipstraw,Honey Grove,76.48,117.93,63.5,136.08,317.51,Single-ply,SBD,M
Boys,82.1,22,Nick Liccione,Howe,78.02,90.72,61.23,90.72,242.67,Single-ply,SBD,M
Boys,82.1,DQ,Chance Bratcher,Sadler S & S Cons,81.65,,,,,Single-ply,SBD,M
Boys,82.1,DQ,Shawn Shugart,Callisburg,81.47,,,,,Single-ply,SBD,M
Boys,89.81,1,Kenyon Morgan,Gainesville,86.45,233.6,129.27,235.87,598.74,Single-ply,SBD,M
Boys,89.81,2,Dru Hull,Sadler S & S Cons,82.64,204.12,127.01,208.65,539.77,Single-ply,SBD,M
Boys,89.81,3,Dj Fields,Bonham,88.09,210.92,122.47,188.24,521.63,Single-ply,SBD,M
Boys,89.81,4,Levi Haggard,Bonham,84.55,201.85,122.47,188.24,512.56,Single-ply,SBD,M
Boys,89.81,5,Dylan House,Honey Grove,86.09,199.58,99.79,188.24,487.61,Single-ply,SBD,M
Boys,89.81,6,Cody Morrison,Callisburg,84.73,181.44,102.06,185.97,469.47,Single-ply,SBD,M
Boys,89.81,7,Dj Marick,Sanger,84.01,156.49,122.47,170.1,449.06,Single-ply,SBD,M
Boys,99.79,8,Grant McLean,Bells,89.99,170.1,97.52,163.29,430.91,Single-ply,SBD,M
Boys,89.81,9,Mason Del Castillo,Decatur,88.72,158.76,95.25,174.63,428.64,Single-ply,SBD,M
Boys,89.81,10,Ekson Hernandez,Sadler S & S Cons,86,149.69,81.65,181.44,412.77,Single-ply,SBD,M
Boys,89.81,11,Juan Perez,Decatur,86.55,136.08,111.13,165.56,412.77,Single-ply,SBD,M
Boys,89.81,12,Adam Neal,Bells,88.99,174.63,90.72,147.42,412.77,Single-ply,SBD,M
Boys,89.81,13,Javier Velasquez,Honey Grove,87.09,158.76,81.65,170.1,410.5,Single-ply,SBD,M
Boys,89.81,14,Jessie Gritney,Honey Grove,84.46,140.61,113.4,136.08,390.09,Single-ply,SBD,M
Boys,89.81,15,Ty Laird,Krum,86.27,138.35,90.72,154.22,383.29,Single-ply,SBD,M
Boys,99.79,16,Hunter Howard,Krum,89.99,149.69,79.38,145.15,374.21,Single-ply,SBD,M
Boys,89.81,17,Hayden Self,Anna,87.54,124.74,52.16,127.01,303.91,Single-ply,SBD,M
Boys,89.81,DQ,Carlton Kutas,Krum,88.45,122.47,,124.74,,Single-ply,SBD,M
Boys,89.81,DQ,Brandon Love,Pottsboro,84.01,192.78,,,,Single-ply,SBD,M
Boys,89.81,DQ,Jd Patterson,Howe,82.83,129.27,,,,Single-ply,SBD,M
Boys,89.81,DQ,Garrett Dansby,Van Alstyne,88.54,,,,,Single-ply,SBD,M
Boys,89.81,DQ,Cameron Litzow,Van Alstyne,87,,,,,Single-ply,SBD,M
Boys,99.79,1,Eduardo Webber,Howe,90.81,258.55,140.61,213.19,612.35,Single-ply,SBD,M
Boys,99.79,2,Nick Conklin,Sanger,92.9,219.99,136.08,208.65,564.72,Single-ply,SBD,M
Boys,99.79,3,Javier Jaramillo,Honey Grove,98.25,174.63,106.59,183.7,464.93,Single-ply,SBD,M
Boys,99.79,4,Dakota Covington,Callisburg,92.53,156.49,108.86,174.63,439.98,Single-ply,SBD,M
Boys,99.79,5,Esteban Martinez,Krum,99.61,154.22,97.52,161.03,412.77,Single-ply,SBD,M
Boys,109.77,6,Dylan Cleveland,Pottsboro,99.97,136.08,83.91,147.42,367.41,Single-ply,SBD,M
Boys,99.79,7,Raymond Taylor,Anna,91.44,151.95,79.38,129.27,360.61,Single-ply,SBD,M
Boys,99.79,8,Hunter Conley,Pottsboro,98.97,170.1,104.33,,274.42,Single-ply,SB,M
Boys,99.79,9,Shane Tilden,Krum,95.44,142.88,95.25,,238.14,Single-ply,SB,M
Boys,99.79,10,Dawson Stewart,Howe,90.72,158.76,,,158.76,Single-ply,S,M
Boys,109.77,1,Javier Padilla,Bonham,100.15,204.12,142.88,195.04,542.04,Single-ply,SBD,M
Boys,109.77,2,Blake Hawkins,Pottsboro,107.68,201.85,120.2,197.31,519.36,Single-ply,SBD,M
Boys,109.77,3,Brad Shatto,Sadler S & S Cons,106.41,222.26,122.47,172.37,517.1,Single-ply,SBD,M
Boys,109.77,4,Heber Hernandez,Sadler S & S Cons,107.41,190.51,102.06,208.65,501.22,Single-ply,SBD,M
Boys,109.77,5,David Lawson,Tom Bean,100.97,188.24,122.47,170.1,480.81,Single-ply,SBD,M
Boys,109.77,6,Billy Doyle,Pottsboro,101.7,190.51,97.52,176.9,464.93,Single-ply,SBD,M
Boys,109.77,7,Adam Stapleton,Whitesboro,102.33,176.9,113.4,167.83,458.13,Single-ply,SBD,M
Boys,109.77,8,Jose Tapia,Howe,102.24,158.76,127.01,158.76,444.52,Single-ply,SBD,M
Boys,109.77,9,Jeff Sanburn,Callisburg,100.97,136.08,88.45,192.78,417.3,Single-ply,SBD,M
Boys,109.77,10,Logan Smithson,Callisburg,103.24,151.95,92.99,151.95,396.89,Single-ply,SBD,M
Boys,109.77,11,Joseph Taylor,Whitewright,107.05,124.74,65.77,136.08,326.59,Single-ply,SBD,M
Boys,109.77,DQ,Dylan Bloodworth,Honey Grove,104.24,,,,,Single-ply,SBD,M
Boys,109.77,DQ,Jordan Mitchell,Krum,108.32,,,,,Single-ply,SBD,M
Boys,124.74,1,Jake Barton,Callisburg,120.75,235.87,120.2,208.65,564.72,Single-ply,SBD,M
Boys,124.74,2,Colt Nelson,Sanger,117.84,226.8,129.27,201.85,557.92,Single-ply,SBD,M
Boys,124.74,3,Gavin Buckaloo,Leonard,111.27,210.92,136.08,195.04,542.04,Single-ply,SBD,M
Boys,124.74,4,Hayden Wyrick,Whitewright,115.48,192.78,115.67,176.9,485.34,Single-ply,SBD,M
Boys,124.74,5,Brice Goracke,Bells,119.11,181.44,108.86,188.24,478.54,Single-ply,SBD,M
Boys,124.74,6,Kyle Scheffler,Sanger,111.58,170.1,124.74,163.29,458.13,Single-ply,SBD,M
Boys,124.74,7,Alex Mayes,Van Alstyne,115.58,170.1,120.2,179.17,469.47,Single-ply,SBD,M
Boys,124.74,8,Jacob Johnson,Aubrey,110.86,172.37,88.45,192.78,453.59,Single-ply,SBD,M
Boys,124.74,DQ,Ethan Sage,Aubrey,118.57,,,,,Single-ply,SBD,M
Boys,124.74+,1,Joe Merino,Anna,136.44,276.69,154.22,231.33,662.24,Single-ply,SBD,M
Boys,124.74+,2,Tanner Kissling,Bonham,145.97,238.14,138.35,204.12,580.6,Single-ply,SBD,M
Boys,124.74+,3,Randel Furey,Sadler S & S Cons,125.1,208.65,124.74,188.24,521.63,Single-ply,SBD,M
Boys,124.74+,4,Connor Mayes,Van Alstyne,143.88,179.17,136.08,161.03,476.27,Single-ply,SBD,M
Boys,124.74+,5,Wes Fulce,Sadler S & S Cons,142.88,181.44,81.65,158.76,421.84,Single-ply,SBD,M
