Place,Name,Division,BirthYear,Sex,BodyweightKg,Squat1Kg,Squat2Kg,Squat3Kg,Best3SquatKg,Bench1Kg,Bench2Kg,Bench3Kg,Best3BenchKg,Deadlift1Kg,Deadlift2Kg,Deadlift3Kg,Best3DeadliftKg,TotalKg,Equipment,WeightClassKg,Event,State
1,Bethany Parker,Sub-Juniors,1999,F,81.5,140,150,-157.5,150,85,90,-100,90,155,172.5,180,180,420,Raw,84,SBD,
2,Paige White,Sub-Juniors,1997,F,83.7,122.5,130,137.5,137.5,65,67.5,70,70,165,183,-213,183,390.5,Raw,84,SBD,
1,Gary Le,Sub-Juniors,1997,M,55.85,117.5,126,135,135,82.5,90,-100,90,127.5,145,-150,145,370,Raw,59,SBD,
1,Joshua Jaraba,Sub-Juniors,1997,M,72.9,170,182.5,-195,182.5,90,95,100,100,200,215,225,225,507.5,Raw,74,SBD,
2,Tristan Stringer,Sub-Juniors,1997,M,72.9,160,170,175,175,110,117.5,-120,117.5,185,202.5,-212.5,202.5,495,Raw,74,SBD,
3,Nicholas Amadei,Juniors,1996,M,69.85,105,117.5,-125,117.5,80,85,-87.5,85,145,160,167.5,167.5,370,Raw,74,SBD,
DQ,Harold Chow,Sub-Juniors,1998,M,73.45,172.5,-182.5,-182.5,172.5,-115,-115,-115,,-207.5,212.5,-230,212.5,,Raw,74,SBD,
1,Boris Savkovic,Sub-Juniors,1997,M,79.15,165,177.5,187.5,187.5,112.5,117.5,122.5,122.5,190,202.5,-210,202.5,512.5,Raw,83,SBD,
2,Kieren Mastrolembo,Sub-Juniors,1997,M,80.85,145,152.5,160,160,92.5,97.5,-100,97.5,-182.5,182.5,200,200,457.5,Raw,83,SBD,
3,Jamin Paramore,Sub-Juniors,1999,M,81.45,135,150,-160,150,75,-80,-80,75,150,162.5,170,170,395,Raw,83,SBD,
DQ,Deep Malaviya,Sub-Juniors,1997,M,82.6,-140,-142.5,-142.5,,90,95,-100,95,-175,175,182.5,182.5,,Raw,83,SBD,
1,Adam Wearne,Sub-Juniors,1997,M,96.1,215,231,-237.5,231,135,-145,147.5,147.5,245,-262.5,262.5,262.5,641,Raw,105,SBD,
1,Kalin Trotman,Sub-Juniors,1998,M,107.75,175,185,200,200,135,142.5,145,145,205,220,230,230,575,Raw,120,SBD,
1,Wendy Chan,Juniors,1994,F,46.3,110,115,-120.5,115,57.5,60,62.5,62.5,122.5,128,130.5,130.5,308,Raw,47,SBD,
2,Georgia Emmett,Juniors,1994,F,46.25,72.5,77.5,80,80,40,42.5,45,45,100,105,-107.5,105,230,Raw,47,SBD,
1,Emma McRae,Juniors,1993,F,51.45,104,109.5,112.5,112.5,63,66.5,-70,66.5,130,140,146,146,325,Raw,52,SBD,
2,Hannah Tan,Juniors,1993,F,51.2,95,100,102.5,102.5,47.5,50,-52.5,50,105,112.5,117.5,117.5,270,Raw,52,SBD,
1,Giuliana Nannetti,Juniors,1993,F,55.4,120,125,126,126,67.5,72.5,74,74,140,150,155.5,155.5,355.5,Raw,57,SBD,
2,Gabrielle Franklin,Juniors,1996,F,57,110,117.5,-122.5,117.5,65,70,72.5,72.5,130,140,147.5,147.5,337.5,Raw,57,SBD,
3,Nathalie Moen Balhald,Juniors,1993,F,55.5,-125.5,125.5,-128,125.5,50,-52.5,,50,140,147.5,156,156,331.5,Raw,57,SBD,
4,Megan Bateman,Juniors,1993,F,56.55,90,95,100,100,67.5,73.5,74.5,74.5,132.5,137.5,-150,137.5,312,Raw,57,SBD,
5,Zoe Thomas,Juniors,1994,F,56.9,100,105,107.5,107.5,62.5,65,-67.5,65,117.5,125,-132.5,125,297.5,Raw,57,SBD,
6,Rachel Jones,Juniors,1995,F,54.4,97.5,105,-110,105,52.5,55,-57.5,55,110,120,-125,120,280,Raw,57,SBD,
7,Brooke DeBritt,Juniors,1992,F,55.05,97.5,-102.5,-102.5,97.5,62.5,65,-67.5,65,117.5,-122.5,-122.5,117.5,280,Raw,57,SBD,
1,Ariel Symon,Juniors,1992,F,60.3,122.5,130,135,135,77.5,82.5,-85.5,82.5,135,142.5,-147.5,142.5,360,Raw,63,SBD,
2,Billie Asprey,Juniors,1993,F,62.2,110,117.5,122.5,122.5,65,70,,70,140,155,-162.5,155,347.5,Raw,63,SBD,
3,Kerri-Anne Cauchi,Juniors,1996,F,62.7,107.5,115,-120,115,52.5,57.5,-60,57.5,140,150,155,155,327.5,Raw,63,SBD,
4,Tamara Navarro,Juniors,1992,F,61.4,115,120,125,125,60,62.5,65,65,135,-145,-145,135,325,Raw,63,SBD,
5,Megan Chadwick,Juniors,1992,F,62.65,102.5,112.5,115,115,57.5,60,62.5,62.5,135,145,-150,145,322.5,Raw,63,SBD,
6,Caisha Tanis,Juniors,1993,F,62.75,92.5,-100,100,100,42.5,47.5,50,50,97.5,105,110,110,260,Raw,63,SBD,
7,Alecxie Osorio,Juniors,1992,F,62.1,85,90,-95,90,-40,42.5,45,45,110,120,-125,120,255,Raw,63,SBD,
8,Hong Vu,Juniors,1992,F,62.15,90,95,97.5,97.5,45,47.5,-50,47.5,95,100,105,105,250,Raw,63,SBD,
1,Charlene Lee,Juniors,1992,F,71.35,148,-161.5,-161.5,148,62.5,65,-67.5,65,137.5,147.5,152.5,152.5,365.5,Raw,72,SBD,
2,Juliana Mazzeo,Juniors,1993,F,67.5,112.5,-117.5,117.5,117.5,52.5,57.5,62.5,62.5,122.5,127.5,132.5,132.5,312.5,Raw,72,SBD,
3,Kara Schenk,Juniors,1994,F,70.35,102.5,107.5,112.5,112.5,-55,55,-60,55,135,-145,-145,135,302.5,Raw,72,SBD,
4,Michelle Borg,Juniors,1994,F,71.9,102.5,107.5,115,115,50,-55,-55,50,125,-132.5,132.5,132.5,297.5,Raw,72,SBD,
5,Nadine Tey,Juniors,1992,F,70.4,92.5,97.5,-100,97.5,47.5,-52.5,-52.5,47.5,102.5,107.5,-112.5,107.5,252.5,Raw,72,SBD,
1,Sarah Rainbow,Juniors,1995,F,77.05,122.5,130,135,135,90,93,97,97,155,162.5,170,170,402,Raw,84,SBD,
2,Letesha Dean,Juniors,1993,F,79.05,107.5,117.5,-122.5,117.5,70,-80,-80,70,160,-175,-175,160,347.5,Raw,84,SBD,
1,Madelyn Harp,Juniors,1993,F,90.4,142.5,150,155,155,80,85,-87.5,85,145,162.5,-167.5,162.5,402.5,Raw,84+,SBD,
2,Tiarne Augustine,Juniors,1994,F,123.75,-157.5,157.5,-170.5,157.5,100,-105.5,-105.5,100,130,-137.5,137.5,137.5,395,Raw,84+,SBD,
3,Mirelle Khoury Geagea,Juniors,1993,F,115.05,120,-127.5,127.5,127.5,67.5,72.5,-75,72.5,157.5,165,-172.5,165,365,Raw,84+,SBD,
4,Ellie Nilsson,Juniors,1995,F,97.3,100,115,122.5,122.5,-50,50,57.5,57.5,140,155,-160,155,335,Raw,84+,SBD,
5,Josephine Bova,Juniors,1993,F,99.1,100,110,115,115,55,60,-65,60,110,117.5,122.5,122.5,297.5,Raw,84+,SBD,
1,Nicholas Viet,Juniors,1995,M,52.95,136,142.5,-147,142.5,82.5,,,82.5,60,,,60,285,Raw,53,SBD,
1,Kris Konski,Juniors,1995,M,58.1,120,127.5,-130,127.5,70,75,-77.5,75,135,-142.5,142.5,142.5,345,Raw,59,SBD,
1,John Paul Cauchi,Juniors,1992,M,66,195,210,-222.5,210,105,110,-112.5,110,255,275,-282.5,275,595,Raw,66,SBD,
2,Samuel Kane,Juniors,1994,M,65.45,-190,-190,190,190,105,110,115,115,185,195,-210,195,500,Raw,66,SBD,
3,James Kristanto,Juniors,1995,M,65.85,157.5,167.5,170,170,97.5,102.5,-105,102.5,180,195,-202.5,195,467.5,Raw,66,SBD,
4,Lyndon Le,Juniors,1996,M,65.9,150,160,-167.5,160,97.5,100,-102.5,100,180,192.5,207.5,207.5,467.5,Raw,66,SBD,
5,Vincent Punteri,Juniors,1995,M,65.9,150,160,-170,160,92.5,100,105,105,185,-200,-200,185,450,Raw,66,SBD,
6,Nathan French,Juniors,1994,M,64.4,120,-125,-125,120,85,92.5,-97.5,92.5,155,165,170,170,382.5,Raw,66,SBD,
1,James Le,Juniors,1993,M,73.4,200,210,215,215,137.5,-142.5,142.5,142.5,240,257.5,262.5,262.5,620,Raw,74,SBD,
2,Anthony Luca,Juniors,1994,M,71.95,205,215,222.5,222.5,112.5,-120,-120,112.5,235,250,262.5,262.5,597.5,Raw,74,SBD,
3,Derek Viet,Juniors,1992,M,72.15,210,222.5,-231,222.5,-145,-145,145,145,-230,230,-242.5,230,597.5,Raw,74,SBD,
4,Alex Hayes,Juniors,1992,M,73.9,200,-212.5,-212.5,200,112.5,117.5,-122.5,117.5,227.5,242.5,250,250,567.5,Raw,74,SBD,
5,Tim Karagiannis,Juniors,1993,M,73.75,190,200,205,205,100,105,-110,105,220,235,-240,235,545,Raw,74,SBD,
6,Corey Hogan,Juniors,1994,M,73.05,190,202.5,210,210,100,-105,-105,100,205,217.5,225,225,535,Raw,74,SBD,
7,Kiu-Wan Law,Juniors,1992,M,73.9,150,-165,165,165,130,135,-140,135,-200,200,217.5,217.5,517.5,Raw,74,SBD,
8,Andrew Christou,Juniors,1994,M,73.15,157.5,167.5,-172.5,167.5,120,127.5,-132.5,127.5,-192.5,197.5,215,215,510,Raw,74,SBD,
9,Hugh Nguyen,Juniors,1996,M,71.15,142.5,150,155,155,120,122.5,-125,122.5,180,192.5,-202.5,192.5,470,Raw,74,SBD,
10,Benjamin Said,Juniors,1994,M,72.75,135,150,162.5,162.5,82.5,87.5,92.5,92.5,-180,-190,200,200,455,Raw,74,SBD,
11,Anthony Zeccola,Juniors,1993,M,71.9,135,145,-150,145,87.5,92.5,-95,92.5,180,192.5,-200,192.5,430,Raw,74,SBD,
12,Wing Ho,Juniors,1993,M,71.8,140,-147.5,-147.5,140,60,-72.5,72.5,72.5,140,155,165,165,377.5,Raw,74,SBD,
1,Bryce Blom,Juniors,1994,M,82.25,235,250,255,255,147.5,-155,-155,147.5,250,260,270,270,672.5,Raw,83,SBD,
2,Nathan Tanis,Juniors,1994,M,78.25,225,240,250,250,140,150,-155,150,235,252.5,-262.5,252.5,652.5,Raw,83,SBD,
3,Douglas Gough,Juniors,1992,M,82.6,215,-230,-230,215,135,-142.5,142.5,142.5,-240,252.5,260,260,617.5,Raw,83,SBD,
4,Will Berkman,Juniors,1992,M,82.1,207.5,220,227.5,227.5,107.5,112.5,117.5,117.5,255,267.5,-280,267.5,612.5,Raw,83,SBD,
5,Francis Ferriols,Juniors,1994,M,82.55,190,205,-215,205,132.5,140,-145,140,250,265,-280,265,610,Raw,83,SBD,
6,Chad Odsey,Juniors,1994,M,82.7,195,-210,210,210,-155,155,-163,155,215,235,-237.5,235,600,Raw,83,SBD,
7,Andrew Tang,Juniors,1993,M,82.95,185,197.5,207.5,207.5,122.5,127.5,130,130,-240,240,-262.5,240,577.5,Raw,83,SBD,
8,Jason Pan,Juniors,1992,M,80.95,187.5,197.5,205,205,-117.5,122.5,125,125,200,207.5,215,215,545,Raw,83,SBD,
9,Dominic Zinghini,Juniors,1992,M,82.7,187.5,-197.5,-197.5,187.5,117.5,122.5,-127.5,122.5,-225,225,235,235,545,Raw,83,SBD,
10,Nathan Lee,Juniors,1992,M,82.7,180,-192.5,-192.5,180,117.5,120,-122.5,120,225,-237.5,242.5,242.5,542.5,Raw,83,SBD,
11,Bill Tachtsis,Juniors,1993,M,82.2,195,205,-215,205,107.5,112.5,115,115,200,212.5,220,220,540,Raw,83,SBD,
12,Sergio Monteiro,Juniors,1994,M,81.25,165,175,-182.5,175,105,112.5,-117.5,112.5,210,225,235,235,522.5,Raw,83,SBD,
13,Jeffrey Zhao,Juniors,1996,M,82.6,170,177.5,182.5,182.5,95,-100,-100,95,215,225,230,230,507.5,Raw,83,SBD,
14,Sharif Long,Juniors,1993,M,81.6,160,175,-185,175,105,110,-120,110,205,220,-230,220,505,Raw,83,SBD,
15,Benjamin Marriott,Juniors,1994,M,81.25,170,177.5,182.5,182.5,-95,100,-110,100,197.5,-205,205,205,487.5,Raw,83,SBD,
16,Sean Koh,Juniors,1992,M,79.6,140,145,150,150,95,102.5,,102.5,185,195,202.5,202.5,455,Raw,83,SBD,
DQ,Kevin Bui,Juniors,1995,M,81.25,200,210,220,220,130,137.5,-145,137.5,-280,-280,-290,,,Raw,83,SBD,
DQ,Zalen Velu,Juniors,1993,M,82.65,175,-182.5,-185,175,-135,-135,-135,,-210,210,-230,210,,Raw,83,SBD,
1,Arief Hunter,Juniors,1993,M,90.6,235,245,-255,245,152.5,157.5,162.5,162.5,265,280,-290.5,280,687.5,Raw,93,SBD,
2,Hung Phan,Juniors,1992,M,91.9,210,227.5,-235,227.5,140,147.5,152.5,152.5,240,257.5,267.5,267.5,647.5,Raw,93,SBD,
3,Lachlan Rickards,Juniors,1992,M,92.3,225,240,247.5,247.5,135,-145,-145,135,237.5,255,-265,255,637.5,Raw,93,SBD,
4,Janusz Kania,Juniors,1994,M,90.9,205,215,-222.5,215,132.5,137.5,142.5,142.5,245,257.5,,257.5,615,Raw,93,SBD,
5,Alan Tu Minh,Juniors,,M,90.4,222.5,235,-242.5,235,130,137.5,-142.5,137.5,225,240,-250,240,612.5,Raw,93,SBD,
6,Joshua Watson,Juniors,1993,M,91.85,185,-195,195,195,122.5,130,-132.5,130,255,265,-275,265,590,Raw,93,SBD,
7,Tim Davies,Juniors,1992,M,91.45,205,212.5,217.5,217.5,112.5,117.5,120,120,240,-252.5,-252.5,240,577.5,Raw,93,SBD,
8,Lincoln Smith,Juniors,1994,M,90.45,195,205,-215,205,117.5,-125,-125,117.5,215,230,242.5,242.5,565,Raw,93,SBD,
9,Sam Kehayias,Juniors,1992,M,92.25,190,202.5,-207.5,202.5,122.5,130,-135,130,215,227.5,232.5,232.5,565,Raw,93,SBD,
10,Sheldon Lobo,Juniors,1993,M,92.5,172.5,180,187.5,187.5,125,-130,-130,125,215,225,232.5,232.5,545,Raw,93,SBD,
DQ,Theodore Mouratidis,Juniors,1993,M,91.8,-215,-215,-215,,135,137.5,-140,137.5,270,292.5,-300,292.5,,Raw,93,SBD,
DQ,Benjamin Rushton,Juniors,1994,M,90.5,195,-210,-210,195,-130,-130,-130,,250,-265,,250,,Raw,93,SBD,
1,Jory Ladewig,Juniors,1996,M,100.4,232.5,245,256,256,137.5,145,150,150,265,300,-305,300,706,Raw,105,SBD,
2,Sam Rollison,Juniors,1992,M,100.15,225,235,-245,235,155,165,172.5,172.5,260,275,285,285,692.5,Raw,105,SBD,SA
3,Rex Parsons,Juniors,1994,M,103.75,225,232.5,-237.5,232.5,165,172.5,-180.5,172.5,240,255,267.5,267.5,672.5,Raw,105,SBD,
4,Kenny Lay,Juniors,1992,M,101.6,210,222.5,232.5,232.5,140,147.5,-152.5,147.5,275,-291.5,-313,275,655,Raw,105,SBD,
5,Tareq Ahmed,Juniors,1992,M,104.8,210,222.5,232.5,232.5,155,162.5,167.5,167.5,220,235,245,245,645,Raw,105,SBD,
6,Thanh Nguyen,Juniors,1994,M,102.95,215,227.5,-235,227.5,112.5,120,-122.5,120,250,265,-275,265,612.5,Raw,105,SBD,
7,Keiren Rodwell,Juniors,1996,M,100.6,215,230,-240,230,130,-140,140,140,225,-237.5,-240,225,595,Raw,105,SBD,
8,Stephen Smith,Juniors,1993,M,103.85,210,212.5,220,220,135,142.5,-147.5,142.5,195,210,-225,210,572.5,Raw,105,SBD,
9,Dylan Cook,Juniors,1992,M,102.15,-190,190,200,200,105,115,-117.5,115,230,250,,250,565,Raw,105,SBD,
10,Michael Cowan,Juniors,1993,M,104.85,185,195,205,205,110,117.5,125,125,190,210,-225,210,540,Raw,105,SBD,
11,Chris Kang,Juniors,1993,M,93.45,170,180,190,190,115,120,125,125,205,220,-235,220,535,Raw,105,SBD,
1,Ben Richards,Juniors,1994,M,117.25,-207.5,215,-230,215,125,132.5,-137.5,132.5,270,305,-340.5,305,652.5,Raw,120,SBD,
2,Paul Vrazas,Juniors,1994,M,118.65,120,150,180,180,100,107.5,115,115,195,210,-225,210,505,Raw,120,SBD,
1,Christopher Aggett,Juniors,1994,M,136.4,212.5,222.5,230,230,157.5,165,170,170,280,292.5,300,300,700,Raw,120+,SBD,
2,Joshua Patacca,Juniors,1996,M,141.25,220,222.5,250,250,145,152.5,160,160,250,260,-270,260,670,Raw,120+,SBD,
3,Alexander Meman,Juniors,1994,M,137.4,195,205,220,220,130,140,-150,140,240,250,-260,250,610,Raw,120+,SBD,
DQ,Andrew Loulanting,Juniors,1993,M,104.4,,,,,125,130,135,135,,,,,,Raw,105,B,
DQ,Elizabeth Craven,Masters 1,1975,F,51.6,127.5,135,142.5,142.5,75,80.5,-82.5,80.5,-152.5,-157.5,-157.5,,,Raw,52,SBD,
1,Mary Giffin,Masters 1,1972,F,62.8,142.5,-147.5,-147.5,142.5,77.5,83.5,-85,83.5,150,160,-162.5,160,386,Raw,63,SBD,
2,Zoe Deeks,Masters 1,1975,F,61.7,110,117.5,125,125,70,77.5,-80,77.5,120,132.5,140,140,342.5,Raw,63,SBD,
3,Steph Radovanovic,Masters 1,1970,F,61.5,105,110,-115,110,62.5,-67.5,-67.5,62.5,135,142.5,-147.5,142.5,315,Raw,63,SBD,
4,Rikki Flanders,Masters 1,1970,F,60.9,105,110,115,115,55,60,-65,60,125,135,-142.5,135,310,Raw,63,SBD,
1,Michelle Rodgers,Masters 1,1969,F,70.45,110,115,-120,115,52.5,-55,-55,52.5,130,135,140,140,307.5,Raw,72,SBD,
1,Wendy Whittaker,Masters 1,1975,F,79.35,130,132.5,140,140,72.5,75,77.5,77.5,150,165,-172.5,165,382.5,Raw,84,SBD,
2,Julie Henderson,Masters 1,1966,F,77.3,100,107.5,115,115,-67.5,67.5,70,70,125,135,140,140,325,Raw,84,SBD,
3,Libby Fava,Masters 1,1974,F,82.15,105,115,120,120,50,-57.5,-57.5,50,115,130,-132.5,130,300,Raw,84,SBD,
4,Christina Chamley,Masters 1,1969,F,82.45,90,95,100,100,67.5,72.5,-78,72.5,107.5,117.5,122.5,122.5,295,Raw,84,SBD,
5,Allison Robinson,Masters 1,1971,F,82.05,-85,85,95,95,40,45,-50,45,125,135,-140,135,275,Raw,84,SBD,
1,Lisa Veitch,Masters 1,1970,F,146.9,-130,135,-145,135,70,77.5,-82.5,77.5,162.5,170,177.5,177.5,390,Raw,84+,SBD,
2,Dianne Baxter,Masters 1,1973,F,95.95,140,147.5,155,155,65,70,-75,70,140,150,162.5,162.5,387.5,Raw,84+,SBD,
3,Katrina Evans,Masters 1,1973,F,102.15,142.5,145,-150,145,82.5,-85,-85,82.5,142.5,147.5,-152.5,147.5,375,Raw,84+,SBD,
4,Stephanie Horlyck,Masters 1,1966,F,90,-125,125,,125,65,75,-80,75,110,125,140,140,340,Raw,84+,SBD,
1,Gerard Belshaw,Masters 1,1974,M,92.75,195,202.5,210,210,125,130,-132.5,130,225,-235,235,235,575,Raw,93,SBD,
2,Brendan Paramore,Masters 1,1971,M,92.6,165,177.5,-185,177.5,97.5,-105,,97.5,215,230,-240,230,505,Raw,93,SBD,
1,Dave Keong,Masters 1,1973,M,103.05,210,220,227.5,227.5,157.5,162.5,165,165,250,260,-265,260,652.5,Raw,105,SBD,
1,Graham McDonald,Masters 1,1975,M,112.95,250,260,270,270,155,162.5,167.5,167.5,275,280,,280,717.5,Raw,120,SBD,
1,Mary Macken,Masters 2,1961,F,46.6,97.5,102.5,-107.5,102.5,45,-50,50,50,110,117.5,-122.5,117.5,270,Raw,47,SBD,
1,Clair Angel,Masters 2,1963,F,56.65,90,95,97.5,97.5,42.5,45,47.5,47.5,112.5,117.5,125,125,270,Raw,57,SBD,
1,Vicki O'Brien,Masters 2,1962,F,61.8,105,-112.5,112.5,112.5,75,77.5,80,80,155,162.5,168,168,360.5,Raw,63,SBD,
2,Glenda Presutti,Masters 2,1956,F,61.7,100,110,115,115,55,60,-62.5,60,130,140,145,145,320,Raw,63,SBD,
1,Susan Maguire,Masters 2,1962,F,71.2,-100,100,-105,100,60,-65,-65,60,110,120,-130,120,280,Raw,72,SBD,
1,Lynda Whitehead,Masters 2,1965,F,76.2,120,127.5,-130,127.5,65,70,73.5,73.5,137.5,150,157.5,157.5,358.5,Raw,84,SBD,
2,Dianna Luhowsky,Masters 2,1961,F,75.15,75,80,82.5,82.5,35,37.5,-40,37.5,107.5,115,120,120,240,Raw,84,SBD,
3,Heather Hope,Masters 2,1964,F,83.55,70,-75,-75,70,37.5,-40,40,40,100,110,120,120,230,Raw,84,SBD,
1,Vincent Patty,Masters 2,1964,M,73.35,-140,-140,150,150,-145,145,151.5,151.5,170,182.5,187.5,187.5,489,Raw,74,SBD,
2,Phil Menzie,Masters 1,1968,M,72.25,142.5,-150,152.5,152.5,102.5,110,115,115,170,190,200,200,467.5,Raw,74,SBD,
1,David Cheung,Masters 2,1965,M,82.75,185,193,200,200,95,105,-117.5,105,212.5,220,228,228,533,Raw,83,SBD,
2,Paul Cook,Masters 2,1959,M,81.55,180,195,200,200,92.5,97.5,-100,97.5,205,215,220,220,517.5,Raw,83,SBD,
DQ,Romano Gaspardis,Masters 2,1959,M,81.25,-145,-145,-145,,80,85,87.5,87.5,180,190,-200,190,,Raw,83,SBD,
1,Jonathan Seymour,Masters 2,1964,M,99.55,-227.5,-227.5,227.5,227.5,140,150,155,155,225,235,-247.5,235,617.5,Raw,105,SBD,
1,Kelvin Aitken,Masters 2,1957,M,115.7,195,210,-220,210,145,-150,,145,260,280,-300,280,635,Raw,120,SBD,
2,Guy Le Page,Masters 2,1965,M,111.35,175,-180,-180,175,157.5,-162.5,-162.5,157.5,190,200,210,210,542.5,Raw,120,SBD,
1,Stuart Gyngell,Masters 2,1963,M,145.7,240,-250,255,255,160,-170,-170,160,240,250,-266,250,665,Raw,120+,SBD,
2,Brett Kirchner,Masters 2,1963,M,124.55,185,-210,-220,185,147.5,155,160,160,200,220,,220,565,Raw,120+,SBD,
1,Teresa Millynn,Masters 3,1954,F,79,75,80,82.5,82.5,45,50.5,-52.5,50.5,102.5,107.5,112.5,112.5,245.5,Raw,84,SBD,
1,John Cappola,Masters 3,1950,M,73.45,140,150,-157.5,150,80,85,-90,85,190,210,221,221,456,Raw,74,SBD,
2,Geoffrey Lewis,Masters 3,1948,M,72.95,-100,100,-105,100,80,82.5,-85,82.5,145,152.5,157.5,157.5,340,Raw,74,SBD,
1,Bruce Batterham,Masters 3,1952,M,78.05,122.5,125,135,135,82.5,87.5,-92.5,87.5,145,-160,-170,145,367.5,Raw,83,SBD,
1,Brian Hutton,Masters 3,1953,M,102.95,200,-210,-210,200,107.5,112.5,115,115,200,220.5,230,230,545,Raw,105,SBD,
2,Ted Rutledge,Masters 3,1949,M,103.25,-175,175,-180,175,102.5,107.5,-112.5,107.5,175,185,,185,467.5,Raw,105,SBD,
1,Laurence Scott,Masters 3,1955,M,118.2,205,215,-217.5,215,115,120,,120,245,255,-260,255,590,Raw,120,SBD,
1,Jessica Gray,Open,1985,F,66.55,,,,,75,-77.5,77.5,77.5,,,,,77.5,Raw,72,B,
1,Jaimie Clarke,Open,1982,M,58.05,,,,,100,-102.5,102.5,102.5,,,,,102.5,Raw,59,B,
1,Paul Tesoriero,Open,1987,M,73.05,,,,,137.5,-140,-145,137.5,,,,,137.5,Raw,74,B,
1,Rod Watson,Open,1981,M,94.35,,,,,135,142.5,-145,142.5,,,,,142.5,Raw,105,B,
