Division,WeightClassKg,Place,Name,Team,BodyweightKg,Best3SquatKg,Best3BenchKg,Best3DeadliftKg,TotalKg,Equipment,Event,Sex
Girls,44.23,1,Debbie Rodriguez,Mission,44,45.36,22.68,65.77,133.81,Single-ply,SBD,F
Girls,44.23,DQ,Marissa Rubio,Mission Sharyland,40.91,54.43,,,,Single-ply,SBD,F
Girls,47.85,1,Briseidi Cantu,Rio Grande City,47.22,111.13,54.43,124.74,290.3,Single-ply,SBD,F
Girls,47.85,2,Laisha Lopez,La Joya Palmview,47.49,106.59,43.09,90.72,240.4,Single-ply,SBD,F
Girls,47.85,3,Karla Lopez,Sharyland Pioneer,44.63,88.45,38.56,97.52,224.53,Single-ply,SBD,F
Girls,47.85,4,Gisela Velasquez,Weslaco,46.67,81.65,43.09,99.79,224.53,Single-ply,SBD,F
Girls,47.85,5,Brittney Salcido,PSJA Memorial,47.72,88.45,45.36,86.18,219.99,Single-ply,SBD,F
Girls,47.85,6,Yanitza Vasquez,La Joya Juarez-Lincoln,46.67,83.91,36.29,92.99,213.19,Single-ply,SBD,F
Girls,47.85,7,Aracely Juarez,Hidalgo Early College,45.22,81.65,38.56,90.72,210.92,Single-ply,SBD,F
Girls,47.85,8,Diamond Teran,Hidalgo Early College,46.27,88.45,34.02,86.18,208.65,Single-ply,SBD,F
Girls,47.85,9,Damaris Arauza,Hidalgo Early College,45.95,72.57,34.02,79.38,185.97,Single-ply,SBD,F
Girls,47.85,10,Annette Garcia,Sharyland Pioneer,47.45,74.84,29.48,77.11,181.44,Single-ply,SBD,F
Girls,51.94,1,Brissa Ramirez,Mission Sharyland,50.26,120.2,61.23,136.08,317.51,Single-ply,SBD,F
Girls,51.94,2,Amanda Rodriguez,Mission Sharyland,51.07,122.47,61.23,131.54,315.25,Single-ply,SBD,F
Girls,51.94,3,Michelle Duggan,La Joya Palmview,50.8,108.86,45.36,106.59,260.82,Single-ply,SBD,F
Girls,51.94,4,Nicole Ibarra,Mission Sharyland,51.94,88.45,56.7,90.72,235.87,Single-ply,SBD,F
Girls,51.94,5,Kasandra Rodriguez,PSJA Memorial,51.44,74.84,27.22,90.72,192.78,Single-ply,SBD,F
Girls,51.94,6,Salma T,Mission Veterans Memorial,50.08,68.04,29.48,74.84,172.37,Single-ply,SBD,F
Girls,51.94,DQ,Kendra Trevino,Rio Grande City,48.04,92.99,,,,Single-ply,SBD,F
Girls,56.02,1,Martha Salaya,Weslaco,54.02,156.49,65.77,156.49,378.75,Single-ply,SBD,F
Girls,56.02,2,Stephanie Gonzalez,Hidalgo Early College,52.21,136.08,65.77,120.2,322.05,Single-ply,SBD,F
Girls,56.02,3,Victoria Salinas,Rio Grande City,53.52,113.4,52.16,108.86,274.42,Single-ply,SBD,F
Girls,56.02,4,Odalys Alvarado,PSJA,53.98,102.06,54.43,108.86,265.35,Single-ply,SBD,F
Girls,56.02,5,Stacy Ozuna,La Joya Palmview,52.84,102.06,49.9,108.86,260.82,Single-ply,SBD,F
Girls,56.02,6,Judy Villarreal,Mission Veterans Memorial,54.43,92.99,38.56,102.06,233.6,Single-ply,SBD,F
Girls,56.02,7,Alissa Reyna,La Joya,54.3,102.06,40.82,86.18,229.06,Single-ply,SBD,F
Girls,56.02,8,Brianna Sanchez,PSJA Memorial,55.93,81.65,43.09,92.99,217.72,Single-ply,SBD,F
Girls,56.02,9,Genesis Reyes,PSJA,55.43,86.18,38.56,86.18,210.92,Single-ply,SBD,F
Girls,56.02,10,Mercedes Hernandez,PSJA Memorial,56.02,56.7,36.29,72.57,165.56,Single-ply,SBD,F
Girls,56.02,DQ,Jessica Luna,Mission,55.93,,,,,Single-ply,SBD,F
Girls,60.1,1,Katie Gonzalez,Sharyland Pioneer,57.47,122.47,65.77,133.81,322.05,Single-ply,SBD,F
Girls,60.1,2,Jiulda Villalobos,Hidalgo Early College,58.38,133.81,68.04,115.67,317.51,Single-ply,SBD,F
Girls,60.1,3,Veida Gonzalez,La Joya,58.38,102.06,40.82,108.86,251.74,Single-ply,SBD,F
Girls,60.1,4,Susan Jaramillo,PSJA Memorial,57.65,95.25,43.09,108.86,247.21,Single-ply,SBD,F
Girls,60.1,5,Erica Trevino,Mission Veterans Memorial,59.1,95.25,45.36,92.99,233.6,Single-ply,SBD,F
Girls,60.1,DQ,Pina Ovalle,PSJA,59.83,,,,,Single-ply,SBD,F
Girls,60.1,DQ,Xi Ilali Cordova,La Joya Juarez-Lincoln,59.96,83.91,,,,Single-ply,SBD,F
Girls,67.36,1,Felissa Ponce de Leon,La Joya Palmview,66.54,161.03,65.77,156.49,383.29,Single-ply,SBD,F
Girls,67.36,2,Darlene Gonzalez,La Joya Palmview,66.22,161.03,61.23,133.81,356.07,Single-ply,SBD,F
Girls,67.36,3,Alexis Tamez,Weslaco,66.22,142.88,56.7,136.08,335.66,Single-ply,SBD,F
Girls,67.36,4,Christina Ybarra,Sharyland Pioneer,66.68,129.27,56.7,127.01,312.98,Single-ply,SBD,F
Girls,67.36,5,Frida Olarte,Hidalgo Early College,66.77,124.74,63.5,120.2,308.44,Single-ply,SBD,F
Girls,67.36,6,Jenneth Perez,Weslaco,63.87,124.74,49.9,129.27,303.91,Single-ply,SBD,F
Girls,67.36,7,Jessica Mendez,Mission Sharyland,66.63,124.74,61.23,117.93,303.91,Single-ply,SBD,F
Girls,67.36,8,Ashley Mireles,La Joya,65.73,104.33,54.43,122.47,281.23,Single-ply,SBD,F
Girls,67.36,9,Victoria Torres,Sharyland Pioneer,61.05,124.74,52.16,102.06,278.96,Single-ply,SBD,F
Girls,67.36,10,Jackie Lucio,Weslaco,62.78,108.86,52.16,117.93,278.96,Single-ply,SBD,F
Girls,67.36,11,Mireya Martinez,PSJA Memorial,60.87,102.06,52.16,108.86,263.08,Single-ply,SBD,F
Girls,67.36,12,Carla De Leon,PSJA Memorial,61.64,104.33,43.09,113.4,260.82,Single-ply,SBD,F
Girls,67.36,13,Gabby Mercado,Mission Sharyland,63.73,104.33,43.09,97.52,244.94,Single-ply,SBD,F
Girls,67.36,14,Jacky Sanchez,Rio Grande City,63.09,72.57,34.02,99.79,206.38,Single-ply,SBD,F
Girls,67.36,15,Vanessa DeLeon,La Joya Juarez-Lincoln,63.55,81.65,36.29,88.45,206.38,Single-ply,SBD,F
Girls,67.36,DQ,Valeria Banda,La Joya Juarez-Lincoln,63.41,145.15,,,,Single-ply,SBD,F
Girls,75.07,1,Valerie Silva,Weslaco,74.75,147.42,83.91,142.88,374.21,Single-ply,SBD,F
Girls,75.07,2,Odalys de la O,La Joya Palmview,73.03,147.42,63.5,133.81,344.73,Single-ply,SBD,F
Girls,75.07,3,Vanessa Puente,La Joya Palmview,74.21,161.03,56.7,124.74,342.46,Single-ply,SBD,F
Girls,75.07,4,Laura Ortiz,Hidalgo Early College,73.16,138.35,65.77,133.81,337.93,Single-ply,SBD,F
Girls,75.07,5,Alex Bazan #1,La Joya Palmview,73.84,133.81,56.7,140.61,331.12,Single-ply,SBD,F
Girls,75.07,6,Lucero Regino,Weslaco,73.07,131.54,68.04,113.4,312.98,Single-ply,SBD,F
Girls,75.07,7,Victoria Trevino,PSJA Memorial,71.89,117.93,54.43,115.67,288.03,Single-ply,SBD,F
Girls,75.07,8,Karla Hernandez,Rio Grande City,69.72,102.06,38.56,120.2,260.82,Single-ply,SBD,F
Girls,75.07,9,Carolina Constantino,Sharyland Pioneer,69.85,104.33,52.16,104.33,260.82,Single-ply,SBD,F
Girls,75.07,10,Nehemiah Coronado,La Joya,71.71,99.79,38.56,115.67,254.01,Single-ply,SBD,F
Girls,75.07,11,Ashley Pena,PSJA Memorial,70.94,97.52,40.82,106.59,244.94,Single-ply,SBD,F
Girls,75.07,12,Vanessa Cabrera,Mission Veterans Memorial,71.44,92.99,47.63,102.06,242.67,Single-ply,SBD,F
Girls,75.07,13,Paola Ibarra,Rio Grande City Grulla,74.71,99.79,40.82,99.79,240.4,Single-ply,SBD,F
Girls,75.07,14,Amy Cano,Rio Grande City Grulla,68.54,54.43,43.09,79.38,176.9,Single-ply,SBD,F
Girls,82.33,1,Avery Coronado,Sharyland Pioneer,80.78,142.88,70.31,117.93,331.12,Single-ply,SBD,F
Girls,82.33,2,Crystal Hernandez,La Joya Juarez-Lincoln,77.66,124.74,52.16,127.01,303.91,Single-ply,SBD,F
Girls,82.33,3,Natalie Monjaraz,Weslaco,80.69,120.2,61.23,120.2,301.64,Single-ply,SBD,F
Girls,82.33,4,Gladys Trevino,La Joya Palmview,80.78,120.2,47.63,111.13,278.96,Single-ply,SBD,F
Girls,82.33,5,Angela Rendon,Hidalgo Early College,76.07,111.13,47.63,113.4,272.16,Single-ply,SBD,F
Girls,82.33,6,Nadia Cuellar,Hidalgo Early College,81.33,117.93,47.63,102.06,267.62,Single-ply,SBD,F
Girls,82.33,7,Delian Canales,Rio Grande City,76.2,99.79,49.9,104.33,254.01,Single-ply,SBD,F
Girls,82.33,8,Fabiola Mendez,PSJA,75.43,97.52,43.09,81.65,222.26,Single-ply,SBD,F
Girls,82.33,9,Gabby Aguilera,La Joya,77.52,79.38,40.82,99.79,219.99,Single-ply,SBD,F
Girls,82.33,10,Monica Davila,La Joya Juarez-Lincoln,79.88,63.5,36.29,63.5,163.29,Single-ply,SBD,F
Girls,82.33,DQ,Katrina Mendez,Mission Sharyland,80.65,120.2,,,,Single-ply,SBD,F
Girls,90.04,1,Mariela Sepulveda,La Joya Palmview,83.01,183.7,74.84,158.76,417.3,Single-ply,SBD,F
Girls,90.04,2,Lupita Hernandez,Weslaco,87.36,149.69,68.04,127.01,344.73,Single-ply,SBD,F
Girls,90.04,3,Victoria Tirado,Weslaco,83.96,136.08,54.43,127.01,317.51,Single-ply,SBD,F
Girls,90.04,4,Jessy Pineda,Sharyland Pioneer,84.05,131.54,56.7,115.67,303.91,Single-ply,SBD,F
Girls,90.04,5,Alyssa Garza,Mission,83.46,136.08,45.36,120.2,301.64,Single-ply,SBD,F
Girls,100.02,1,Jesenia Gaytan,La Joya Juarez-Lincoln,91.85,154.22,68.04,88.45,310.71,Single-ply,SBD,F
Girls,100.02,2,Luz Oviedo,PSJA Memorial,97.75,111.13,56.7,122.47,290.3,Single-ply,SBD,F
Girls,100.02,3,Brianna Campos,La Joya Juarez-Lincoln,96.62,70.31,52.16,154.22,276.69,Single-ply,SBD,F
Girls,100.02+,1,Alexis Delgado,Weslaco,104.69,183.7,99.79,163.29,446.79,Single-ply,SBD,F
Girls,100.02+,2,Ashley Tapia,PSJA,101.83,172.37,86.18,158.76,417.3,Single-ply,SBD,F
Girls,100.02+,3,Gaby Portillo,Rio Grande City,117.98,149.69,68.04,127.01,344.73,Single-ply,SBD,F
Girls,100.02+,4,Emma Leyva,PSJA,104.42,147.42,47.63,102.06,297.1,Single-ply,SBD,F
Girls,100.02+,5,Sarah Odale,Sharyland Pioneer,138.12,102.06,68.04,113.4,283.5,Single-ply,SBD,F
Girls,100.02+,6,Analissa Alvarez,Mission,105.51,115.67,40.82,115.67,272.16,Single-ply,SBD,F
