Division,WeightClassKg,Place,Name,Team,BodyweightKg,Best3SquatKg,Best3BenchKg,Best3DeadliftKg,TotalKg,Equipment,Event,Sex
Boys,55.79,1,Jacob Hutchins,Graham,51.8,124.74,56.7,122.47,303.91,Single-ply,SBD,M
Boys,51.71,2,Jeremia Hogan,Lindsay,47.36,97.52,52.16,104.33,254.01,Single-ply,SBD,M
Boys,51.71,3,Dallas Elmore,Graham,49.26,95.25,56.7,102.06,254.01,Single-ply,SBD,M
Boys,51.71,4,Jacob Wooten,Wichita Falls Rider,50.44,77.11,49.9,113.4,240.4,Single-ply,SBD,M
Boys,51.71,5,John Furhman,Lindsay,44.18,70.31,36.29,90.72,197.31,Single-ply,SBD,M
Boys,51.71,6,Sean Stoffels,Lindsay,40.19,63.5,36.29,68.04,167.83,Single-ply,SBD,M
Boys,59.87,1,Kamary Wiley,Wichita Falls City View,55.97,147.42,79.38,183.7,410.5,Single-ply,SBD,M
Boys,55.79,2,Ryan Thomas,Iowa Park,55.61,147.42,88.45,170.1,405.97,Single-ply,SBD,M
Boys,55.79,3,Isiai Cerritos,Valley View,55.16,129.27,77.11,142.88,349.27,Single-ply,SBD,M
Boys,55.79,4,Zack Allen,Ponder,54.52,129.27,70.31,117.93,317.51,Single-ply,SBD,M
Boys,55.79,5,Louis Gonzalez,Wichita Falls City View,55.07,117.93,65.77,113.4,297.1,Single-ply,SBD,M
Boys,55.79,6,Derek Thacker,Valley View,54.98,106.59,56.7,111.13,274.42,Single-ply,SBD,M
Boys,55.79,7,Dawson Anderle,Lindsay,53.07,90.72,54.43,102.06,247.21,Single-ply,SBD,M
Boys,59.87,1,Lucas Sosebee,Iowa Park,58.97,154.22,117.93,170.1,442.25,Single-ply,SBD,M
Boys,59.87,2,Rody Fenoglio,Henrietta,59.6,181.44,97.52,140.61,419.57,Single-ply,SBD,M
Boys,59.87,3,Cristian Martinez,Bowie,59.51,149.69,81.65,147.42,378.75,Single-ply,SBD,M
Boys,59.87,4,Marcus Sampson,Ponder,58.79,129.27,70.31,142.88,342.46,Single-ply,SBD,M
Boys,59.87,5,Chantz Cochran,Decatur,59.33,102.06,56.7,104.33,263.08,Single-ply,SBD,M
Boys,74.84,1,Brett Martin,Alvord,67.22,163.29,88.45,170.1,421.84,Single-ply,SBD,M
Boys,67.13,2,Andy Mangum,Wichita Falls City View,65.32,149.69,86.18,183.7,419.57,Single-ply,SBD,M
Boys,67.13,3,Jeromy Stacy,Petrolia,64.95,183.7,88.45,142.88,415.04,Single-ply,SBD,M
Boys,67.13,4,Danny Ho,Wichita Falls City View,65.86,147.42,95.25,170.1,412.77,Single-ply,SBD,M
Boys,67.13,5,Andrew Fails,Bowie,63.14,156.49,95.25,145.15,396.89,Single-ply,SBD,M
Boys,67.13,6,Michael Tuligan,Wichita Falls Rider,63.87,142.88,90.72,163.29,396.89,Single-ply,SBD,M
Boys,67.13,7,Keaton Spradlin,Burkburnett,67.13,142.88,92.99,156.49,392.36,Single-ply,SBD,M
Boys,67.13,8,Weston Wenninger,Graham,61.33,142.88,72.57,167.83,383.29,Single-ply,SBD,M
Boys,67.13,9,Cory Reece,Iowa Park,65.86,133.81,79.38,158.76,371.95,Single-ply,SBD,M
Boys,67.13,10,Peyton Crabtree,Nocona,66.68,136.08,70.31,145.15,351.53,Single-ply,SBD,M
Boys,67.13,11,Ryan Dunn,Bridgeport,65.59,122.47,74.84,142.88,340.19,Single-ply,SBD,M
Boys,67.13,12,Jay Schweiger,Iowa Park,65.5,127.01,68.04,142.88,337.93,Single-ply,SBD,M
Boys,67.13,13,Gavin Johnson,Nocona,62.51,104.33,70.31,129.27,303.91,Single-ply,SBD,M
Boys,67.13,14,Tanner DeBord,Lindsay,64.95,117.93,54.43,117.93,290.3,Single-ply,SBD,M
Boys,67.13,15,Logan Wann,Lindsay,62.14,104.33,65.77,117.93,288.03,Single-ply,SBD,M
Boys,67.13,16,Regi Lane,Bridgeport,63.5,92.99,52.16,108.86,254.01,Single-ply,SBD,M
Boys,67.13,DQ,Kenny Fails,Bowie,60.69,102.06,,,,Single-ply,SBD,M
Boys,74.84,1,Jase Hutchens,Graham,74.84,204.12,120.2,215.46,539.77,Single-ply,SBD,M
Boys,74.84,2,Abraham Landaverde,Bowie,71.12,195.04,122.47,181.44,498.95,Single-ply,SBD,M
Boys,74.84,3,Desmond Jackson,Wichita Falls Rider,73.66,185.97,120.2,192.78,498.95,Single-ply,SBD,M
Boys,74.84,4,Tristan Willard,Nocona,74.57,172.37,86.18,176.9,435.45,Single-ply,SBD,M
Boys,74.84,5,Ethan Raber,Wichita Falls City View,71.94,158.76,90.72,181.44,430.91,Single-ply,SBD,M
Boys,74.84,6,Dillon McAlister,Bridgeport,71.67,156.49,86.18,183.7,426.38,Single-ply,SBD,M
Boys,74.84,7,Joshua Hatch,Wichita Falls Rider,73.21,145.15,124.74,156.49,426.38,Single-ply,SBD,M
Boys,74.84,8,Landon Bale,Burkburnett,72.03,149.69,90.72,183.7,424.11,Single-ply,SBD,M
Boys,74.84,9,Brandon Coleman,Henrietta,67.4,181.44,97.52,136.08,415.04,Single-ply,SBD,M
Boys,74.84,10,Jessy Upchurch,Burkburnett,70.49,136.08,108.86,149.69,394.63,Single-ply,SBD,M
Boys,74.84,11,Isaiah Charles,Wichita Falls City View,74.39,147.42,88.45,156.49,392.36,Single-ply,SBD,M
Boys,74.84,12,Roger Mastin,Bridgeport,70.94,140.61,86.18,163.29,390.09,Single-ply,SBD,M
Boys,74.84,13,Eric Dearmin,Ponder,73.57,151.95,97.52,138.35,387.82,Single-ply,SBD,M
Boys,74.84,14,Tyler Raby,Bridgeport,70.31,140.61,81.65,154.22,376.48,Single-ply,SBD,M
Boys,74.84,15,Austin Jones,Ponder,69.94,142.88,86.18,138.35,367.41,Single-ply,SBD,M
Boys,74.84,16,Steven Sampson,Decatur,71.21,142.88,74.84,147.42,365.14,Single-ply,SBD,M
Boys,74.84,17,Cole Gardner,Ponder,71.67,131.54,79.38,154.22,365.14,Single-ply,SBD,M
Boys,74.84,18,Tanner Welch,Petrolia,68.58,142.88,74.84,136.08,353.8,Single-ply,SBD,M
Boys,74.84,19,David Battisti,Iowa Park,68.22,136.08,61.23,142.88,340.19,Single-ply,SBD,M
Boys,74.84,20,Parker Marshall,Nocona,72.39,111.13,83.91,142.88,337.93,Single-ply,SBD,M
Boys,74.84,21,Andrew Anderson,Ponder,68.31,122.47,79.38,127.01,328.85,Single-ply,SBD,M
Boys,74.84,22,Ryan Karr,Wichita Falls City View,70.4,120.2,74.84,131.54,326.59,Single-ply,SBD,M
Boys,74.84,23,Jonathan Cerritos,Valley View,70.22,124.74,65.77,129.27,319.78,Single-ply,SBD,M
Boys,74.84,24,Mason Barry,Henrietta,67.77,113.4,70.31,124.74,308.44,Single-ply,SBD,M
Boys,74.84,25,Dillon Daniel,Decatur,70.67,111.13,47.63,122.47,281.23,Single-ply,SBD,M
Boys,74.84,26,Tanner Burks,Decatur,73.03,104.33,65.77,106.59,276.69,Single-ply,SBD,M
Boys,74.84,27,Keaton Robinson,Bridgeport,67.77,104.33,52.16,113.4,269.89,Single-ply,SBD,M
Boys,74.84,DQ,Nate McLemore,Iowa Park,71.58,161.03,,,,Single-ply,SBD,M
Boys,74.84,DQ,Christian Jacoby,Valley View,71.3,133.81,,,,Single-ply,SBD,M
Boys,82.1,1,Steven Blankenship,Graham,79.92,222.26,149.69,226.8,598.74,Single-ply,SBD,M
Boys,82.1,2,Zach Hollingsworth,Burkburnett,78.11,213.19,158.76,217.72,589.67,Single-ply,SBD,M
Boys,82.1,3,Elijah Walker,Lindsay,78.74,181.44,122.47,181.44,485.34,Single-ply,SBD,M
Boys,82.1,4,Reed Latham,Henrietta,76.48,170.1,124.74,181.44,476.27,Single-ply,SBD,M
Boys,82.1,5,Rafe Sutton,Bowie,76.84,183.7,106.59,163.29,453.59,Single-ply,SBD,M
Boys,82.1,6,Hayden West,Henrietta,79.92,204.12,108.86,136.08,449.06,Single-ply,SBD,M
Boys,82.1,7,Magnum Sampson,Ponder,76.11,176.9,88.45,172.37,437.72,Single-ply,SBD,M
Boys,82.1,8,Hunter Ferryman,Ponder,77.38,170.1,99.79,147.42,417.3,Single-ply,SBD,M
Boys,82.1,9,Austin Bennett,Ponder,79.29,167.83,97.52,147.42,412.77,Single-ply,SBD,M
Boys,82.1,10,Seth Ferryman,Ponder,81.92,149.69,92.99,145.15,387.82,Single-ply,SBD,M
Boys,82.1,11,Kyle Barnett,Decatur,80.1,142.88,70.31,145.15,358.34,Single-ply,SBD,M
Boys,82.1,12,Jackson Williams,Alvord,79.56,136.08,88.45,129.27,353.8,Single-ply,SBD,M
Boys,82.1,13,Diego Bautista,Valley View,76.29,113.4,77.11,127.01,317.51,Single-ply,SBD,M
Boys,82.1,14,Jacob Slimp,Bridgeport,75.57,113.4,52.16,136.08,301.64,Single-ply,SBD,M
Boys,89.81,1,Chris Rogers,Burkburnett,87.91,258.55,165.56,244.94,669.05,Single-ply,SBD,M
Boys,89.81,2,Zach Baker,Petrolia,86.64,170.1,99.79,181.44,451.32,Single-ply,SBD,M
Boys,89.81,3,Ben Dankesreiter,Ponder,88.09,195.04,92.99,158.76,446.79,Single-ply,SBD,M
Boys,89.81,4,Spencer Garcia,Wichita Falls City View,86.27,176.9,90.72,172.37,439.98,Single-ply,SBD,M
Boys,89.81,5,Josh Bejarano,Valley View,86,165.56,102.06,142.88,410.5,Single-ply,SBD,M
Boys,89.81,6,Mitch Fruth,Ponder,89.18,161.03,90.72,158.76,410.5,Single-ply,SBD,M
Boys,89.81,7,Vince Mayon,Ponder,84.82,147.42,92.99,154.22,394.63,Single-ply,SBD,M
Boys,89.81,8,Blake Martin,Alvord,83.1,158.76,72.57,154.22,385.55,Single-ply,SBD,M
Boys,89.81,9,Dalton Randolph,Valley View,82.83,142.88,83.91,129.27,356.07,Single-ply,SBD,M
Boys,89.81,10,Jonathan Garner,Decatur,84.01,115.67,52.16,127.01,294.84,Single-ply,SBD,M
Boys,89.81,DQ,Hayden Kyle,Wichita Falls Rider,86.91,176.9,,,,Single-ply,SBD,M
Boys,99.79,1,Alex Joplin,Burkburnett,92.9,242.67,165.56,231.33,639.57,Single-ply,SBD,M
Boys,109.77,2,Derek Baynes,Graham,99.88,238.14,147.42,226.8,612.35,Single-ply,SBD,M
Boys,99.79,3,Justin Silva,Wichita Falls City View,98.61,247.21,133.81,215.46,596.47,Single-ply,SBD,M
Boys,99.79,4,Bodie Cokendolpher,Petrolia,95.62,222.26,115.67,235.87,573.79,Single-ply,SBD,M
Boys,99.79,5,Andrew Rodriguez,Wichita Falls City View,97.61,195.04,142.88,208.65,546.58,Single-ply,SBD,M
Boys,99.79,6,Guillermo Parham,Wichita Falls Rider,96.43,226.8,120.2,195.04,542.04,Single-ply,SBD,M
Boys,99.79,7,Jackson Towery,Nocona,98.16,197.31,115.67,229.06,542.04,Single-ply,SBD,M
Boys,99.79,8,Tristan Shearman,Wichita Falls Rider,94.62,192.78,120.2,215.46,528.44,Single-ply,SBD,M
Boys,99.79,9,Allen Mullis,Ponder,97.98,201.85,140.61,181.44,523.9,Single-ply,SBD,M
Boys,99.79,10,Andrew Borsch,Ponder,90.99,197.31,127.01,174.63,498.95,Single-ply,SBD,M
Boys,99.79,11,Kj Claus,Iowa Park,93.53,204.12,102.06,183.7,489.88,Single-ply,SBD,M
Boys,99.79,12,Ray Lomas,Valley View,93.26,204.12,99.79,165.56,469.47,Single-ply,SBD,M
Boys,99.79,13,Tyler Jennings,Bridgeport,99.79,163.29,117.93,181.44,462.66,Single-ply,SBD,M
Boys,99.79,14,Hunter Shawver,Iowa Park,93.71,197.31,88.45,174.63,460.4,Single-ply,SBD,M
Boys,99.79,15,Alfonso Duran,Graham,97.07,192.78,83.91,142.88,419.57,Single-ply,SBD,M
Boys,99.79,16,Sterling Headrick,Henrietta,98.16,156.49,102.06,156.49,415.04,Single-ply,SBD,M
Boys,99.79,17,Javier Venegas,Valley View,97.89,158.76,88.45,154.22,401.43,Single-ply,SBD,M
Boys,99.79,18,Cristian Woolbright,Ponder,95.44,151.95,97.52,149.69,399.16,Single-ply,SBD,M
Boys,99.79,19,Cody Holaway,Decatur,98.88,151.95,77.11,149.69,378.75,Single-ply,SBD,M
Boys,99.79,20,Justin Callahan,Decatur,95.53,129.27,79.38,149.69,358.34,Single-ply,SBD,M
Boys,99.79,21,Wesley Fitzgerald,Bridgeport,97.34,131.54,68.04,158.76,358.34,Single-ply,SBD,M
Boys,109.77,1,Ronnie Killen,Wichita Falls City View,106.87,226.8,106.59,226.8,560.19,Single-ply,SBD,M
Boys,109.77,2,Jacob Boswell,Burkburnett,107.59,208.65,115.67,213.19,537.51,Single-ply,SBD,M
Boys,109.77,3,Jesse Villalobos,Iowa Park,109.13,204.12,120.2,210.92,535.24,Single-ply,SBD,M
Boys,109.77,4,Arturo Villalobos,Wichita Falls City View,103.78,190.51,115.67,190.51,496.68,Single-ply,SBD,M
Boys,109.77,5,Justin Wagner,Ponder,103.51,204.12,95.25,147.42,446.79,Single-ply,SBD,M
Boys,109.77,6,Chance Pierce,Bridgeport,104.51,136.08,111.13,197.31,444.52,Single-ply,SBD,M
Boys,109.77,7,Bry Warren,Bridgeport,109.59,163.29,97.52,181.44,442.25,Single-ply,SBD,M
Boys,109.77,8,Haden Snodgrass,Bridgeport,109.59,124.74,86.18,151.95,362.87,Single-ply,SBD,M
Boys,124.74,1,Chris Aivaliotis,Ponder,117.12,294.84,176.9,249.48,721.21,Single-ply,SBD,M
Boys,124.74,2,John Brock,Henrietta,121.38,294.84,165.56,249.48,709.87,Single-ply,SBD,M
Boys,124.74,3,Sammy Serrano,Graham,124.74,272.16,140.61,215.46,628.23,Single-ply,SBD,M
Boys,124.74,4,Kye Esteves,Wichita Falls Rider,117.84,233.6,138.35,240.4,612.35,Single-ply,SBD,M
Boys,124.74,5,Tj May,Bowie,118.84,244.94,142.88,204.12,591.94,Single-ply,SBD,M
Boys,124.74,6,Bronson Burks,Bridgeport,121.83,238.14,113.4,235.87,587.4,Single-ply,SBD,M
Boys,124.74,7,Nick Diaz,Wichita Falls Hirschi,123.2,233.6,145.15,208.65,587.4,Single-ply,SBD,M
Boys,124.74,8,Brayden Burgess,Wichita Falls Rider,119.93,235.87,131.54,215.46,582.87,Single-ply,SBD,M
Boys,124.74,9,Rd Wegmann,Wichita Falls Rider,113.49,181.44,106.59,208.65,496.68,Single-ply,SBD,M
Boys,124.74,10,Hunter Ellender,Lindsay,121.29,204.12,92.99,170.1,467.2,Single-ply,SBD,M
Boys,124.74,11,Lenny Crone,Wichita Falls City View,121.11,165.56,99.79,181.44,446.79,Single-ply,SBD,M
Boys,124.74,12,Jack McKenna,Ponder,116.48,165.56,102.06,142.88,410.5,Single-ply,SBD,M
Boys,124.74,13,Tyler Yzaguirre,Alvord,120.2,138.35,90.72,131.54,360.61,Single-ply,SBD,M
Boys,124.74+,1,Thomas Waite,Ponder,125.74,272.16,149.69,197.31,619.15,Single-ply,SBD,M
Boys,124.74+,2,Taylor Hopkins,Graham,131.54,226.8,145.15,185.97,557.92,Single-ply,SBD,M
Boys,124.74+,3,Collin Partridge,Wichita Falls Rider,140.61,226.8,122.47,181.44,530.7,Single-ply,SBD,M
Boys,124.74+,4,Ryan Ford,Wichita Falls City View,134.54,204.12,115.67,204.12,523.9,Single-ply,SBD,M
Boys,124.74+,5,Quinton Jones,Wichita Falls City View,156.67,192.78,120.2,181.44,494.42,Single-ply,SBD,M
Boys,124.74+,6,Riley Carter #2,Ponder,138.89,204.12,104.33,174.63,483.08,Single-ply,SBD,M
Boys,124.74+,7,Jacob Poole,Ponder,132.54,163.29,83.91,138.35,385.55,Single-ply,SBD,M
Boys,124.74+,DQ,Husky Melendez,Graham,126.1,274.42,176.9,,,Single-ply,SBD,M
Boys,,NS,Dalton Adkins,Iowa Park,,,,,,Single-ply,SBD,M
Boys,,NS,Colton Dickerson,Iowa Park,,,,,,Single-ply,SBD,M
Boys,,NS,Danny Wood,Burkburnett,,,,,,Single-ply,SBD,M
Boys,,NS,Gavin Buchanan,Decatur,,,,,,Single-ply,SBD,M
Boys,,NS,Louis Krahl,Lindsay,,,,,,Single-ply,SBD,M
Boys,,NS,Gage Williams,Petrolia,,,,,,Single-ply,SBD,M
Boys,,NS,Michael Mitchell,Wichita Falls Hirschi,,,,,,Single-ply,SBD,M
Boys,,NS,Billy Kenyon,Petrolia,,,,,,Single-ply,SBD,M
