Division,WeightClassKg,Place,Name,Team,BodyweightKg,Best3SquatKg,Best3BenchKg,Best3DeadliftKg,TotalKg,Equipment,Event,Sex
Boys,51.71,1,Blayze Ferguson,Frisco Heritage,51.71,106.59,79.38,108.86,294.84,Single-ply,SBD,M
Boys,51.71,2,Sam Hamidi,Frisco Lebanon Trail,51.71,111.13,54.43,104.33,269.89,Single-ply,SBD,M
Boys,51.71,3,Conner Gressett,Frisco Wakeland,50.89,97.52,49.9,106.59,254.01,Single-ply,SBD,M
Boys,51.71,4,Greyson Hickey,Frisco Reedy,50.35,86.18,49.9,104.33,240.4,Single-ply,SBD,M
Boys,51.71,5,Jake Thomas,Frisco Lone Star,41.55,56.7,34.02,70.31,161.03,Single-ply,SBD,M
Boys,55.79,1,Rolando Guajardo,Frisco Centennial,54.79,142.88,68.04,140.61,351.53,Single-ply,SBD,M
Boys,55.79,2,Calvin Sall,Frisco Reedy,54.25,124.74,74.84,136.08,335.66,Single-ply,SBD,M
Boys,55.79,3,Sami Qawasmi,Frisco Reedy,55.43,104.33,65.77,127.01,297.1,Single-ply,SBD,M
Boys,55.79,4,Garrett Carter,Frisco Wakeland,55.16,97.52,52.16,124.74,274.42,Single-ply,SBD,M
Boys,55.79,5,Justin Wandel,Frisco Reedy,55.79,79.38,70.31,124.74,274.42,Single-ply,SBD,M
Boys,59.87,1,Will Best,Frisco Wakeland,58.06,151.95,68.04,170.1,390.09,Single-ply,SBD,M
Boys,59.87,2,Jesus Ponce,Frisco Lebanon Trail,57.61,145.15,70.31,145.15,360.61,Single-ply,SBD,M
Boys,59.87,3,Jared Banda,Frisco Reedy,57.24,117.93,68.04,149.69,335.66,Single-ply,SBD,M
Boys,59.87,4,Trevor Adkins,Frisco Lebanon Trail,59.6,122.47,,,122.47,Single-ply,S,M
Boys,67.13,1,Edward Zeng,Frisco Liberty,65.95,197.31,86.18,201.85,485.34,Single-ply,SBD,M
Boys,67.13,2,Jordan Hogg,Frisco Lebanon Trail,64.5,181.44,104.33,170.1,455.86,Single-ply,SBD,M
Boys,67.13,3,Gavin Carroll,Frisco Wakeland,66.32,170.1,88.45,149.69,408.23,Single-ply,SBD,M
Boys,67.13,4,Anthony Thomas,Frisco Centennial,65.68,138.35,86.18,140.61,365.14,Single-ply,SBD,M
Boys,67.13,5,Reid Morris,Frisco Wakeland,61.78,136.08,72.57,140.61,349.27,Single-ply,SBD,M
Boys,67.13,6,Gireesh Daggupati,Frisco Heritage,65.68,129.27,72.57,136.08,337.93,Single-ply,SBD,M
Boys,74.84,1,Justin Smith #25,Frisco Centennial,74.21,213.19,115.67,208.65,537.51,Single-ply,SBD,M
Boys,74.84,2,Charlie Burkhart,Frisco Wakeland,72.85,183.7,122.47,195.04,501.22,Single-ply,SBD,M
Boys,74.84,3,Josh Foster,Frisco Lone Star,70.31,185.97,95.25,190.51,471.74,Single-ply,SBD,M
Boys,74.84,4,Fabrizio Henriquez,Frisco Centennial,72.94,179.17,99.79,179.17,458.13,Single-ply,SBD,M
Boys,74.84,5,Jonathan Lis,Frisco Liberty,72.76,163.29,92.99,197.31,453.59,Single-ply,SBD,M
Boys,74.84,6,Mac Landeau,Frisco Wakeland,73.66,179.17,92.99,172.37,444.52,Single-ply,SBD,M
Boys,74.84,7,Corbin Lawrence,Frisco,74.75,136.08,92.99,174.63,403.7,Single-ply,SBD,M
Boys,74.84,8,Diego Diaz,Frisco Lone Star,74.12,133.81,83.91,138.35,356.07,Single-ply,SBD,M
Boys,74.84,9,Roger Hubbard,Frisco Lone Star,73.71,170.1,92.99,,263.08,Single-ply,SB,M
Boys,74.84,10,Adam Washington,Frisco Heritage,72.67,163.29,97.52,,260.82,Single-ply,SB,M
Boys,74.84,11,Jaxon Holloman,Frisco Heritage,73.75,156.49,95.25,,251.74,Single-ply,SB,M
Boys,74.84,12,Larry Rittenhouse,Frisco Heritage,74.57,170.1,,,170.1,Single-ply,S,M
Boys,74.84,DQ,Gunner Vestal,Frisco Liberty,73.57,,,,,Single-ply,S,M
Boys,82.1,1,Jonathan Vaquera,Frisco Wakeland,82.1,183.7,111.13,197.31,492.15,Single-ply,SBD,M
Boys,82.1,2,Connor Wolfe,Frisco Heritage,78.47,170.1,108.86,190.51,469.47,Single-ply,SBD,M
Boys,82.1,3,Dylan Emery,Frisco,78.83,172.37,113.4,181.44,467.2,Single-ply,SBD,M
Boys,82.1,4,Ty Martin #1,Frisco Reedy,78.56,190.51,102.06,163.29,455.86,Single-ply,SBD,M
Boys,82.1,5,Stone Slovak,Frisco Lebanon Trail,79.29,156.49,92.99,190.51,439.98,Single-ply,SBD,M
Boys,82.1,6,Zach Erlewein,Frisco Reedy,76.38,154.22,88.45,158.76,401.43,Single-ply,SBD,M
Boys,82.1,7,Hassan Khaled,Frisco Liberty,81.1,136.08,,,136.08,Single-ply,S,M
Boys,89.81,1,Dexter Green,Frisco Liberty,85.37,213.19,142.88,226.8,582.87,Single-ply,SBD,M
Boys,89.81,2,Troy Parker,Frisco Centennial,88.45,197.31,115.67,188.24,501.22,Single-ply,SBD,M
Boys,89.81,3,Hudson Halbert,Frisco Reedy,86.18,192.78,115.67,188.24,496.68,Single-ply,SBD,M
Boys,89.81,4,Jd Stephens,Frisco Centennial,85.64,192.78,108.86,183.7,485.34,Single-ply,SBD,M
Boys,89.81,5,Garrett Brooks,Frisco,87.72,181.44,117.93,174.63,474,Single-ply,SBD,M
Boys,89.81,6,Jaylan Ford,Frisco Lone Star,87.91,188.24,115.67,165.56,469.47,Single-ply,SBD,M
Boys,89.81,7,Cody Selby,Frisco,88.45,151.95,92.99,183.7,428.64,Single-ply,SBD,M
Boys,99.79,1,Matt Hawk,Frisco Independence,98.88,278.96,149.69,247.21,675.85,Single-ply,SBD,M
Boys,99.79,2,Jacob Veres,Frisco Wakeland,89.99,217.72,138.35,201.85,557.92,Single-ply,SBD,M
Boys,99.79,3,Isaiah Foster,Frisco Lone Star,93.26,204.12,142.88,188.24,535.24,Single-ply,SBD,M
Boys,99.79,4,Trey Schlink,Frisco Wakeland,90.9,217.72,113.4,190.51,521.63,Single-ply,SBD,M
Boys,99.79,5,Kamari Wilkerson,Frisco,94.89,197.31,115.67,204.12,517.1,Single-ply,SBD,M
Boys,99.79,6,Jeren Vernon,Frisco,95.44,161.03,122.47,185.97,469.47,Single-ply,SBD,M
Boys,99.79,7,Joe Miller,Frisco Independence,96.62,165.56,95.25,183.7,444.52,Single-ply,SBD,M
Boys,99.79,8,Mason Terry,Frisco Liberty,92.44,161.03,81.65,149.69,392.36,Single-ply,SBD,M
Boys,99.79,9,Cody Gonzales,Frisco Heritage,99.06,195.04,,,195.04,Single-ply,S,M
Boys,99.79,10,Brandon Kim,Frisco Heritage,98.79,192.78,,,192.78,Single-ply,S,M
Boys,109.77,1,Clay Patterson,Frisco Reedy,105.51,242.67,131.54,244.94,619.15,Single-ply,SBD,M
Boys,109.77,2,Jacob Thompson,Frisco,103.78,251.74,131.54,229.06,612.35,Single-ply,SBD,M
Boys,109.77,3,Steven Pineda,Frisco Lone Star,106.5,242.67,142.88,197.31,582.87,Single-ply,SBD,M
Boys,109.77,4,Brandon McClarnon,Frisco Centennial,104.14,233.6,124.74,208.65,566.99,Single-ply,SBD,M
Boys,109.77,5,Cameron Rose,Frisco Heritage,103.06,219.99,124.74,215.46,560.19,Single-ply,SBD,M
Boys,109.77,6,Mason Horton,Frisco Lone Star,109.68,208.65,133.81,206.38,548.85,Single-ply,SBD,M
Boys,109.77,7,James Ogbeide,Frisco Centennial,100.61,204.12,113.4,208.65,526.17,Single-ply,SBD,M
Boys,109.77,8,Brayden Hughes,Frisco Centennial,106.96,204.12,129.27,192.78,526.17,Single-ply,SBD,M
Boys,109.77,9,TJ Ford,Frisco,105.05,192.78,117.93,195.04,505.76,Single-ply,SBD,M
Boys,124.74,1,Cesar Sandoval,Frisco Reedy,110.68,240.4,142.88,229.06,612.35,Single-ply,SBD,M
Boys,124.74,2,Ben Perry,Frisco Independence,110.31,244.94,124.74,219.99,589.67,Single-ply,SBD,M
Boys,124.74,3,Dylan Harris,Frisco Lone Star,124.74,215.46,142.88,210.92,569.26,Single-ply,SBD,M
Boys,124.74,4,Damian Stuver,Frisco Liberty,116.21,233.6,124.74,183.7,542.04,Single-ply,SBD,M
Boys,124.74,5,Nathan Deason,Frisco Lone Star,117.3,206.38,113.4,204.12,523.9,Single-ply,SBD,M
Boys,124.74,6,Wesley Thrasher,Frisco Centennial,124.19,190.51,124.74,183.7,498.95,Single-ply,SBD,M
Boys,124.74,7,Conner Krodel,Frisco Independence,110.31,181.44,129.27,181.44,492.15,Single-ply,SBD,M
Boys,124.74+,1,Izeya Floyd,Frisco Reedy,142.61,294.84,163.29,260.82,718.94,Single-ply,SBD,M
Boys,124.74+,2,Tucker Rowland,Frisco Heritage,138.25,256.28,190.51,233.6,680.39,Single-ply,SBD,M
Boys,124.74+,3,Kaleb Arnold,Frisco Heritage,142.07,217.72,140.61,204.12,562.45,Single-ply,SBD,M
Boys,124.74+,4,Joe Crane,Frisco Centennial,134.81,208.65,117.93,222.26,548.85,Single-ply,SBD,M
Boys,124.74+,5,Myron Huff,Frisco Liberty,143.97,213.19,147.42,188.24,548.85,Single-ply,SBD,M
Boys,124.74+,6,Cameron Jones,Frisco Lone Star,127.64,192.78,120.2,181.44,494.42,Single-ply,SBD,M
Boys,124.74+,7,Josh Neal,Frisco,146.06,181.44,104.33,204.12,489.88,Single-ply,SBD,M
Boys,,NS,David Hall,Frisco,,,,,,Single-ply,SBD,M
Boys,,NS,Dreylan Washington,Frisco,,,,,,Single-ply,SBD,M
Boys,,NS,Jordan Etienne,Frisco Lone Star,,,,,,Single-ply,SBD,M
Boys,,NS,Cannon Roeder,Frisco Wakeland,,,,,,Single-ply,SBD,M
