Place,Name,Division,Equipment,Event,BirthDate,BirthYear,Age,Sex,BodyweightKg,WeightClassKg,Squat1Kg,Squat2Kg,Squat3Kg,Best3SquatKg,Bench1Kg,Bench2Kg,Bench3Kg,Best3BenchKg,Deadlift1Kg,Deadlift2Kg,Deadlift3Kg,Best3DeadliftKg,TotalKg
1,Corentin Kociszewski,Juniors,Raw,B,,2001,18,M,67.9,74,,,,,82.5,85,-90,85,,,,,85
1,Axel Barbier,Seniors,Raw,B,,1988,31,M,82.8,83,,,,,150,-162.5,-162.5,150,,,,,150
1,Sébastien Meister,Seniors,Raw,B,,1995,25,M,108.5,120,,,,,145,-152.5,152.5,152.5,,,,,152.5
1,Nicolas Rio,Masters 1,Raw,B,,1975,44,M,81.9,83,,,,,130,-135,-135,130,,,,,130
2,Mehmet Ataman,Masters 1,Raw,B,,1977,42,M,82,83,,,,,115,120,-125,120,,,,,120
1,Frederic Degracia,Masters 1,Raw,B,,1972,47,M,92.6,93,,,,,115,117.5,-120,117.5,,,,,117.5