Division,WeightClassKg,Place,Name,Team,BodyweightKg,Best3SquatKg,Best3BenchKg,Best3DeadliftKg,TotalKg,Equipment,Event,Sex,BirthDate
Girls,44.23,1,Chloe Canales,San Antonio East Central,42.82,133.81,77.11,127.01,337.93,Single-ply,SBD,F,
Girls,44.23,2,Lexi Iglesias,Port Lavaca Calhoun,43.36,117.93,65.77,117.93,301.64,Single-ply,SBD,F,
Girls,44.23,3,Dulce De La Cruz,Floresville,40.73,113.4,52.16,102.06,267.62,Single-ply,SBD,F,
Girls,44.23,4,Destiny Vanavsdall,San Antonio Southside,44.18,99.79,43.09,99.79,242.67,Single-ply,SBD,F,
Girls,44.23,5,Anna Castro,San Antonio Southwest Legacy,41.64,81.65,36.29,102.06,219.99,Single-ply,SBD,F,
Girls,47.85,1,Ana Granados,Crystal City,47.08,129.27,61.23,113.4,303.91,Single-ply,SBD,F,
Girls,47.85,2,Savannah Ramirez,San Antonio Southwest Legacy,44.54,97.52,36.29,106.59,240.4,Single-ply,SBD,F,
Girls,47.85,3,Alyson Lombrana,Crystal City,47.45,104.33,43.09,90.72,238.14,Single-ply,SBD,F,
Girls,47.85,DQ,Johneli Gutierrez,Crystal City,47.08,,,,,Single-ply,SBD,F,
Girls,47.85,DQ,Viviana Segura,Del Rio,44.91,,,,,Single-ply,SBD,F,
Girls,47.85,DQ,Veronica Martinez,Crystal City,47.63,,,,,Single-ply,SBD,F,
Girls,51.94,1,Salma Anaya-Martinez,Port Lavaca Calhoun,51.35,140.61,72.57,136.08,349.27,Single-ply,SBD,F,
Girls,51.94,2,Raelin Luna,Port Lavaca Calhoun,51.71,131.54,72.57,136.08,340.19,Single-ply,SBD,F,
Girls,51.94,3,Alisha Flores,Beeville Jones,50.53,115.67,83.91,111.13,310.71,Single-ply,SBD,F,
Girls,51.94,4,Payton Cox #1,Port Lavaca Calhoun,51.53,117.93,58.97,120.2,297.1,Single-ply,SBD,F,
Girls,51.94,5,Kayla Martinez,San Antonio Southside,51.71,120.2,58.97,117.93,297.1,Single-ply,SBD,F,
Girls,51.94,6,Alyssa Cortez,San Antonio Southside,48.9,111.13,56.7,117.93,285.76,Single-ply,SBD,F,
Girls,51.94,7,Emerald Garcia,San Antonio Memorial,51.26,111.13,47.63,122.47,281.23,Single-ply,SBD,F,
Girls,51.94,8,Giselle Baldwin,Castroville Medina Valley,48.9,90.72,36.29,102.06,229.06,Single-ply,SBD,F,
Girls,51.94,9,Illiana Perez,San Antonio East Central,49.62,102.06,47.63,79.38,229.06,Single-ply,SBD,F,
Girls,51.94,10,Dezzny Altamirano,San Antonio Southwest Legacy,50.26,72.57,34.02,92.99,199.58,Single-ply,SBD,F,
Girls,51.94,11,Serena Gonzalez,Del Rio,47.99,45.36,27.22,70.31,142.88,Single-ply,SBD,F,
Girls,51.94,DQ,Daeja Gomez,Floresville,51.71,,,,,Single-ply,SBD,F,
Girls,51.94,DQ,Nakiah Tolbert,San Antonio Memorial,51.71,,,,,Single-ply,SBD,F,
Girls,56.02,1,Adalysa Rosales,San Antonio East Central,55.16,136.08,70.31,122.47,328.85,Single-ply,SBD,F,
Girls,56.02,2,Geraldine Tafolla,Port Lavaca Calhoun,55.88,136.08,63.5,129.27,328.85,Single-ply,SBD,F,
Girls,56.02,3,Gabby Moncada,Crystal City,53.71,129.27,70.31,122.47,322.05,Single-ply,SBD,F,
Girls,56.02,4,Abigail Ramos-Cruz,San Antonio Southwest Legacy,55.61,133.81,58.97,129.27,322.05,Single-ply,SBD,F,
Girls,56.02,5,Alexandria Licea,San Antonio East Central,53.8,108.86,54.43,104.33,267.62,Single-ply,SBD,F,
Girls,56.02,6,Samantha Suniga,Beeville Jones,54.98,99.79,45.36,111.13,256.28,Single-ply,SBD,F,
Girls,56.02,7,Sadie Duran,Center Point,53.16,102.06,43.09,104.33,249.48,Single-ply,SBD,F,
Girls,56.02,8,Katelynn Vela,San Antonio Southside,55.52,90.72,61.23,97.52,249.48,Single-ply,SBD,F,
Girls,56.02,9,Nayeli Luna,San Antonio Memorial,52.16,90.72,45.36,86.18,222.26,Single-ply,SBD,F,
Girls,56.02,10,Victoria Villarreal,Del Rio,53.25,86.18,47.63,86.18,219.99,Single-ply,SBD,F,
Girls,56.02,DQ,Samantha Jimenez,San Antonio Southwest Legacy,55.79,,,,,Single-ply,SBD,F,
Girls,60.1,1,Genesis Luna,San Antonio Southwest,59.33,120.2,72.57,142.88,335.66,Single-ply,SBD,F,
Girls,60.1,2,Skylar Stramoski,San Antonio Southwest,59.51,124.74,74.84,136.08,335.66,Single-ply,SBD,F,
Girls,60.1,3,Jocelyn Rodriguez,San Antonio East Central,57.97,127.01,61.23,142.88,331.12,Single-ply,SBD,F,
Girls,60.1,4,Ally Marlowe,Center Point,57.97,138.35,56.7,131.54,326.59,Single-ply,SBD,F,
Girls,60.1,5,Madalyn Armendariz,Crystal City,58.42,111.13,79.38,127.01,317.51,Single-ply,SBD,F,
Girls,60.1,6,Rosie Martinez,Crystal City,59.6,127.01,61.23,124.74,312.98,Single-ply,SBD,F,
Girls,60.1,7,Kaylie Plate,San Antonio East Central,59.33,124.74,54.43,124.74,303.91,Single-ply,SBD,F,
Girls,60.1,8,Makayla Garcia,San Antonio East Central,56.88,113.4,56.7,108.86,278.96,Single-ply,SBD,F,
Girls,60.1,9,Angela Garcia,Floresville,58.51,102.06,52.16,117.93,272.16,Single-ply,SBD,F,
Girls,60.1,10,Sandra Lawcock,Floresville,59.24,122.47,43.09,102.06,267.62,Single-ply,SBD,F,
Girls,60.1,11,Karina Longoria,Center Point,56.79,106.59,58.97,99.79,265.35,Single-ply,SBD,F,
Girls,60.1,12,Angel Gonzalez #6,San Antonio Southwest Legacy,59.78,97.52,36.29,113.4,247.21,Single-ply,SBD,F,
Girls,60.1,13,Sarai Reyes,Floresville,59.69,86.18,40.82,92.99,219.99,Single-ply,SBD,F,
Girls,60.1,14,Chloe Williams,Center Point,57.61,117.93,58.97,102.06,278.96,Single-ply,SBD,F,
Girls,60.1,15,Justine Orozco,San Antonio Southwest Legacy,60.1,68.04,24.95,86.18,179.17,Single-ply,SBD,F,
Girls,60.1,DQ,Nashay Thomas,Castroville Medina Valley,60.06,106.59,,,,Single-ply,SBD,F,
Girls,60.1,DQ,Abigail Mejia,San Antonio Southwest Legacy,57.61,,,,,Single-ply,SBD,F,
Girls,67.36,1,Angelica Beltran,Beeville Jones,66.86,158.76,72.57,167.83,399.16,Single-ply,SBD,F,
Girls,67.36,2,Katya Garza-Rodriguez,Port Lavaca Calhoun,63.5,147.42,63.5,140.61,351.53,Single-ply,SBD,F,
Girls,67.36,3,Destiny Villegas,Beeville Jones,66.13,127.01,83.91,138.35,349.27,Single-ply,SBD,F,
Girls,67.36,4,Emily Garcia,Del Rio,66.41,120.2,68.04,156.49,344.73,Single-ply,SBD,F,
Girls,67.36,5,Lizzy Bustamante,Center Point,62.6,149.69,63.5,122.47,335.66,Single-ply,SBD,F,
Girls,67.36,6,Alyssa Lombrana,Crystal City,67.13,124.74,72.57,131.54,328.85,Single-ply,SBD,F,
Girls,67.36,7,Cesi Ramirez,Center Point,61.51,133.81,56.7,124.74,315.25,Single-ply,SBD,F,
Girls,67.36,8,Lorie Stark,Floresville,65.23,111.13,65.77,136.08,312.98,Single-ply,SBD,F,
Girls,67.36,9,Cristal Altamirano,San Antonio Southwest Legacy,67.13,136.08,65.77,102.06,303.91,Single-ply,SBD,F,
Girls,67.36,10,Kadynse Landry,Castroville Medina Valley,61.14,113.4,56.7,115.67,285.76,Single-ply,SBD,F,
Girls,67.36,11,Madison Stringo,Port Lavaca Calhoun,65.86,104.33,61.23,117.93,283.5,Single-ply,SBD,F,
Girls,67.36,12,Miranda Nunez,San Antonio East Central,65.23,111.13,56.7,113.4,281.23,Single-ply,SBD,F,
Girls,67.36,13,Strunk Mallory,San Antonio East Central,66.5,111.13,61.23,102.06,274.42,Single-ply,SBD,F,
Girls,67.36,14,Kelly Harlow,Castroville Medina Valley,64.23,104.33,47.63,113.4,265.35,Single-ply,SBD,F,
Girls,67.36,15,Hope Weber,San Antonio Southside,66.13,90.72,52.16,115.67,258.55,Single-ply,SBD,F,
Girls,67.36,16,Marlen Olmos,Del Rio,67.04,97.52,49.9,106.59,254.01,Single-ply,SBD,F,
Girls,67.36,17,Clarissa Olvera,Center Point,65.41,90.72,54.43,99.79,244.94,Single-ply,SBD,F,
Girls,67.36,18,Maricela Cardenas,San Antonio Southwest,61.23,81.65,45.36,108.86,235.87,Single-ply,SBD,F,
Girls,67.36,DQ,Amidy Moreno,Beeville Jones,67.36,,,,,Single-ply,SBD,F,
Girls,67.36,DQ,Larisa Gonzales,Beeville Jones,64.32,111.13,58.97,,,Single-ply,SBD,F,
Girls,75.07,1,Jackee Corrigan,Beeville Jones,73.94,161.03,88.45,131.54,381.02,Single-ply,SBD,F,
Girls,75.07,2,Ericka Garcia,San Antonio East Central,75.02,163.29,63.5,138.35,365.14,Single-ply,SBD,F,
Girls,75.07,3,Mia Ortiz,Del Rio,70.49,131.54,72.57,136.08,340.19,Single-ply,SBD,F,
Girls,75.07,4,Briana Abrego,Port Lavaca Calhoun,68.58,122.47,61.23,149.69,333.39,Single-ply,SBD,F,
Girls,75.07,5,Cheyenne Brumlow,Port Lavaca Calhoun,74.03,127.01,74.84,127.01,328.85,Single-ply,SBD,F,
Girls,75.07,6,Sophia Doubrava-Sanchez,Beeville Jones,70.31,136.08,56.7,133.81,326.59,Single-ply,SBD,F,
Girls,75.07,7,Yesenia Arellano,Floresville,74.3,136.08,68.04,122.47,326.59,Single-ply,SBD,F,
Girls,75.07,8,Allison Machado,Floresville,73.03,120.2,56.7,127.01,303.91,Single-ply,SBD,F,
Girls,75.07,9,Gabby Cortez,Castroville Medina Valley,70.03,102.06,61.23,99.79,263.08,Single-ply,SBD,F,
Girls,75.07,10,Katalina Herrera,San Antonio Southside,69.67,90.72,74.84,86.18,251.74,Single-ply,SBD,F,
Girls,75.07,DQ,Azalea Orozco,Floresville,71.67,,,,,Single-ply,SBD,F,
Girls,75.07,DQ,Saria Rodriguez,Del Rio,68.49,,,,,Single-ply,SBD,F,
Girls,75.07,DQ,Karlee Kindred,Castroville Medina Valley,74.84,,,,,Single-ply,SBD,F,
Girls,75.07,DQ,Marissa Ramirez,Crystal City,74.84,,,,,Single-ply,SBD,F,
Girls,82.33,1,Desiree Gonzales,Beeville Jones,76.48,197.31,106.59,170.1,474,Single-ply,SBD,F,
Girls,82.33,2,Mikaitlyn Anderson,Beeville Jones,81.74,163.29,83.91,147.42,394.63,Single-ply,SBD,F,
Girls,82.33,3,Giana Rios,Crystal City,78.65,158.76,77.11,156.49,392.36,Single-ply,SBD,F,
Girls,82.33,4,Litzylaisha Sanchez,Del Rio,80.29,136.08,68.04,151.95,356.07,Single-ply,SBD,F,
Girls,82.33,5,Hannah Gorsching,San Antonio Southwest Legacy,80.56,104.33,65.77,136.08,306.17,Single-ply,SBD,F,
Girls,90.04,1,Maria Rodriguez,Crystal City,86,219.99,124.74,172.37,517.1,Single-ply,SBD,F,
Girls,90.04,2,Kennedi Butcher,Port Lavaca Calhoun,86.73,188.24,113.4,181.44,483.08,Single-ply,SBD,F,
Girls,90.04,3,Leksi Martinez,Castroville Medina Valley,89.54,188.24,92.99,142.88,424.11,Single-ply,SBD,F,
Girls,90.04,4,May-Gway Tao,San Antonio East Central,86.36,138.35,77.11,131.54,347,Single-ply,SBD,F,
Girls,90.04,5,Teresa Valadez,Center Point,88.63,145.15,74.84,127.01,347,Single-ply,SBD,F,
Girls,90.04,6,Brittany Auzston,Beeville Jones,87.18,133.81,72.57,124.74,331.12,Single-ply,SBD,F,
Girls,90.04,7,Mady Steele,Center Point,87.09,136.08,74.84,117.93,328.85,Single-ply,SBD,F,
Girls,90.04,8,Karime Ramirez,Del Rio,82.83,102.06,47.63,122.47,272.16,Single-ply,SBD,F,
Girls,90.04,DQ,Emberlynn Burnett,San Antonio Southwest,87.09,68.04,,,,Single-ply,SBD,F,
Girls,90.04,DQ,Alizah Rodriguez,Crystal City,89.81,,,,,Single-ply,SBD,F,
Girls,100.02,1,Alex Soto #1,Crystal City,91.08,174.63,68.04,140.61,383.29,Single-ply,SBD,F,
Girls,100.02,2,India Davis,San Antonio East Central,99.25,147.42,74.84,142.88,365.14,Single-ply,SBD,F,
Girls,100.02,3,Lizzett Hernandez,Del Rio,91.26,129.27,63.5,138.35,331.12,Single-ply,SBD,F,
Girls,100.02,4,Bieneliza Caro,Del Rio,91.35,122.47,70.31,122.47,315.25,Single-ply,SBD,F,
Girls,100.02,5,Ashley Arellano,San Antonio Southside,93.62,106.59,58.97,102.06,267.62,Single-ply,SBD,F,
Girls,100.02,DQ,Carmen Moreno,San Antonio Southside,99.79,,,,,Single-ply,SBD,F,
Girls,117.71,1,Bethanie Rodriguez,Crystal City,105.32,226.8,136.08,172.37,535.24,Single-ply,SBD,F,
Girls,117.71,2,Dulce Guajardo,Del Rio,104.14,163.29,88.45,183.7,435.45,Single-ply,SBD,F,
Girls,117.71,3,Alex Aguilar,Castroville Medina Valley,113.67,174.63,88.45,170.1,433.18,Single-ply,SBD,F,
Girls,117.71,4,Angelina Calzada,Port Lavaca Calhoun,104.69,158.76,68.04,154.22,381.02,Single-ply,SBD,F,
Girls,117.71,5,Sierra Pardo,Floresville,102.69,142.88,70.31,154.22,367.41,Single-ply,SBD,F,
Girls,117.71,6,Latasha Soto,San Antonio Southside,106.87,127.01,74.84,127.01,328.85,Single-ply,SBD,F,
Girls,117.71,7,Daniella Ortega,Beeville Jones,100.88,92.99,58.97,106.59,258.55,Single-ply,SBD,F,
Girls,117.71+,1,Alayna Searcy,Port Lavaca Calhoun,127.82,226.8,111.13,161.03,498.95,Single-ply,SBD,F,
Girls,117.71+,2,Sophia Arredondo,San Antonio Southside,135.44,156.49,106.59,138.35,401.43,Single-ply,SBD,F,
Girls,117.71+,3,Regina Alaniz,Castroville Medina Valley,128.64,133.81,74.84,113.4,322.05,Single-ply,SBD,F,
Girls,117.71+,DQ,Clarissa Ramirez,Crystal City,127.64,,,,,Single-ply,SBD,F,
