WeightClassKg,Name,Best3SquatKg,Best3BenchKg,Best3DeadliftKg,TotalKg,Division,Event,Equipment,Sex,Place
44,Ann Leverett,120,72.5,147.5,340,F-O,SBD,Single-ply,F,1
44,Ashley Robbins,125,70,122.5,317.5,F-O,SBD,Single-ply,F,2
44,Cathy Solan,112.5,55,130,297.5,F-O,SBD,Single-ply,F,3
44,Erin Dickey,95,60,130,285,F-O,SBD,Single-ply,F,4
44,Donna Aliminosa,82.5,45,115,242.5,F-O,SBD,Single-ply,F,5
44,Barb Sieps,,,,,F-O,SBD,Single-ply,F,DQ
48,Jennifer Maile,145,90,172.5,407.5,F-O,SBD,Single-ply,F,1
48,Jonna O'Campo,90,97.5,112.5,300,F-O,SBD,Single-ply,F,2
52,Suzanne Hartwig-Gary,167.5,95,162.5,425,F-O,SBD,Single-ply,F,1
52,Codi Grubbs,135,82.5,132.5,350,F-O,SBD,Single-ply,F,2
52,Maura Shuttlewrt,102.5,67.5,115,285,F-O,SBD,Single-ply,F,3
52,Frannie Taylor,90,55,132.5,277.5,F-O,SBD,Single-ply,F,4
56,Michelle Amsden,170,97.5,170,437.5,F-O,SBD,Single-ply,F,1
56,Alyssa Hitchcock,132.5,75,152.5,360,F-O,SBD,Single-ply,F,2
56,Tammi Callahan,,,,,F-O,SBD,Single-ply,F,DQ
60,Bettina Altizer,187.5,127.5,167.5,482.5,F-O,SBD,Single-ply,F,1
60,Jennifer Thompson #1,145,132.5,170,447.5,F-O,SBD,Single-ply,F,2
60,Stacy Urso,165,87.5,185,437.5,F-O,SBD,Single-ply,F,3
60,Jennifer Rey-Gaudreau,165,105.5,162.5,433,F-O,SBD,Single-ply,F,4
60,Jill Darling,150,115,140,405,F-O,SBD,Single-ply,F,5
60,Veronica Aguila,147.5,87.5,147.5,382.5,F-O,SBD,Single-ply,F,6
60,Jessica Kratz,122.5,72.5,137.5,332.5,F-O,SBD,Single-ply,F,7
60,Michelle James,120,47.5,150,317.5,F-O,SBD,Single-ply,F,8
60,Judy Drenth,,,,,F-O,SBD,Single-ply,F,DQ
60,Angie Overdeer,,,,,F-O,SBD,Single-ply,F,DQ
67.5,Priscilla Ribic,215,125,202.5,542.5,F-O,SBD,Single-ply,F,1
67.5,Rebecca Phelps,180,95,192.5,467.5,F-O,SBD,Single-ply,F,2
67.5,Christy Newman,152.5,122.5,172.5,447.5,F-O,SBD,Single-ply,F,3
67.5,Theresa Kunsman,155,100,172.5,427.5,F-O,SBD,Single-ply,F,4
67.5,Laura Styrlund,145,92.5,167.5,405,F-O,SBD,Single-ply,F,5
67.5,Ruth Welding,147.5,82.5,160,390,F-O,SBD,Single-ply,F,6
67.5,Dawn Steele,137.5,95,152.5,385,F-O,SBD,Single-ply,F,7
67.5,Cynthia Burroughs,137.5,70,155,362.5,F-O,SBD,Single-ply,F,8
75,Kimmie Everrett,180,92.5,192.5,465,F-O,SBD,Single-ply,F,1
75,Deanna Chaney,157.5,115,192.5,465,F-O,SBD,Single-ply,F,2
75,Kimberly Walford,157.5,92.5,200,450,F-O,SBD,Single-ply,F,3
75,Katie Ford,165,102.5,162.5,430,F-O,SBD,Single-ply,F,4
75,Rhonda Clark,150,77.5,170,397.5,F-O,SBD,Single-ply,F,5
75,Margaret McLean,135,65,155,355,F-O,SBD,Single-ply,F,6
75,Rachel Moore,115,52.5,125,292.5,F-O,SBD,Single-ply,F,7
82.5,Jessica Watkins,227.5,127.5,215,570,F-O,SBD,Single-ply,F,1
82.5,Cathy Martin,160,97.5,165,422.5,F-O,SBD,Single-ply,F,2
82.5,Malinda Baum,137.5,85,165,387.5,F-O,SBD,Single-ply,F,3
90,Linda Schaefer,140,85,192.5,417.5,F-O,SBD,Single-ply,F,1
90,Disa Hatfield,,,,,F-O,SBD,Single-ply,F,DQ
90+,Liz Willett,277.5,175,210,662.5,F-O,SBD,Single-ply,F,1
90+,Harriet Hall,213,140,205,558,F-O,SBD,Single-ply,F,2
90+,Sue Hallen,167.5,110,150,427.5,F-O,SBD,Single-ply,F,3
90+,Domonique Calhoun,142.5,97.5,175,415,F-O,SBD,Single-ply,F,4
90+,Iilani Taylor,147.5,77.5,162.5,387.5,F-O,SBD,Single-ply,F,5
90+,Debbie Ferrell,,,,,F-O,SBD,Single-ply,F,DQ
44,Megan Bruischart,95,42.5,77.5,215,F-T1,SBD,Single-ply,F,1
60,Kala McCauley,142.5,62.5,155,360,F-T1,SBD,Single-ply,F,1
67.5,Molly Dennany,147.5,85,155,387.5,F-T1,SBD,Single-ply,F,1
52,Carly Nogle,145,75,160.5,380.5,F-T2,SBD,Single-ply,F,1
52,Jennifer Ray,107.5,65,125,297.5,F-T2,SBD,Single-ply,F,2
56,Andrea Motter,130,55,112.5,297.5,F-T2,SBD,Single-ply,F,1
56,Jessica Stewart,97.5,50,107.5,255,F-T2,SBD,Single-ply,F,2
60,Jan Marello,137.5,70,150,357.5,F-T2,SBD,Single-ply,F,1
60,Shay Stone,112.5,65,127.5,305,F-T2,SBD,Single-ply,F,2
60,Ashley Millet,92.5,52.5,112.5,257.5,F-T2,SBD,Single-ply,F,3
90,Tiffany Bayer,130,57.5,120,307.5,F-T2,SBD,Single-ply,F,1
90+,Shea Wallus,132.5,107.5,135,375,F-T2,SBD,Single-ply,F,1
48,Jennifer Maile,145,90,172.5,407.5,F-T3,SBD,Single-ply,F,1
48,Ashley Matherine,95,52.5,112.5,260,F-T3,SBD,Single-ply,F,2
48,Melanie Cahilly,92.5,45,117.5,255,F-T3,SBD,Single-ply,F,3
52,Ashley Awalt,122.5,82.5,135,340,F-T3,SBD,Single-ply,F,1
52,Patricia Chavira,,,,,F-T3,SBD,Single-ply,F,DQ
56,Alyssa Hitchcock,132.5,75,152.5,360,F-T3,SBD,Single-ply,F,1
67.5,Destiny Joyner,147.5,75,147.5,370,F-T3,SBD,Single-ply,F,1
67.5,Renee Christensen,122.5,62.5,125,310,F-T3,SBD,Single-ply,F,2
75,Kimmie Everrett,180,92.5,192.5,465,F-T3,SBD,Single-ply,F,1
75,Rachel Moore,115,52.5,125,292.5,F-T3,SBD,Single-ply,F,2
82.5,Maggen Mullin,147.5,90,170,407.5,F-T3,SBD,Single-ply,F,1
82.5,Kelly Louque,145,92.5,155,392.5,F-T3,SBD,Single-ply,F,2
90,Verice Lewis,117.5,72.5,122.5,312.5,F-T3,SBD,Single-ply,F,1
44,Erin Crapo,105.5,55,107.5,268,F-Jr,SBD,Single-ply,F,1
44,Liz Dickerson,72.5,45,95,212.5,F-Jr,SBD,Single-ply,F,2
48,Jordan Callais,95,50,120,265,F-Jr,SBD,Single-ply,F,1
48,Beth Jaubert,90,47.5,110,247.5,F-Jr,SBD,Single-ply,F,2
52,Jennie Hollier,135,82.5,127.5,345,F-Jr,SBD,Single-ply,F,1
52,Codi Grubbs,135,82.5,132.5,350,F-Jr,SBD,Single-ply,F,2
56,Alayna Cunningham,132.5,75,132.5,340,F-Jr,SBD,Single-ply,F,1
56,Sarah Newman,127.5,77.5,132.5,337.5,F-Jr,SBD,Single-ply,F,2
60,Julia Kaufmann,127.5,77.5,172.5,377.5,F-Jr,SBD,Single-ply,F,1
60,Natalie Hellerstedt,95,67.5,102.5,265,F-Jr,SBD,Single-ply,F,2
60,Jo Tiffany Scott,95,55,112.5,262.5,F-Jr,SBD,Single-ply,F,3
67.5,Danielle Tiemann,112.5,65,127.5,305,F-Jr,SBD,Single-ply,F,1
67.5,Tanja Waite,100,60,122.5,282.5,F-Jr,SBD,Single-ply,F,2
67.5,Mandy Miller,112.5,47.5,112.5,272.5,F-Jr,SBD,Single-ply,F,3
75,Katie Ford,165,102.5,162.5,430,F-Jr,SBD,Single-ply,F,1
75,Sirena Lundsford,107.5,75,120,302.5,F-Jr,SBD,Single-ply,F,2
82.5,Jessica Watkins,227.5,127.5,215,570,F-Jr,SBD,Single-ply,F,1
82.5,Lacy Picou,155,62.5,162.5,380,F-Jr,SBD,Single-ply,F,2
44,Cathy Solan,112.5,55,130,297.5,F-M1a,SBD,Single-ply,F,1
52,Dana Deutsh,105.5,60,125,290.5,F-M1a,SBD,Single-ply,F,1
52,Vera Nelson,97.5,50,115,262.5,F-M1a,SBD,Single-ply,F,2
56,Gina Stepleton,82.5,45,110,237.5,F-M1a,SBD,Single-ply,F,1
56,Heather Hughes,,,,,F-M1a,SBD,Single-ply,F,DQ
56,Tammi Callahan,,,,,F-M1a,SBD,Single-ply,F,DQ
56,Lanette Lopez,,,,,F-M1a,SBD,Single-ply,F,DQ
60,Bettina Altizer,187.5,127.5,167.5,482.5,F-M1a,SBD,Single-ply,F,1
60,Angela Simons,127.5,100,142.5,370,F-M1a,SBD,Single-ply,F,2
60,Judy Drenth,,,,,F-M1a,SBD,Single-ply,F,DQ
75,Deanna Chaney,157.5,115,192.5,465,F-M1a,SBD,Single-ply,F,1
82.5,Malinda Baum,137.5,85,165,387.5,F-M1a,SBD,Single-ply,F,1
90,Linda Schaefer,140,85,192.5,417.5,F-M1a,SBD,Single-ply,F,1
90,Paulette Calhoun,127.5,107.5,125,360,F-M1a,SBD,Single-ply,F,2
90,Holly Oxford,,,,,F-M1a,SBD,Single-ply,F,DQ
90+,Iilani Taylor,147.5,77.5,152.5,377.5,F-M1a,SBD,Single-ply,F,1
52,Deb Hairston,97.5,57.5,117.5,272.5,F-M1b,SBD,Single-ply,F,1
52,Barb Zinsmaster,85,40,107.5,232.5,F-M1b,SBD,Single-ply,F,2
56,Ellen Stein,145,77.5,175,397.5,F-M1b,SBD,Single-ply,F,1
60,Kate Dingle-Craig,137.5,80,150,367.5,F-M1b,SBD,Single-ply,F,1
60,Brenda Howard,105,62.5,110,277.5,F-M1b,SBD,Single-ply,F,2
67.5,Ruth Welding,147.5,82.5,160,390,F-M1b,SBD,Single-ply,F,1
67.5,Sasha Meshkov,140,67.5,152.5,360,F-M1b,SBD,Single-ply,F,2
67.5,Karen Bakke,137.5,72.5,127.5,337.5,F-M1b,SBD,Single-ply,F,3
67.5,Jennie Livingston,77.5,50,100,227.5,F-M1b,SBD,Single-ply,F,4
75,Margaret McLean,135,65,155,355,F-M1b,SBD,Single-ply,F,1
75,Teresa Merrick,87.5,52.5,135,275,F-M1b,SBD,Single-ply,F,2
75,Maureen Post,,,,,F-M1b,SBD,Single-ply,F,DQ
82.5,Deborah Jackson,137.5,87.5,137.5,362.5,F-M1b,SBD,Single-ply,F,1
90,Kim Newman,92.5,52.5,107.5,252.5,F-M1b,SBD,Single-ply,F,1
90+,Sue Hallen,167.5,110,150,427.5,F-M1b,SBD,Single-ply,F,1
44,Donna Aliminosa,82.5,45,115,242.5,F-M2a,SBD,Single-ply,F,1
67.5,Rita Carlsson,100,57.5,140,297.5,F-M2a,SBD,Single-ply,F,1
75,Bianca Glendinn,82.5,35,112.5,230,F-M2a,SBD,Single-ply,F,1
90+,Harriet Hall,213,140,205,558,F-M2a,SBD,Single-ply,F,1
52,Judy Gedney,115,52.5,120,287.5,F-M3a,SBD,Single-ply,F,1
75,Regina Hackney,110.5,60,132.5,303,F-M2b,SBD,Single-ply,F,1
90,Susan Gill,85,40,95,220,F-M2b,SBD,Single-ply,F,1
67.5,Donna Steele,112.5,65,130,307.5,F-M3a,SBD,Single-ply,F,1
60,Georgia Johnson,37.5,35,55,127.5,F-M3b,SBD,Single-ply,F,1
56,Elma Beck,65.5,32.5,88,186,F-M4a,SBD,Single-ply,F,1
52,Heather Hampson,135,75,162.5,372.5,F-G,SBD,Single-ply,F,G
67.5,Marian Gibson #1,177.5,117.5,192.5,487.5,F-G,SBD,Single-ply,F,G
82.5,Jean Maton,165,105.2,180,450.2,F-G,SBD,Single-ply,F,G
90,Jennifer Keane,180,105,175,460,F-G,SBD,Single-ply,F,G
