Division,WeightClassKg,Place,Name,Team,BodyweightKg,Best3SquatKg,Best3BenchKg,Best3DeadliftKg,TotalKg,Equipment,Event,Sex
Girls,44.23,1,Emily Franklin,Shepherd,40.82,86.18,45.36,92.99,224.53,Single-ply,SBD,F
Girls,44.23,2,Kristen Minatre,Livingston,43.54,81.65,38.56,79.38,199.58,Single-ply,SBD,F
Girls,47.85,1,Adelina Caceres,Trinity,47.63,106.59,56.7,106.59,269.89,Single-ply,SBD,F
Girls,47.85,2,Kyndall Moffett,Livingston,46.72,104.33,54.43,104.33,263.08,Single-ply,SBD,F
Girls,47.85,3,Alaina Whitworth,Splendora,47.17,102.06,49.9,97.52,249.48,Single-ply,SBD,F
Girls,47.85,4,Madisyn Marbury,Livingston,47.17,102.06,45.36,99.79,247.21,Single-ply,SBD,F
Girls,47.85,5,Andie Seagraves,Coldspring-Oakhurst,47.17,95.25,45.36,92.99,233.6,Single-ply,SBD,F
Girls,47.85,DQ,Kylee Ayers,Cleveland Tarkington,47.63,,,,,Single-ply,SBD,F
Girls,51.94,1,Madison Williams,Cleveland Tarkington,49.9,122.47,52.16,127.01,301.64,Single-ply,SBD,F
Girls,51.94,2,Micah Hughes #1,Corrigan-Camden,50.98,92.99,43.09,113.4,249.48,Single-ply,SBD,F
Girls,51.94,3,Brelynn Ellisor,Coldspring-Oakhurst,50.35,86.18,36.29,90.72,213.19,Single-ply,SBD,F
Girls,51.94,4,Chandria Ivory,Livingston,51.71,81.65,34.02,90.72,206.38,Single-ply,SBD,F
Girls,51.94,5,Dioselin Gonzales,Trinity,51.71,68.04,29.48,72.57,170.1,Single-ply,SBD,F
Girls,51.94,DQ,Sarahi Rodriguez,Splendora,50.8,,,,,Single-ply,SBD,F
Girls,51.94,DQ,Madison Harrison,Cleveland Tarkington,51.94,,,,,Single-ply,SBD,F
Girls,56.02,1,Brisa Carmona,Splendora,52.62,102.06,52.16,106.59,260.82,Single-ply,SBD,F
Girls,56.02,2,Deandra Mills,Trinity,52.62,97.52,47.63,111.13,256.28,Single-ply,SBD,F
Girls,56.02,3,Fernanda Galvez,Splendora,52.39,97.52,47.63,102.06,247.21,Single-ply,SBD,F
Girls,56.02,4,Sharla Ruiz,Shepherd,55.79,97.52,54.43,95.25,247.21,Single-ply,SBD,F
Girls,56.02,5,Angela Cristello,Shepherd,54.88,92.99,52.16,95.25,240.4,Single-ply,SBD,F
Girls,56.02,6,Kallie Kelm,Corrigan-Camden,55.79,79.38,49.9,97.52,226.8,Single-ply,SBD,F
Girls,56.02,7,Halie Chaney,Splendora,54.66,74.84,47.63,97.52,219.99,Single-ply,SBD,F
Girls,56.02,8,Raymunda Cobarrubias,Splendora,55.34,81.65,38.56,97.52,217.72,Single-ply,SBD,F
Girls,56.02,9,Alex Gonzales,Groveton,53.98,81.65,38.56,95.25,215.46,Single-ply,SBD,F
Girls,56.02,10,Marisol Hu,Splendora,53.98,65.77,34.02,70.31,170.1,Single-ply,SBD,F
Girls,60.1,1,Hannah Blanchard,Splendora,56.93,133.81,74.84,111.13,319.78,Single-ply,SBD,F
Girls,60.1,2,Morgan Adkinson,Splendora,56.7,124.74,61.23,120.2,306.17,Single-ply,SBD,F
Girls,60.1,3,Madalyn Hollingsworth,Cleveland Tarkington,56.25,102.06,52.16,136.08,290.3,Single-ply,SBD,F
Girls,60.1,4,Kynadee Benestante,Coldspring-Oakhurst,58.51,108.86,52.16,117.93,278.96,Single-ply,SBD,F
Girls,60.1,5,Serenity Whitworth,Splendora,57.06,104.33,58.97,104.33,267.62,Single-ply,SBD,F
Girls,60.1,6,Maria Gutierrez,Livingston,58.97,95.25,47.63,104.33,247.21,Single-ply,SBD,F
Girls,60.1,7,Savannah Williams,Cleveland Tarkington,60.1,79.38,61.23,99.79,240.4,Single-ply,SBD,F
Girls,60.1,8,Mia Shew,Cleveland Tarkington,58.88,86.18,34.02,88.45,208.65,Single-ply,SBD,F
Girls,60.1,DQ,Jadan Alsip,Groveton,59.87,,,,,Single-ply,SBD,F
Girls,67.36,1,Erieanna Lopez,Shepherd,64.64,174.63,97.52,165.56,437.72,Single-ply,SBD,F
Girls,67.36,2,Allie Botello,Livingston,66.9,136.08,52.16,131.54,319.78,Single-ply,SBD,F
Girls,67.36,3,Nicole Nelson,Shepherd,61.46,108.86,61.23,115.67,285.76,Single-ply,SBD,F
Girls,67.36,4,Makinzie Franklin,Shepherd,63.96,117.93,56.7,111.13,285.76,Single-ply,SBD,F
Girls,67.36,5,Aundrea Cuevas,Corrigan-Camden,60.78,111.13,49.9,120.2,281.23,Single-ply,SBD,F
Girls,67.36,6,Lucero Villafana,Splendora,63.5,106.59,52.16,115.67,274.42,Single-ply,SBD,F
Girls,67.36,7,Krystan Peavey,Trinity,63.28,111.13,52.16,106.59,269.89,Single-ply,SBD,F
Girls,67.36,8,Morgan Young,Shepherd,65.32,102.06,54.43,99.79,256.28,Single-ply,SBD,F
Girls,67.36,9,Elizabeth Ochoa,Corrigan-Camden,66.68,106.59,34.02,115.67,256.28,Single-ply,SBD,F
Girls,67.36,10,Alyssa Hill,Trinity,65.77,106.59,54.43,92.99,254.01,Single-ply,SBD,F
Girls,67.36,11,Noemi Acosta,Trinity,62.6,83.91,56.7,111.13,251.74,Single-ply,SBD,F
Girls,67.36,12,Gabby Hernandez,Groveton,60.78,97.52,49.9,102.06,249.48,Single-ply,SBD,F
Girls,67.36,13,Morgan Allbright,Trinity,64.41,92.99,52.16,99.79,244.94,Single-ply,SBD,F
Girls,67.36,14,Mikayla Bogany,Shepherd,66.22,90.72,47.63,102.06,240.4,Single-ply,SBD,F
Girls,67.36,15,Kyleigh Thornhill,Groveton,62.6,86.18,45.36,106.59,238.14,Single-ply,SBD,F
Girls,67.36,16,Jamia Collins,Livingston,65.77,97.52,38.56,83.91,219.99,Single-ply,SBD,F
Girls,67.36,17,Bryana Juarez,Livingston,63.5,92.99,29.48,90.72,213.19,Single-ply,SBD,F
Girls,67.36,18,Julie Pulley,Livingston,62.6,61.23,34.02,65.77,161.03,Single-ply,SBD,F
Girls,67.36,DQ,Cameron Baker,Cleveland Tarkington,67.13,,,,,Single-ply,SBD,F
Girls,67.36,DQ,Destiny Houseman,Splendora,66.68,,,,,Single-ply,SBD,F
Girls,75.07,1,Sara Trujillo,Splendora,67.4,158.76,72.57,151.95,383.29,Single-ply,SBD,F
Girls,75.07,2,Maighan Beck,Shepherd,68.72,170.1,74.84,127.01,371.95,Single-ply,SBD,F
Girls,75.07,3,Shelby Dean,Shepherd,74.84,129.27,56.7,127.01,312.98,Single-ply,SBD,F
Girls,75.07,4,Cora Sievertson,Shepherd,72.12,136.08,58.97,113.4,308.44,Single-ply,SBD,F
Girls,75.07,5,Paige Vander Stucken,Groveton,68.49,115.67,56.7,106.59,278.96,Single-ply,SBD,F
Girls,75.07,6,Chloe Monreal,Livingston,72.12,113.4,45.36,111.13,269.89,Single-ply,SBD,F
Girls,75.07,7,Alaya Roddey,Coldspring-Oakhurst,73.94,106.59,49.9,113.4,269.89,Single-ply,SBD,F
Girls,75.07,8,Elizabeth Palafox,Shepherd,68.04,104.33,63.5,97.52,265.35,Single-ply,SBD,F
Girls,75.07,9,Cassey Nguyen,Corrigan-Camden,67.59,90.72,47.63,122.47,260.82,Single-ply,SBD,F
Girls,75.07,10,Stephanie Ruiz,Trinity,69.85,92.99,43.09,111.13,247.21,Single-ply,SBD,F
Girls,75.07,11,Vivianna Sandoval,Splendora,68.49,97.52,47.63,99.79,244.94,Single-ply,SBD,F
Girls,75.07,12,Cassandra Rodriguez,Splendora,73.48,92.99,54.43,97.52,244.94,Single-ply,SBD,F
Girls,75.07,13,Courtney Arreola,Splendora,72.57,97.52,49.9,90.72,238.14,Single-ply,SBD,F
Girls,75.07,14,Nicole Carley,Cleveland Tarkington,74.84,79.38,45.36,90.72,215.46,Single-ply,SBD,F
Girls,75.07,DQ,Blessing Menifee,Corrigan-Camden,74.84,,,,,Single-ply,SBD,F
Girls,75.07,DQ,Jaiden Bennett,Livingston,74.84,,,,,Single-ply,SBD,F
Girls,75.07,DQ,Chloe Meshel,Groveton,73.48,111.13,58.97,,,Single-ply,SBD,F
Girls,82.33,1,Marlinda Dunham,Livingston,80.29,142.88,49.9,156.49,349.27,Single-ply,SBD,F
Girls,82.33,2,Bailey Barrett,Livingston,78.93,142.88,61.23,142.88,347,Single-ply,SBD,F
Girls,82.33,3,Allie Bumpurs,Splendora,78.7,115.67,52.16,133.81,301.64,Single-ply,SBD,F
Girls,82.33,4,Wendy Chavez,Splendora,78.47,102.06,56.7,133.81,292.57,Single-ply,SBD,F
Girls,82.33,5,Gabbie Kratzer,Livingston,81.19,113.4,49.9,111.13,274.42,Single-ply,SBD,F
Girls,82.33,6,Kayla Morgan,Cleveland Tarkington,75.93,104.33,47.63,113.4,265.35,Single-ply,SBD,F
Girls,82.33,7,Priscilla Gomez,Splendora,75.75,97.52,56.7,106.59,260.82,Single-ply,SBD,F
Girls,82.33,8,Savannah Woodrick,Groveton,79.83,79.38,45.36,95.25,219.99,Single-ply,SBD,F
Girls,82.33,DQ,Nicole Maldonado,Shepherd,76.66,,,,,Single-ply,SBD,F
Girls,82.33,DQ,Stacy Trejo,Coldspring-Oakhurst,78.02,97.52,,,,Single-ply,SBD,F
Girls,82.33,DQ,Kylie Jones,Splendora,79.38,154.22,,,,Single-ply,SBD,F
Girls,90.04,1,Adreiana Clay,Trinity,88,124.74,81.65,129.27,335.66,Single-ply,SBD,F
Girls,90.04,2,Kayla Hays,Splendora,88.45,124.74,72.57,129.27,326.59,Single-ply,SBD,F
Girls,90.04,3,Hope Anderson,Cleveland Tarkington,88.9,136.08,54.43,131.54,322.05,Single-ply,SBD,F
Girls,90.04,4,Heaven Walton,Trinity,85.28,115.67,49.9,127.01,292.57,Single-ply,SBD,F
Girls,90.04,5,Kylie Voelker,Groveton,87.54,115.67,47.63,120.2,283.5,Single-ply,SBD,F
Girls,90.04,6,Jewel Jones,Cleveland Tarkington,84.37,97.52,49.9,117.93,265.35,Single-ply,SBD,F
Girls,90.04,DQ,Laryssa Pitts,Splendora,89.81,83.91,,,,Single-ply,SBD,F
Girls,100.02,1,Beatriz Costilla,Trinity,98.43,163.29,92.99,151.95,408.23,Single-ply,SBD,F
Girls,100.02,2,Chesney Payne,Livingston,92.08,149.69,52.16,127.01,328.85,Single-ply,SBD,F
Girls,100.02,DQ,Callie Owens,Groveton,99.79,,,,,Single-ply,SBD,F
Girls,100.02,DQ,Aryannah Walker,Trinity,99.79,,,,,Single-ply,SBD,F
Girls,117.71,1,Kailyn Fisher,Trinity,111.81,183.7,97.52,172.37,453.59,Single-ply,SBD,F
Girls,117.71,2,Danielle Oldham,Livingston,112.49,127.01,52.16,122.47,301.64,Single-ply,SBD,F
