Name,Team,Division,BodyweightKg,WeightClassKg,Age,Squat1Kg,Squat2Kg,Squat3Kg,Best3SquatKg,Bench1Kg,Bench2Kg,Bench3Kg,Best3BenchKg,Deadlift1Kg,Deadlift2Kg,Deadlift3Kg,Best3DeadliftKg,TotalKg,Place,Equipment,Event,Sex
Susie Butler,SW,F-C-U23,51.8,52,,75,-80,80,80,42.5,47.5,-50,47.5,97.5,105,107.5,107.5,235,1,Raw,SBD,F
Vandana Bhatt,SM,F-C-Open,50.3,52,36,50,-55,-55,50,30,32.5,37.5,37.5,-100,-100,-100,,,DQ,Raw,SBD,F
Lucy Rayner,SW,F-C-U18,56.2,57,,85,90,-95,90,55,60,63.5,63.5,100,110,115,115,268.5,1,Raw,SBD,F
Charlotte Goodman,SW,F-C-U18,57,57,,70,-75,77.5,77.5,35,-37.5,37.5,37.5,70,80,87.5,87.5,202.5,2,Raw,SBD,F
Ellie Steel,WM,F-C-U23,56.2,57,22,85,92.5,97.5,97.5,60,65,70,70,120,130,140,140,307.5,1,Raw,SBD,F
Rosimery Lima Gallo,SW,F-C-Open,56.9,57,,115,122.5,127.5,127.5,72.5,77.5,-82.5,77.5,147.5,-157.5,-157.5,147.5,352.5,1,Raw,SBD,F
Tom Sprott,SW,M-C-U18,54.8,59,,92.5,100,105,105,60,67.5,70,70,110,125,130,130,305,1,Raw,SBD,M
Amrik Mehta,SW,M-C-U23,57.8,59,,125,132.5,137.5,137.5,82.5,90,-95,90,167.5,177.5,182.5,182.5,410,1,Raw,SBD,M
Chloe Traves,SW,F-C-U18,61.2,63,,35,40,45,45,32.5,35,37.5,37.5,75,82.5,87.5,87.5,170,1,Raw,SBD,F
Tullulah Stephens,SW,F-C-U23,62.4,63,,60,-65,-65,60,37.5,40,-45,40,70,77.5,80,80,180,1,Raw,SBD,F
Jack Suljevic,SW,M-C-U18,62.2,66,,135,-142.5,-142.5,135,75,80,87.5,87.5,120,140,150,150,372.5,1,Raw,SBD,M
Amy Spencer,SW,F-C-U23,71.9,72,,95,105,-110,105,55,60,-65,60,120,127.5,-135,127.5,292.5,1,Raw,SBD,F
Ella Hope,SW,F-C-Open,68.6,72,,107.5,115,-120,115,55,60,65,65,125,135,-142.5,135,315,1,Raw,SBD,F
Megan Batchelor,SM,F-C-Open,71.7,72,25,90,100,-105,100,67.5,72.5,-77.5,72.5,125,135,137.5,137.5,310,2,Raw,SBD,F
Nick Hawker,SM,M-C-M2,70.1,74,,75,80,-85,80,65,70,-75,70,122.5,135,142.5,142.5,292.5,1,Raw,SBD,M
Stephen Edwards,SM,M-C-U23,73.5,74,19,160,175,-180,175,100,107.5,-112.5,107.5,200,-225,-230.5,200,482.5,1,Raw,SBD,M
Connor Bailey,SM,M-C-U23,68.8,74,18,155,-162.5,162.5,162.5,87.5,92.5,95,95,170,185,-190,185,442.5,2,Raw,SBD,M
Steven Tyers,SW,M-C-Open,72.3,74,,185,200,207.5,207.5,125,130,132.5,132.5,220,235,-242.5,235,575,1,Raw,SBD,M
Daniel Smith,SM,M-C-Open,73.9,74,26,170,180,190,190,125,135,-140,135,170,,,170,495,2,Raw,SBD,M
Darren Wilkes,SW,M-C-Open,68,74,,130,135,-142.5,135,90,,,90,155,170,177.5,177.5,402.5,3,Raw,SBD,M
James Holden-Archer,SW,M-C-Open,66.7,74,,105,115,125,125,80,90,95,95,125,140,150,150,370,4,Raw,SBD,M
Tony Chahal,WM,M-E-M1,77.8,83,,225,235,,235,140,147.5,,147.5,220,235,242.5,242.5,625,1,Single-ply,SBD,M
João Arsénio,SM,M-E-M1,83,83,,225,235,240,240,120,125,130,130,230,240,250,250,620,1,Single-ply,SBD,M
Matt Rowe,SW,M-C-M1,82.1,83,45,187.5,200,-207.5,200,125,130,135,135,225,240,247.5,247.5,582.5,1,Raw,SBD,M
Martin Smith,SW,M-C-M1,82.1,83,,185,195,-200,195,140,150,160,160,225,-235,-235,225,580,2,Raw,SBD,M
Owen Hubbard,SW,M-C-U23,81.3,83,,230,245,250.5,250.5,170,180,192.5,192.5,245,257.5,-267.5,257.5,700.5,1,Raw,SBD,M
Alistair Cannings,SW,M-C-U23,81.1,83,,215,225,232.5,232.5,140,145,-150,145,225,235,242.5,242.5,620,2,Raw,SBD,M
Jamie Sinclair,SM,M-C-Open,80.7,83,33,165,172.5,180,180,130,137.5,145,145,205,212.5,222.5,222.5,547.5,1,Raw,SBD,M
Phillip Wood,SW,M-C-Open,77.2,83,,130,140,-147.5,140,100,107.5,-110,107.5,192.5,202.5,-207.5,202.5,450,2,Raw,SBD,M
Matt Golding,SW,M-C-Open,76.3,83,32,147.5,155,-160,155,90,95,97.5,97.5,130,150,160,160,412.5,3,Raw,SBD,M
Janine Murphy,SW,F-C-M1,76.8,84,,122.5,127.5,135,135,72.5,77.5,80,80,140,150,157.5,157.5,372.5,1,Raw,SBD,F
Jemma Shaw,SM,F-C-U23,76.2,84,23,75,85,-90,85,45,50,-52.5,50,110,-130,-130,110,245,1,Raw,SBD,F
Jean Maton,SM,F-C-M2,84,84,50,110,-120,-120,110,75,82.5,-87.5,82.5,130,145,155,155,347.5,1,Raw,SBD,F
Andy Bonner,SM,M-C-M2,92,93,58,185,,,185,120,140,157.5,157.5,220,257.5,,257.5,600,1,Raw,SBD,M
Sion Hughes,SW,M-C-U23,92.5,93,,245,260,272.5,272.5,140,150,155,155,245,260,275,275,702.5,1,Raw,SBD,M
Collin Collar,SM,M-C-U23,91.5,93,23,-152.5,-160,165,165,110,-115,115,115,200,217.5,-225,217.5,497.5,2,Raw,SBD,M
Iain Kendrick,SM,M-C-Open,92.4,93,37,235,245,255,255,140,150,160,160,247.5,260,275,275,690,1,Raw,SBD,M
Steve Archer,SW,M-C-Open,88.6,93,,180,192.5,197.5,197.5,140,147.5,-155,147.5,215,225,235,235,580,2,Raw,SBD,M
Sam Watkins,SM,M-C-Open,89.4,93,24,180,190,200,200,120,127.5,132.5,132.5,200,212.5,-220,212.5,545,3,Raw,SBD,M
Eze Erediauwa,SM,M-C-Open,89.8,93,,150,-170,170,170,100,-120,-120,100,180,220,245,245,515,4,Raw,SBD,M
Nathan Scott,SM,M-C-M1,104.2,105,,235,245,250,250,160,167.5,,167.5,300,320,,320,737.5,1,Raw,SBD,M
Scott McBlain,SM,M-C-Open,101.2,105,,190,200,,200,140,-145,-145,140,220,-232.5,-232.5,220,560,1,Raw,SBD,M
Mitchell Dodman,SM,M-C-Open,102,105,,155,167.5,180,180,115,125,127.5,127.5,215,225,-230,225,532.5,2,Raw,SBD,M
Charles Osei-Borisu,SW,M-C-Open,109.5,120,,190,200,207.5,207.5,90,100,110,110,205,220,-227.5,220,537.5,1,Raw,SBD,M
Vicky Cherry,SM,F-C-Open,91.9,84+,34,120,130,135,135,42.5,47.5,52.5,52.5,140,150,155,155,342.5,1,Raw,SBD,F
Jack Kuhnert,SW,M-C-U23,82.5,83,,,,,,132.5,137.5,140,140,,,,,140,1,Raw,B,M
