Name,BirthDate,Age,Sex,Division,BodyweightKg,WeightClassKg,Squat1Kg,Squat2Kg,Squat3Kg,Squat4Kg,Best3SquatKg,Bench1Kg,Bench2Kg,Bench3Kg,Bench4Kg,Best3BenchKg,Deadlift1Kg,Deadlift2Kg,Deadlift3Kg,Deadlift4Kg,Best3DeadliftKg,TotalKg,Place,Event,Tested,Equipment
Rachel Mayer,,16,F,F_TEM_2_AAPF,66.8,67.5,,,,,,55,62.5,70,75,70,,,,,,70,1,B,Yes,Multi-ply
Erin Fitzpatrick,,18,F,F_TEM_3_AAPF,73.5,75,,,,,,57.5,62.5,-70,,62.5,,,,,,62.5,1,B,Yes,Multi-ply
Joel Thomas,1984-03-28,22,M,M_JEM_AAPF,86.8,90,,,,,,225,235,-245,,235,,,,,,235,1,B,Yes,Multi-ply
Charles Morse,1966-07-05,39,M,M_SEM_AAPF,66.3,67.5,,,,,,125,135,-145,,135,,,,,,135,1,B,Yes,Multi-ply
Amanda Harris,1991-05-31,14,F,F_TEM_1_AAPF,49.5,52,-100,100,115,-125,115,60,70,-72.5,,70,97.5,115,,,115,300,1,SBD,Yes,Multi-ply
Rachel Mayer,1989-11-06,16,F,F_TEM_2_AAPF,66.8,67.5,110,125,132.5,140,132.5,55,62.5,70,75,70,100,115,122.5,130,122.5,325,1,SBD,Yes,Multi-ply
Erin Fitzpatrick,,18,F,F_TEM_3_AAPF,73.5,75,137.5,-147.5,147.5,-157.5,147.5,57.5,62.5,-70,,62.5,135,145,-150,,145,355,1,SBD,Yes,Multi-ply
Machia Dudley,1986-07-19,19,F,F_TEM_3_AAPF,128.2,90+,250,-265,265,-272.5,265,165,172.5,-177.5,,172.5,205,215,222.5,-227.5,222.5,660,1,SBD,Yes,Multi-ply
Jordan Dunn,,14,M,M_TEM_1_AAPF,59.8,60,200,217.5,230,237.5,230,107.5,115,-125,,115,160,170,-182.5,,170,515,1,SBD,Yes,Multi-ply
Kevin Arman,,13,M,M_TEM_1_AAPF,69.6,75,25,50,75,,75,32.5,52.5,-65,,52.5,50,67.5,82.5,,82.5,210,1,SBD,Yes,Multi-ply
Kyle Hall,,15,M,M_TEM_1_AAPF,89,90,160,182.5,192.5,,192.5,112.5,125,-132.5,,125,102.5,,,,102.5,420,1,SBD,Yes,Multi-ply
Melvin Golmond,1989-05-09,16,M,M_TEM_2_AAPF,56.4,60,92.5,105,112.5,,112.5,62.5,-70,70,,70,132.5,147.5,157.5,,157.5,340,1,SBD,Yes,Multi-ply
Houston Whitehead,1988-07-29,17,M,M_TEM_2_AAPF,75,75,-215,215,-240,,215,-140,-145,145,-152.5,145,177.5,-190,190,,190,550,1,SBD,Yes,Multi-ply
Matthew Winchester,,16,M,M_TEM_2_AAPF,73.2,75,170,180,187.5,,187.5,105,115,-122.5,,115,172.5,185,195,,195,497.5,2,SBD,Yes,Multi-ply
Zach Zenzen,1988-07-01,17,M,M_TEM_2_AAPF,89.9,90,230,252.5,260,,260,137.5,150,160,-175,160,217.5,245,257.5,-272.5,257.5,677.5,1,SBD,Yes,Multi-ply
Derek Jones,,17,M,M_TEM_2_AAPF,89.6,90,200,220,240,,240,120,130,137.5,,137.5,220,230,245,,245,622.5,2,SBD,Yes,Multi-ply
Clayton Kinsey,1988-12-30,17,M,M_TEM_2_AAPF,108.4,110,240,250,-257.5,,250,182.5,195,-200,,195,207.5,215,-217.5,,215,660,1,SBD,Yes,Multi-ply
Greg Allen,,17,M,M_TEM_2_AAPF,107.7,110,207.5,227.5,-250,,227.5,142.5,155,162.5,,162.5,202.5,-210,,,202.5,592.5,2,SBD,Yes,Multi-ply
Jason Kimble,1990-01-02,16,M,M_TEM_2_AAPF,114.9,125,170,187.5,192.5,,192.5,105,112.5,120,,120,192.5,217.5,227.5,,227.5,540,1,SBD,Yes,Multi-ply
Daniel Tinajero #1,1987-07-23,18,M,M_TEM_3_AAPF,74.3,75,-252.5,252.5,260,-272.5,260,185,-200,200,-210,200,-237.5,245,-262.5,,245,705,1,SBD,Yes,Multi-ply
Alex Porcuna,,18,M,M_TEM_3_AAPF,78.1,82.5,107.5,117.5,-130,,117.5,82.5,85,-92.5,,85,160,165,-167.5,,165,367.5,1,SBD,Yes,Multi-ply
Joshua Morris,1987-08-12,18,M,M_TEM_3_AAPF,84,90,272.5,-287.5,-287.5,,272.5,165,-185,185,,185,210,227.5,-237.5,,227.5,685,1,SBD,Yes,Multi-ply
Jeffrey Sagor,1987-12-28,18,M,M_TEM_3_AAPF,88.6,90,155,175,185,,185,75,85,95,,95,150,167.5,185,,185,465,2,SBD,Yes,Multi-ply
Jon Jursich,1986-07-07,19,M,M_TEM_3_AAPF,107.9,110,-222.5,222.5,-240,,222.5,135,140,142.5,,142.5,157.5,170,185,,185,550,1,SBD,Yes,Multi-ply
Anthony Galczak,1987-12-15,18,M,M_TEM_3_AAPF,121.6,125,217.5,245,257.5,,257.5,160,180,185,-195,185,230,245,257.5,,257.5,700,1,SBD,Yes,Multi-ply
Matt Arman,1987-06-29,18,M,M_TEM_3_AAPF,135.7,140,-305,305,322.5,,322.5,215,230,245,,245,227.5,245,-255,,245,812.5,1,SBD,Yes,Multi-ply
Darrell Garvey Jr,,19,M,M_TEM_3_AAPF,142.2,140+,-320,-320,325,365,325,242.5,-260,272.5,-297.5,272.5,215,227.5,-240,,227.5,825,1,SBD,Yes,Multi-ply
John Land,,23,M,M_JEM_AAPF,74.6,75,237.5,260,-282.5,,260,185,200,-210,,200,185,-207.5,207.5,,207.5,667.5,1,SBD,Yes,Multi-ply
Mark Lessmann,1985-08-30,20,M,M_JEM_AAPF,89.8,90,-260,260,-275,,260,192.5,-210,-210,,192.5,215,237.5,-247.5,,237.5,690,1,SBD,Yes,Multi-ply
Daniel Jenkins,1984-11-29,21,M,M_JEM_AAPF,96.8,100,-245,245,-260,,245,160,-167.5,167.5,,167.5,170,185,-200,,185,597.5,1,SBD,Yes,Multi-ply
Chad Briley,1983-06-13,22,M,M_JEM_AAPF,114.9,125,310,-327.5,-327.5,,310,217.5,-242.5,242.5,-250,242.5,227.5,252.5,-265,,252.5,805,1,SBD,Yes,Multi-ply
Charles Morse,1966-07-05,39,M,M_SEM_AAPF,66.3,67.5,215,227.5,240,250,240,125,135,-145,,135,192.5,-205,205,,205,580,1,SBD,Yes,Multi-ply
Tory Judd,1972-12-26,33,M,M_SEM_AAPF,86.6,90,290,305,-317.5,,305,205,217.5,-222.5,,217.5,255,265,-272.5,,265,787.5,1,SBD,Yes,Multi-ply
Shane Judd,1968-06-24,37,M,M_SEM_AAPF,100.9,110,307.5,320,330,340,330,215,227.5,232.5,,232.5,242.5,250,257.5,,257.5,820,1,SBD,Yes,Multi-ply
Kim Czerwiec,,18,F,F_TEM_3_AAPF,67.6,75,-162.5,-162.5,-172.5,,,,,,,,,,,,,,DQ,SBD,Yes,Multi-ply
Dale Szymanski,1969-12-16,36,M,M_SEM_AAPF,121.6,125,,,,,,240,262.5,272.5,,272.5,,,,,,272.5,1,B,Yes,Multi-ply
David Edmondson,1961-06-06,44,M,M_MEM_1_AAPF,66.5,67.5,,,,,,130,137.5,145,,145,,,,,,145,1,B,Yes,Multi-ply
Dyke Naughton,1964-01-10,42,M,M_MEM_1_AAPF,81,82.5,,,,,,180,197.5,207.5,212.5,207.5,,,,,,207.5,1,B,Yes,Multi-ply
Edward Taber,1965-10-12,40,M,M_MEM_1_AAPF,89.45,90,,,,,,187.5,195,-200,,195,,,,,,195,1,B,Yes,Multi-ply
Terry Mitchell,1965-10-22,40,M,M_MEM_1_AAPF,98.34,100,,,,,,207.5,232.5,240,-250,240,,,,,,240,1,B,Yes,Multi-ply
Dave Murphy #1,1954-12-14,51,M,M_MEM_3_AAPF,108,110,,,,,,197.5,215,220,-240,220,,,,,,220,1,B,Yes,Multi-ply
Floyd Kucharski,1940-05-26,65,M,M_MEM_6_AAPF,107.5,110,,,,,,112.5,-125,130,,130,,,,,,130,1,B,Yes,Multi-ply
Llyod Hemenway,1960-04-19,45,M,M_MEM_2_AAPF,123.28,125,,,,,,255,265,272.5,,272.5,,,,,,272.5,1,B,Yes,Multi-ply
Thomas Nelson,1948-11-24,57,M,M_MEM_4_AAPF,133.4,140,,,,,,197.5,202.5,-207.5,,202.5,,,,,,202.5,1,B,Yes,Multi-ply
David Edmondson,1961-06-06,44,M,M_MEM_1_AAPF,66.5,67.5,220,237.5,247.5,-265,247.5,130,137.5,145,,145,220,230,237.5,,237.5,630,1,SBD,Yes,Multi-ply
Mike Wider,1947-08-29,58,M,M_MEM_4_AAPF,66.2,67.5,172.5,187.5,197.5,,197.5,92.5,100,102.5,,102.5,180,195,205,212.5,205,505,1,SBD,Yes,Multi-ply
Max Bigby,1943-12-17,62,M,M_MEM_5_AAPF,67.4,67.5,155,185,192.5,,192.5,75,85,92.5,,92.5,145,160,182.5,,182.5,467.5,1,SBD,Yes,Multi-ply
Richard Flores #1,1938-01-26,68,M,M_MEM_6_AAPF,74.1,75,212.5,235,250,,250,110,115,117.5,,117.5,215,235,-245,,235,602.5,1,SBD,Yes,Multi-ply
Steve Lumpe,1960-05-28,45,M,M_MEM_2_AAPF,75,75,235,-252.5,-252.5,,235,115,145,155,,155,182.5,200,210,,210,600,1,SBD,Yes,Multi-ply
Greg Sagor,1955-02-15,51,M,M_MEM_3_AAPF,72.1,75,132.5,150,167.5,,167.5,60,75,85,,85,137.5,155,172.5,,172.5,425,1,SBD,Yes,Multi-ply
Michael Larsen,1959-07-26,46,M,M_MEM_2_AAPF,74.5,75,182.5,-205,-205,,182.5,77.5,85,-90,,85,167.5,180,-190,,180,447.5,2,SBD,Yes,Multi-ply
Gordon Wolfe,1953-06-29,52,M,M_MEM_3_AAPF,80.5,82.5,237.5,260,270,,270,130,142.5,152.5,,152.5,205,232.5,235,,235,657.5,1,SBD,Yes,Multi-ply
Francis Rudy Ruettiger,1954-06-11,51,M,M_MEM_3_AAPF,82,82.5,260,-277.5,,,260,142.5,-157.5,-160,,142.5,142.5,217.5,,,217.5,620,2,SBD,Yes,Multi-ply
Dyke Naughton,1964-01-10,42,M,M_MEM_1_AAPF,81,82.5,212.5,240,-260,,240,180,197.5,207.5,212.5,207.5,160,177.5,190,,190,637.5,1,SBD,Yes,Multi-ply
Jim Sorrell,1959-06-03,46,M,M_MEM_2_AAPF,81,82.5,215,227.5,-235,,227.5,175,182.5,187.5,-192.5,187.5,180,187.5,192.5,,192.5,607.5,1,SBD,Yes,Multi-ply
Ron Zeller,1933-01-17,73,M,M_MEM_7_AAPF,81.4,82.5,-75,90,110,,110,-65,75,-85,,75,-105,115,137.5,,137.5,322.5,1,SBD,Yes,Multi-ply
Dick Zenzen,1952-05-21,53,M,M_MEM_3_AAPF,99.9,100,275,307.5,-327.5,,307.5,160,-172.5,-182.5,,160,205,230,247.5,,247.5,715,1,SBD,Yes,Multi-ply
Terry Mitchell,1965-10-22,40,M,M_MEM_1_AAPF,98.34,100,227.5,260,-272.5,,260,207.5,232.5,240,-250,240,185,195,205,,205,705,1,SBD,Yes,Multi-ply
Edward Brown,1939-07-26,66,M,M_MEM_6_AAPF,93.3,100,142.5,160,175,,175,115,125,132.5,137.5,132.5,92.5,110,125,,125,432.5,1,SBD,Yes,Multi-ply
Larry Sandberg,1940-04-26,65,M,M_MEM_6_AAPF,107.86,110,215,237.5,,,237.5,177.5,195,-205,,195,240,260,,,260,692.5,1,SBD,Yes,Multi-ply
Llyod Hemenway,1960-04-19,45,M,M_MEM_2_AAPF,123.28,125,247.5,262.5,277.5,,277.5,255,265,272.5,,272.5,207.5,217.5,227.5,,227.5,777.5,1,SBD,Yes,Multi-ply
Clay Brandenburg,,,M,M_GEM_AAPF,175,140+,,,,,,367.5,-380,-380,,367.5,,,,,,367.5,G,B,Yes,Multi-ply
Joe Smolinski,1955-02-15,51,M,M_MEM_3_AAPF,109.95,110,282.5,-292.5,297.5,,297.5,-245,-245,-245,,,,,,,,,DQ,SBD,Yes,Multi-ply
James Burdette,1973-08-28,32,M,M_OEM_AAPF,89,90,,,,,,265,272.5,-282.5,,272.5,,,,,,272.5,1,B,Yes,Multi-ply
Jeff Rebera,1968-02-12,38,M,M_OEM_AAPF,89,90,,,,,,210,,,,210,,,,,,210,2,B,Yes,Multi-ply
Anthony Acome,1972-05-30,33,M,M_OEM_AAPF,105.7,110,,,,,,297.5,305,312.5,,312.5,,,,,,312.5,1,B,Yes,Multi-ply
Jason Gibson,1973-08-09,32,M,M_OEM_AAPF,108.5,110,,,,,,235,,,,235,,,,,,235,2,B,Yes,Multi-ply
Dave Murphy #1,,51,M,M_OEM_AAPF,108,110,,,,,,205,215,-227.5,,215,,,,,,215,3,B,Yes,Multi-ply
Floyd Kucharski,1940-05-26,65,M,M_OEM_AAPF,107.5,110,,,,,,112.5,-125,130,,130,,,,,,130,4,B,Yes,Multi-ply
Jason Kollauf,1973-07-04,32,M,M_OEM_AAPF,136.1,140,,,,,,287.5,295,300,-307.5,300,,,,,,300,1,B,Yes,Multi-ply
Robert Johnson,1964-10-28,41,M,M_OEM_AAPF,139.5,140,,,,,,250,-260,-260,,250,,,,,,250,2,B,Yes,Multi-ply
Travis Borstad,1982-03-11,24,M,M_OEM_AAPF,152.1,140+,,,,,,257.5,-272.5,272.5,,272.5,,,,,,272.5,1,B,Yes,Multi-ply
Andrew Stomberg,1974-06-29,31,M,M_OEM_AAPF,157.6,140+,,,,,,-250,250,-267.5,,250,,,,,,250,2,B,Yes,Multi-ply
Dawn Morrison,1978-07-11,27,F,F_OEM_AAPF,59.4,60,95,-125,125,,125,72.5,77.5,82.5,,82.5,117.5,-127.5,-135,,117.5,325,1,SBD,Yes,Multi-ply
Shelly Pier,1974-05-26,31,F,F_OEM_AAPF,74.6,75,-190,-190,190,,190,107.5,-115,115,122.5,115,145,-162.5,-162.5,,145,450,1,SBD,Yes,Multi-ply
Robert Blunschi,1986-04-04,20,M,M_OEM_AAPF,66.3,67.5,-195,-195,195,,195,-115,-115,115,,115,185,205,-220,,205,515,1,SBD,Yes,Multi-ply
Devin Cagnolatti,1973-05-04,32,M,M_OEM_AAPF,74.9,75,-305,310,-320,,310,-215,215,-227.5,,215,227.5,247.5,-270,,247.5,772.5,1,SBD,Yes,Multi-ply
John Land,1983-01-03,23,M,M_OEM_AAPF,74.6,75,237.5,260,-282.5,,260,185,200,-210,,200,185,-207.5,207.5,,207.5,667.5,2,SBD,Yes,Multi-ply
Jeff Rebera,1968-02-12,38,M,M_OEM_AAPF,89,90,292.5,315,327.5,,327.5,210,-220,220,,220,245,257.5,272.5,,272.5,820,1,SBD,Yes,Multi-ply
Ronnie Paras,1962-01-10,44,M,M_OEM_AAPF,89.4,90,-330,330,-365,,330,215,230,-235,,230,245,260,-265,,260,820,2,SBD,Yes,Multi-ply
Evan Arntzen,1972-10-26,33,M,M_OEM_AAPF,97.4,100,312.5,345,-362.5,,345,200,212.5,217.5,,217.5,262.5,277.5,-282.5,,277.5,840,1,SBD,Yes,Multi-ply
John Clay,1980-09-18,25,M,M_OEM_AAPF,98.4,100,232.5,242.5,250,,250,165,175,182.5,,182.5,205,-215,-215,,205,637.5,2,SBD,Yes,Multi-ply
Anthony Acome,1972-05-30,33,M,M_OEM_AAPF,105.7,110,380,-392.5,400,,400,297.5,305,-312.5,,305,282.5,295,300,,300,1005,1,SBD,Yes,Multi-ply
Jason Gibson,1973-08-09,32,M,M_OEM_AAPF,108.5,110,352.5,370,377.5,,377.5,235,245,-250,,245,272.5,292.5,-312.5,,292.5,915,2,SBD,Yes,Multi-ply
Jo Jordan,1973-08-31,32,M,M_OEM_AAPF,106.9,110,355,-375,-387.5,,355,-237.5,237.5,247.5,,247.5,255,272.5,277.5,,277.5,880,3,SBD,Yes,Multi-ply
Joe Atef,1976-09-11,29,M,M_OEM_AAPF,108.3,110,325,-345,-345,,325,205,225,232.5,,232.5,250,272.5,-282.5,,272.5,830,4,SBD,Yes,Multi-ply
Brian Yourist,1980-05-17,25,M,M_OEM_AAPF,109,110,275,290,300,,300,185,195,207.5,,207.5,255,265,-272.5,,265,772.5,5,SBD,Yes,Multi-ply
Ray Makiejus,1979-07-27,26,M,M_OEM_AAPF,105,110,292.5,-322.5,-340,,292.5,185,192.5,200,,200,245,272.5,-282.5,,272.5,765,6,SBD,Yes,Multi-ply
Toby Irby,1974-05-06,31,M,M_OEM_AAPF,113.7,125,410,-442.5,-442.5,,410,250,265,275,,275,272.5,305,-320,,305,990,1,SBD,Yes,Multi-ply
Bob Bierschbach,1968-07-12,37,M,M_OEM_AAPF,134.5,140,320,345,-365,,345,220,230,-240,,230,267.5,282.5,292.5,,292.5,867.5,1,SBD,Yes,Multi-ply
Chris Moore,,25,M,M_OEM_AAPF,161.75,140+,410,-430,-430,,410,275,295,-310,,295,275,287.5,295,,295,1000,1,SBD,Yes,Multi-ply
Darrell Garvey Jr,1987-02-15,19,M,M_OEM_AAPF,142.2,140+,-320,-320,325,365,325,242.5,-260,272.5,-297.5,272.5,215,227.5,-240,,227.5,825,2,SBD,Yes,Multi-ply
Shawna Mendelson,,,F,F_OEM_AAPF,67.7,75,-215,-215,-215,,,-125,-137.5,-152.5,,,,,,,,,DQ,SBD,Yes,Multi-ply
Kyle Kirby #2,1984-06-03,21,M,M_OEM_AAPF,80.4,82.5,-282.5,-282.5,-282.5,,,,,,,,,,,,,,DQ,SBD,Yes,Multi-ply
Martin Hardy,1979-02-13,27,M,M_OEM_AAPF,74,75,-295,-295,-295,,,,,,,,,,,,,,DQ,SBD,Yes,Multi-ply
