Name,WeightClassKg,Division,AgeRange,Sex,Best3SquatKg,Squat4Kg,Best3BenchKg,Best3DeadliftKg,Deadlift4Kg,TotalKg,Event,Equipment,Place
Claudia Valdiviez,48,Open,,F,150,,75,142.5,,367.5,SBD,Single-ply,1
Ruth Benjamin,52,Open,,F,102.5,,52.5,110,,265,SBD,Single-ply,1
Mary Hetzel,56,Open,,F,137.5,,75,137.5,,350,SBD,Single-ply,1
C. McGowan,67.5,Open,,F,135,,75,130,,340,SBD,Single-ply,1
K. Greb,75,Open,,F,117.5,,72.5,115,,305,SBD,Single-ply,1
C. Edmondson,82.5,Open,,F,147.5,,80,165,,392.5,SBD,Single-ply,1
J. Rossow,90,Open,,F,155,,80,145,,380,SBD,Single-ply,1
S. Edmondson,90+,Open,,F,170,,100,137.5,,407.5,SBD,Single-ply,1
R. Daniels,44,Pure,,F,107.5,,55,85,,247.5,SBD,Single-ply,1
Claudia Valdiviez,48,Pure,,F,150,,75,142.5,,367.5,SBD,Single-ply,1
Mary Hetzel,56,Pure,,F,137.5,,75,137.5,,350,SBD,Single-ply,1
C. Lawton,56,Pure,,F,97.5,,47.5,112.5,,257.5,SBD,Single-ply,2
L. Edwards,56,Pure,,F,100,,52.5,100,,252.5,SBD,Single-ply,3
J. Roberts,56,Pure,,F,95,,40,110,,245,SBD,Single-ply,4
R. Jordan,56,Pure,,F,95,,40,105,,240,SBD,Single-ply,5
B. Miller #6,60,Pure,,F,142.5,,72.5,165,,380,SBD,Single-ply,1
C. Wilder,60,Pure,,F,97.5,,55,132.5,,285,SBD,Single-ply,2
P. Campbell,60,Pure,,F,110,,52.5,117.5,,280,SBD,Single-ply,3
R. Neff,60,Pure,,F,92.5,,47.5,122.5,,262.5,SBD,Single-ply,4
Cyndie McGowan,67.5,Pure,,F,135,,75,130,,340,SBD,Single-ply,1
M. Friz,67.5,Pure,,F,137.5,,70,132.5,,340,SBD,Single-ply,2
Ronda Love,75,Pure,,F,125,,52.5,137.5,,315,SBD,Single-ply,1
K. Greb,75,Pure,,F,117.5,,72.5,115,,305,SBD,Single-ply,2
L. Scott,82.5,Pure,,F,150,,67.5,142.5,,360,SBD,Single-ply,1
Valerie Perry,90+,Pure,,F,210,220,110,227.5,,547.5,SBD,Single-ply,1
P. Davis,56,High School,13-19,F,107.5,,45,125,,277.5,SBD,Single-ply,1
C. Edmondson,82.5,High School,13-19,F,147.5,,80,165,,392.5,SBD,Single-ply,1
S. Edmondson,90+,High School,13-19,F,170,,100,137.5,,407.5,SBD,Single-ply,1
C. Edmondson,82.5,Teen,13-19,F,147.5,,80,165,,392.5,SBD,Single-ply,1
S. Edmondson,90+,Teen,13-19,F,170,,100,137.5,,407.5,SBD,Single-ply,1
L. Edwards,56,Pure Novice,,F,82.5,,52.5,100,,235,SBD,Single-ply,1
P. Campbell,60,Submasters,33-39,F,110,,52.5,117.5,,280,SBD,Single-ply,1
Dave Kennedy #1,52,Pure,,M,142.5,,90,145,,377.5,SBD,Single-ply,1
Roosevelt Thomas,52,Pure,,M,177.5,,,,,,SBD,Single-ply,DQ
Joe Denton,60,Pure,,M,192.5,,135,210,,537.5,SBD,Single-ply,1
D. Aleman,60,Pure,,M,182.5,,87.5,217.5,,487.5,SBD,Single-ply,2
J. Schroeder,60,Pure,,M,160,,87.5,200,,447.5,SBD,Single-ply,3
Felix Okafor,67.5,Pure,,M,247.5,,140,257.5,,645,SBD,Single-ply,1
Mark Sigala,67.5,Pure,,M,240,,130,250,,620,SBD,Single-ply,2
Keith Scisney,67.5,Pure,,M,245,,142.5,222.5,,610,SBD,Single-ply,3
Terry Perkins,67.5,Pure,,M,250,,137.5,222.5,,610,SBD,Single-ply,4
L. Fleming,67.5,Pure,,M,225,,145,225,,595,SBD,Single-ply,5
E. Vaughn,67.5,Pure,,M,227.5,,125,227.5,,580,SBD,Single-ply,6
H. Brodhurst,67.5,Pure,,M,225,,102.5,250,,577.5,SBD,Single-ply,7
V. Brown,67.5,Pure,,M,230,,122.5,202.5,,555,SBD,Single-ply,8
G. Graves,67.5,Pure,,M,215,,117.5,222.5,,555,SBD,Single-ply,9
R. Willis,67.5,Pure,,M,197.5,,100,217.5,,515,SBD,Single-ply,10
Joe Schiller,67.5,Pure,,M,197.5,,110,202.5,,510,SBD,Single-ply,11
D. Grant,67.5,Pure,,M,165,,117.5,195,,477.5,SBD,Single-ply,12
J. Jones,67.5,Pure,,M,130,,80,162.5,,372.5,SBD,Single-ply,13
M. Waggoner,67.5,Pure,,M,185,,,,,,SBD,Single-ply,DQ
B. Peace,75,Pure,,M,257.5,,145,227.5,,630,SBD,Single-ply,1
Mike Ewoldsen,75,Pure,,M,257.5,,142.5,222.5,,622.5,SBD,Single-ply,2
M. Arrendell,75,Pure,,M,227.5,,147.5,235,,610,SBD,Single-ply,3
C. Passanante,75,Pure,,M,185,,115,195,,495,SBD,Single-ply,4
Curtis Payne,82.5,Pure,,M,320,322.5,160,320,,800,SBD,Single-ply,1
S. Todd,82.5,Pure,,M,245,,150,227.5,,622.5,SBD,Single-ply,2
R. Sherwood,82.5,Pure,,M,,,,,,,SBD,Single-ply,DQ
Willis McCoy,90,Pure,,M,297.5,,160,317.5,,775,SBD,Single-ply,1
P. Kouf,90,Pure,,M,267.5,,167.5,270,,705,SBD,Single-ply,2
J. Schraub,90,Pure,,M,305,,145,245,,695,SBD,Single-ply,3
T. Dunlap,90,Pure,,M,250,,150,270,,670,SBD,Single-ply,4
B. Van Farowe,90,Pure,,M,252.5,,145,265,,662.5,SBD,Single-ply,5
M. Enochs,90,Pure,,M,262.5,,152.5,245,,660,SBD,Single-ply,6
D. Grimm,90,Pure,,M,227.5,,147.5,250,,625,SBD,Single-ply,7
P. Jenkins,90,Pure,,M,227.5,,140,235,,602.5,SBD,Single-ply,8
Kent Johnson,100,Pure,,M,335,,182.5,340,,857.5,SBD,Single-ply,1
R. Tucker,100,Pure,,M,307.5,,155,302.5,,765,SBD,Single-ply,2
J. Bockoven,100,Pure,,M,260,,162.5,280,,702.5,SBD,Single-ply,3
Larry Ventress,100,Pure,,M,282.5,,145,265,,692.5,SBD,Single-ply,4
R. King,100,Pure,,M,275,,157.5,257.5,,690,SBD,Single-ply,5
B. Samuels,100,Pure,,M,250,,162.5,260,,672.5,SBD,Single-ply,6
D. Cullinane,100,Pure,,M,265,,152.5,242.5,,660,SBD,Single-ply,7
E. Payne,100,Pure,,M,240,,162.5,255,,657.5,SBD,Single-ply,8
Earl Hammons,110,Pure,,M,327.5,,185,277.5,,790,SBD,Single-ply,1
Joe Dentice,110,Pure,,M,280,,182.5,290,,752.5,SBD,Single-ply,2
Dave Kraft,110,Pure,,M,275,,172.5,285,,732.5,SBD,Single-ply,3
J. Taylor,110,Pure,,M,282.5,,170,272.5,,725,SBD,Single-ply,4
S. Sherill,110,Pure,,M,282.5,,157.5,272.5,,712.5,SBD,Single-ply,5
K. Thomas,110,Pure,,M,275,,172.5,257.5,,705,SBD,Single-ply,7
R. Hill,110,Pure,,M,287.5,,165,237.5,,690,SBD,Single-ply,8
B. Harrington,110,Pure,,M,227.5,,157.5,272.5,,657.5,SBD,Single-ply,6
L. Foreman,110,Pure,,M,,,,,,,SBD,Single-ply,DQ
David Reece,125,Pure,,M,347.5,,243.5,282.5,,873.5,SBD,Single-ply,1
Glenn Pendlay,125,Pure,,M,315,,187.5,270,,772.5,SBD,Single-ply,2
Nehumi Tuihalamaka,125+,Pure,,M,395,,195,285,,875,SBD,Single-ply,1
B. Anderson,125+,Pure,,M,287.5,,200,302.5,,790,SBD,Single-ply,2
David Oyler,125+,Pure,,M,317.5,,172.5,275,,765,SBD,Single-ply,3
M. Mitchell,125+,Pure,,M,290,,167.5,242.5,,700,SBD,Single-ply,4
T. Lohrmann,125+,Pure,,M,287.5,,172.5,232.5,,692.5,SBD,Single-ply,5
Robert Trujillo,60,Natural,,M,110,,80,165,,355,SBD,Single-ply,1
L. Fleming,67.5,Natural,,M,225,,145,225,,595,SBD,Single-ply,1
E. Vaughn,67.5,Natural,,M,227.5,,125,227.5,,580,SBD,Single-ply,2
H. Brodhurst,67.5,Natural,,M,225,,102.5,250,,577.5,SBD,Single-ply,3
G. Graves,67.5,Natural,,M,215,,117.5,222.5,,555,SBD,Single-ply,5
Phillip Trujillo,67.5,Natural,,M,200,,137.5,205,,542.5,SBD,Single-ply,4
Fred Toins,75,Natural,,M,290,,170,282.5,,742.5,SBD,Single-ply,1
C. DeFracisco,75,Natural,,M,227.5,,137.5,200,,565,SBD,Single-ply,2
Donnie Cole,82.5,Natural,,M,306,,132.5,287.5,,726,SBD,Single-ply,1
Peter Ireland,82.5,Natural,,M,280,,187.5,242.5,,710,SBD,Single-ply,2
S. Scott,82.5,Natural,,M,230,,137.5,242.5,,610,SBD,Single-ply,3
S. Dain,82.5,Natural,,M,205,,127.5,215,,547.5,SBD,Single-ply,4
Willis McCoy,90,Natural,,M,297.5,,160,317.5,,775,SBD,Single-ply,1
Hugh Dunagan,90,Natural,,M,295,,175,302.5,,772.5,SBD,Single-ply,2
T. Dunlap,90,Natural,,M,250,,150,270,,670,SBD,Single-ply,3
B. Van Farowe,90,Natural,,M,252.5,,145,265,,662.5,SBD,Single-ply,4
P. Jenkins,90,Natural,,M,227.5,,140,235,,602.5,SBD,Single-ply,5
Kent Johnson,100,Natural,,M,335,,182.5,340,,857.5,SBD,Single-ply,1
John Hoffmann,100,Natural,,M,340,,205,315,,860,SBD,Single-ply,2
R. King,100,Natural,,M,275,,157.5,257.5,,690,SBD,Single-ply,3
E. Payne,100,Natural,,M,240,,162.5,255,,657.5,SBD,Single-ply,4
B. Bales,100,Natural,,M,227.5,,132.5,192.5,,552.5,SBD,Single-ply,5
D. Medina,100,Natural,,M,245,,,,,,SBD,Single-ply,DQ
Dave Gonzales,110,Natural,,M,332.5,,200,275,,807.5,SBD,Single-ply,1
D. Connell,110,Natural,,M,325,,170,297.5,,792.5,SBD,Single-ply,2
Steve Rodenberg,110,Natural,,M,280,,172.5,282.5,,735,SBD,Single-ply,3
M. Farney,110,Natural,,M,277.5,,165,265,,707.5,SBD,Single-ply,4
B. Harrington,110,Natural,,M,227.5,,157.5,265,,650,SBD,Single-ply,5
G. Bunck,110,Natural,,M,67.5,,95,67.5,,230,SBD,Single-ply,6
Scott Edmiston,125,Natural,,M,332.5,,220,320,,872.5,SBD,Single-ply,1
Tom Allen,125,Natural,,M,355,,227.5,277.5,,860,SBD,Single-ply,3
Scott Stoughton,125,Natural,,M,325,,197.5,297.5,,820,SBD,Single-ply,2
David Oyler,125+,Natural,,M,317.5,,172.5,275,,765,SBD,Single-ply,1
G. Young,52,Pure Novice,,M,172.5,,97.5,172.5,,442.5,SBD,Single-ply,1
J. Mann,60,Pure Novice,,M,135,,95,152.5,,382.5,SBD,Single-ply,1
C. Bailey,60,Pure Novice,,M,137.5,,82.5,147.5,,367.5,SBD,Single-ply,2
V. Brown,67.5,Pure Novice,,M,230,,122.5,202.5,,555,SBD,Single-ply,1
Joe Schiller,67.5,Pure Novice,,M,197.5,,110,202.5,,510,SBD,Single-ply,2
D. Grant,67.5,Pure Novice,,M,182.5,,117.5,195,,495,SBD,Single-ply,3
B. Peace,75,Pure Novice,,M,257.5,,145,227.5,,630,SBD,Single-ply,1
J. McElroy,75,Pure Novice,,M,235,,152.5,240,,627.5,SBD,Single-ply,2
W. Sabir,75,Pure Novice,,M,210,,152.5,220,,582.5,SBD,Single-ply,3
T. Hylton,75,Pure Novice,,M,210,,110,207.5,,527.5,SBD,Single-ply,4
V. DeAcetis,75,Pure Novice,,M,190,,107.5,217.5,,515,SBD,Single-ply,5
M. Corbell,75,Pure Novice,,M,182.5,,137.5,190,,510,SBD,Single-ply,6
C. Passanante,75,Pure Novice,,M,185,,115,195,,495,SBD,Single-ply,7
T. Brinkley,82.5,Pure Novice,,M,247.5,,160,227.5,,635,SBD,Single-ply,1
D. Gill,82.5,Pure Novice,,M,205,,115,210,,530,SBD,Single-ply,3
J. Henry,82.5,Pure Novice,,M,147.5,,102.5,182.5,,432.5,SBD,Single-ply,2
T. Dunlap,90,Pure Novice,,M,250,,150,270,,670,SBD,Single-ply,1
N. Wheeler,90,Pure Novice,,M,235,,160,260,,655,SBD,Single-ply,2
B. Holmes,90,Pure Novice,,M,255,,127.5,250,,632.5,SBD,Single-ply,3
G. Green,90,Pure Novice,,M,232.5,,145,230,,607.5,SBD,Single-ply,4
P. Jenkins,90,Pure Novice,,M,227.5,,140,235,,602.5,SBD,Single-ply,5
J. Turner,90,Pure Novice,,M,65,,180,65,,310,SBD,Single-ply,6
B. Samuels,100,Pure Novice,,M,250,,162.5,260,,672.5,SBD,Single-ply,1
T. Krisloff,100,Pure Novice,,M,262.5,,155,245,,662.5,SBD,Single-ply,2
A. Schrader,100,Pure Novice,,M,255,,155,230,,640,SBD,Single-ply,3
C. Graham,100,Pure Novice,,M,190,,150,260,,600,SBD,Single-ply,4
C. Cox,100,Pure Novice,,M,200,,122.5,192.5,,515,SBD,Single-ply,5
J. Gochenour,100,Pure Novice,,M,175,,122.5,190,,487.5,SBD,Single-ply,6
Earl Hammons,110,Pure Novice,,M,327.5,,185,277.5,,790,SBD,Single-ply,1
J. Taylor,110,Pure Novice,,M,282.5,,170,272.5,,725,SBD,Single-ply,2
S. Sherill,110,Pure Novice,,M,282.5,,157.5,272.5,,712.5,SBD,Single-ply,3
S. Jones,110,Pure Novice,,M,287.5,,157.5,250,,695,SBD,Single-ply,4
B. Harrington,110,Pure Novice,,M,227.5,,157.5,265,,650,SBD,Single-ply,5
G. Spetnzos,110,Pure Novice,,M,227.5,,140,237.5,,605,SBD,Single-ply,6
L. Foreman,110,Pure Novice,,M,230,,140,227.5,,597.5,SBD,Single-ply,7
S. Raines,110,Pure Novice,,M,200,,112.5,227.5,,540,SBD,Single-ply,8
L. Smith,110,Pure Novice,,M,202.5,,110,172.5,,485,SBD,Single-ply,9
C. Braden,125,Pure Novice,,M,282.5,,167.5,260,,710,SBD,Single-ply,1
F. Harris,125,Pure Novice,,M,245,,187.5,215,,647.5,SBD,Single-ply,2
R Earie,125,Pure Novice,,M,250,,142.5,255,,647.5,SBD,Single-ply,3
E. Martin,125,Pure Novice,,M,237.5,,132.5,225,,595,SBD,Single-ply,4
Viet Tran,56,High School Pure,13-19,M,175,,117.5,210,,502.5,SBD,Single-ply,1
Hien Nguyen,60,High School Pure,13-19,M,220,,127.5,210,,557.5,SBD,Single-ply,1
J. Chapman,90,High School Pure,13-19,M,82.5,,87.5,172.5,,342.5,SBD,Single-ply,1
W. Nightwalker,67.5,Teen,13-19,M,170,,105,230,,505,SBD,Single-ply,1
D. Butler,75,Teen,13-19,M,195,,107.5,227.5,,530,SBD,Single-ply,1
D. Whitt,75,Teen,13-19,M,180,,102.5,235,,517.5,SBD,Single-ply,2
J. Anding,75,Teen,13-19,M,210,,,,,,SBD,Single-ply,DQ
J. Crawford,82.5,Teen,13-19,M,212.5,,130,227.5,,570,SBD,Single-ply,1
B. Weese,82.5,Teen,13-19,M,195,,120,200,,515,SBD,Single-ply,2
K. Coleman,90,Teen,13-19,M,205,,130,212.5,,547.5,SBD,Single-ply,1
Jamie Wymann,100,Teen,13-19,M,265,,160,227.5,,652.5,SBD,Single-ply,1
J. Sowards,100,Teen,13-19,M,275,,155,220,,650,SBD,Single-ply,2
A. Ambeau,67.5,Juniors,20-23,M,227.5,,122.5,245,,595,SBD,Single-ply,1
J. McElroy,75,Juniors,20-23,M,235,,152.5,240,,627.5,SBD,Single-ply,1
C. Passananle,75,Juniors,20-23,M,185,,115,195,,495,SBD,Single-ply,2
M. Schraub,75,Juniors,20-23,M,170,,105,177.5,,452.5,SBD,Single-ply,3
M. Hurl,75,Juniors,20-23,M,25,,135,65,,225,SBD,Single-ply,4
L. Crawford,82.5,Juniors,20-23,M,212.5,,130,227.5,,570,SBD,Single-ply,1
B. Holmes,90,Juniors,20-23,M,255,,127.5,250,,632.5,SBD,Single-ply,1
Glenn Pendlay,100,Juniors,20-23,M,315,,187.5,270,,772.5,SBD,Single-ply,1
C. Braden,100,Juniors,20-23,M,282.5,,167.5,260,,710,SBD,Single-ply,2
L. Madkins,100,Juniors,20-23,M,227.5,,205,270,,702.5,SBD,Single-ply,3
Dave Kennedy #1,52,Submasters,33-39,M,142.5,,90,145,,377.5,SBD,Single-ply,1
Roosevelt Thomas,52,Submasters,33-39,M,177.5,,,,,,SBD,Single-ply,DQ
Dave Wacker,60,Submasters,33-39,M,190,,102.5,200,,492.5,SBD,Single-ply,1
A. Young,60,Submasters,33-39,M,157.5,,117.5,200,,475,SBD,Single-ply,2
J. Shroedr,60,Submasters,33-39,M,160,,87.5,200,,447.5,SBD,Single-ply,3
V. Brown,67.5,Submasters,33-39,M,230,,122.5,202.5,,555,SBD,Single-ply,1
R. Williams,67.5,Submasters,33-39,M,190,,102.5,170,,462.5,SBD,Single-ply,2
Carl Mustari,75,Submasters,33-39,M,245,,162.5,250,,657.5,SBD,Single-ply,1
B. Peace,75,Submasters,33-39,M,257.5,,145,227.5,,630,SBD,Single-ply,2
J. Dawkins,75,Submasters,33-39,M,137.5,,112.5,172.5,,422.5,SBD,Single-ply,3
Donnie Cole,82.5,Submasters,33-39,M,306,,132.5,287.5,,726,SBD,Single-ply,1
J. Laribilk,82.5,Submasters,33-39,M,267.5,,175,242.5,,685,SBD,Single-ply,2
R. Sherwood,82.5,Submasters,33-39,M,227.5,,130,217.5,,575,SBD,Single-ply,3
Willis McCoy,90,Submasters,33-39,M,297.5,,160,317.5,,775,SBD,Single-ply,1
J. Cowan,90,Submasters,33-39,M,260,,125,265,,650,SBD,Single-ply,2
Mike Nichols #1,90,Submasters,33-39,M,237.5,,145,237.5,,620,SBD,Single-ply,3
L. Dauria,90,Submasters,33-39,M,227.5,,145,217.5,,590,SBD,Single-ply,4
E. Rodriguez,90,Submasters,33-39,M,205,,115,220,,540,SBD,Single-ply,5
Robert Puccino,100,Submasters,33-39,M,272.5,,167.5,262.5,,702.5,SBD,Single-ply,1
R. King,100,Submasters,33-39,M,275,,157.5,257.5,,690,SBD,Single-ply,2
E. Payne,100,Submasters,33-39,M,240,,162.5,255,,657.5,SBD,Single-ply,3
M. Bresling,100,Submasters,33-39,M,242.5,,142.5,227.5,,612.5,SBD,Single-ply,4
L. Lewis,100,Submasters,33-39,M,210,,155,220,,585,SBD,Single-ply,5
D. Medina,100,Submasters,33-39,M,245,,,,,,SBD,Single-ply,DQ
Joe Dentice,110,Submasters,33-39,M,280,,182.5,290,310,752.5,SBD,Single-ply,1
M. Farney,110,Submasters,33-39,M,277.5,,165,265,,707.5,SBD,Single-ply,2
S. Jones,110,Submasters,33-39,M,287.5,,157.5,250,,695,SBD,Single-ply,3
T. Ross,110,Submasters,33-39,M,270,,152.5,240,,662.5,SBD,Single-ply,4
R. Kroeger,110,Submasters,33-39,M,252.5,,155,250,,657.5,SBD,Single-ply,5
P. Snedeker,110,Submasters,33-39,M,200,,125,205,,530,SBD,Single-ply,6
G. Tate,110,Submasters,33-39,M,185,,80,170,,435,SBD,Single-ply,7
Willie Tolbert,125,Submasters,33-39,M,312.5,,227.5,297.5,,837.5,SBD,Single-ply,1
J. Tout,125,Submasters,33-39,M,282.5,,175,272.5,,730,SBD,Single-ply,2
M. Carney,125+,Submasters,33-39,M,282.5,,172.5,250,,705,SBD,Single-ply,1
T. Buford,125+,Submasters,33-39,M,272.5,,172.5,250,,695,SBD,Single-ply,2
T. Lorhmann,125+,Submasters,33-39,M,287.5,,172.5,232.5,,692.5,SBD,Single-ply,3
Robert Trujillo,60,Masters 1,40-49,M,110,,80,165,,355,SBD,Single-ply,1
Phillip Trujillo,67.5,Masters 1,40-49,M,200,,137.5,205,,542.5,SBD,Single-ply,1
B. Williams,67.5,Masters 1,40-49,M,157.5,,92.5,200,,450,SBD,Single-ply,2
G. Rich,67.5,Masters 1,40-49,M,145,,100,175,,420,SBD,Single-ply,3
D. Rhodes,75,Masters 1,40-49,M,235,,140,250,,625,SBD,Single-ply,1
Chip McCain,82.5,Masters 1,40-49,M,235,,142.5,240,,617.5,SBD,Single-ply,1
J. Koplin,82.5,Masters 1,40-49,M,202.5,,142.5,215,,560,SBD,Single-ply,2
James Christin,82.5,Masters 1,40-49,M,195,,120,227.5,,542.5,SBD,Single-ply,3
J. Stahl,82.5,Masters 1,40-49,M,182.5,,120,200,,502.5,SBD,Single-ply,4
B. Scott,82.5,Masters 1,40-49,M,182.5,,110,205,,497.5,SBD,Single-ply,5
T. Ringle,90,Masters 1,40-49,M,210,,115,210,,535,SBD,Single-ply,1
D. Barnum,90,Masters 1,40-49,M,192.5,,150,172.5,,515,SBD,Single-ply,2
Maurice Smith,90,Masters 1,40-49,M,175,,110,165,,450,SBD,Single-ply,3
R. Harper,100,Masters 1,40-49,M,250,,162.5,295,,707.5,SBD,Single-ply,1
R. Cobellini,100,Masters 1,40-49,M,272.5,,137.5,270,,680,SBD,Single-ply,2
D. Cullinane,100,Masters 1,40-49,M,265,,152.5,242.5,,660,SBD,Single-ply,3
R. Hill,110,Masters 1,40-49,M,287.5,,165,237.5,,690,SBD,Single-ply,1
K. Walker,110,Masters 1,40-49,M,237.5,,142.5,272.5,,652.5,SBD,Single-ply,2
J. Anderson,110,Masters 1,40-49,M,210,,127.5,190,,527.5,SBD,Single-ply,3
L. Smith,110,Masters 1,40-49,M,202.5,,100,172.5,,475,SBD,Single-ply,4
Les Cheney,125,Masters 1,40-49,M,272.5,,185,260,,717.5,SBD,Single-ply,1
E. Smith,125,Masters 1,40-49,M,265,,145,245,,655,SBD,Single-ply,2
B. Woods,125+,Masters 1,40-49,M,260,,175,240,,675,SBD,Single-ply,1
W. Paola,75,Masters 2,50-59,M,145,,127.5,165,,437.5,SBD,Single-ply,1
B. Mayfield,75,Masters 2,50-59,M,142.5,,82.5,175,,400,SBD,Single-ply,2
J. Ites,82.5,Masters 2,50-59,M,150,,125,195,,470,SBD,Single-ply,1
J. Robinson,110,Masters 2,50-59,M,250,,125,232.5,,607.5,SBD,Single-ply,1
B. Shackelford,110,Masters 2,50-59,M,190,,142.5,195,,527.5,SBD,Single-ply,2
R. Ellis,125,Masters 2,50-59,M,247.5,,152.5,235,,635,SBD,Single-ply,1
M. Nelson,125,Masters 2,50-59,M,237.5,,162.5,222.5,,622.5,SBD,Single-ply,2
B. Fellows,125+,Masters 2,50-59,M,245,,120,250,,615,SBD,Single-ply,1
