Place,Sex,Name,Event,Division,WeightClassKg,Equipment,Team,BodyweightKg,Squat1Kg,Squat2Kg,Squat3Kg,Best3SquatKg,Bench1Kg,Bench2Kg,Bench3Kg,Best3BenchKg,Deadlift1Kg,Deadlift2Kg,Deadlift3Kg,Best3DeadliftKg,TotalKg,BirthYear
1,M,Dalton LaCoe,SBD,M-C,53,Single-ply,LWC,52.6,182.5,192.5,197.5,197.5,110,117.5,-122.5,117.5,222.5,-237.5,237.5,237.5,552.5,1995
2,M,Ricky Hu,SBD,M-C,53,Single-ply,ULL,52.6,132.5,140,145,145,102.5,112.5,117.5,117.5,-155,155,167.5,167.5,430,1993
3,M,Derek Ward,SBD,M-C,53,Single-ply,ULL,52.8,137.5,147.5,152.5,152.5,95,100,105,105,137.5,145,152.5,152.5,410,1992
4,M,Mitchell Gonzales,SBD,M-C,53,Single-ply,TAM,52.5,130,-142.5,142.5,142.5,80,-87.5,87.5,87.5,137.5,147.5,-180,147.5,377.5,1995
5,M,Zachary Newman,SBD,M-C,53,Single-ply,USMA,51.7,112.5,127.5,-130,127.5,67.5,80,-87.5,80,120,142.5,152.5,152.5,360,1992
6,M,Connor Gruntz,SBD,M-C,53,Single-ply,LATU,50.7,125,-137.5,-137.5,125,60,65,70,70,115,127.5,137.5,137.5,332.5,1996
7,M,Shahid Kamran,SBD,M-C,53,Single-ply,USNA,51.8,130,132.5,-140,132.5,-92.5,-92.5,-92.5,,135,140,145,145,277.5,
1,M,Josue Leon,SBD,M-C,59,Single-ply,LATU,58.1,190,-202.5,210,210,120,-130,-130,120,227.5,240,242.5,242.5,572.5,1993
2,M,Mario Leos,SBD,M-C,59,Single-ply,UTX,57.9,180,190,192.5,192.5,137.5,145,150.5,150.5,215,-220,-230,215,558,1992
3,M,Isaias Gonzalez,SBD,M-C,59,Single-ply,UHD,57.9,185,-195,-195,185,125,130,135,135,187.5,197.5,207.5,207.5,527.5,1994
4,M,Kudo Jang,SBD,M-C,59,Single-ply,GIT,58.9,175,187.5,192.5,192.5,125,135,-140,135,180,187.5,192.5,192.5,520,1992
5,M,Alan Espinosa,SBD,M-C,59,Single-ply,UTSA,59,170,187.5,-192.5,187.5,102.5,107.5,110,110,195,200,202.5,202.5,500,1995
6,M,Jonathan Blood,SBD,M-C,59,Single-ply,LSU,58.2,177.5,187.5,195,195,87.5,92.5,95,95,180,-192.5,200,200,490,1994
7,M,Mark Barbosa,SBD,M-C,59,Single-ply,TAM,58.2,182.5,187.5,-192.5,187.5,95,102.5,-110,102.5,177.5,185,-190,185,475,1996
8,M,Taskin Amin,SBD,M-C,59,Single-ply,UNT,56.5,175,-192.5,-192.5,175,97.5,105,-112.5,105,192.5,-207.5,-207.5,192.5,472.5,1993
9,M,Matthew Cortez,SB,M-C,59,Single-ply,UAR,58.6,165,-170,170,170,-102.5,-102.5,-102.5,,,,,,170,1995
1,M,Charles Okpoko,SBD,M-C,66,Single-ply,UTX,65.6,-257.5,257.5,270,270,152.5,160,170,170,242.5,260,-275.5,260,700,1995
2,M,Kenny Nguyen,SBD,M-C,66,Single-ply,UHD,65.1,205,227.5,-235,227.5,-205,205,-215,205,205,227.5,-237.5,227.5,660,1995
3,M,Sawyer Yandell,SBD,M-C,66,Single-ply,BLN,65.9,237.5,245,-255,245,-127.5,127.5,137.5,137.5,-235,235,-245,235,617.5,1994
4,M,Henry Hsu,SBD,M-C,66,Single-ply,NEU,65.5,222.5,232.5,-240,232.5,137.5,-145,150,150,220,227.5,-245,227.5,610,1994
5,M,Blake Ricalde,SBD,M-C,66,Single-ply,LSU,65.3,235,-242.5,242.5,242.5,137.5,142.5,-147.5,142.5,215,222.5,-232.5,222.5,607.5,1994
6,M,Jess Rutledge,SBD,M-C,66,Single-ply,UTSA,63.4,210,-225,225,225,125,-132.5,132.5,132.5,205,-215,215,215,572.5,1994
7,M,Teddy Perretti,SBD,M-C,66,Single-ply,USMA,64.8,-205,205,-215,205,-125,-125,125,125,212.5,237.5,-255,237.5,567.5,1994
8,M,Garrett Shantz,SBD,M-C,66,Single-ply,UTSA,65.1,202.5,215,-227.5,215,-132.5,132.5,-137.5,132.5,215,-227.5,-227.5,215,562.5,1996
9,M,Vincent Moon,SBD,M-C,66,Single-ply,USNA,65,182.5,200,210,210,155,-165,-170,155,187.5,-205,-205,187.5,552.5,1994
10,M,Ben Winder,SBD,M-C,66,Single-ply,FGCU,64.5,185,197.5,-207.5,197.5,130,132.5,137.5,137.5,-215,215,-227.5,215,550,1995
11,M,Jerrell Howell,SBD,M-C,66,Single-ply,NCC,65.1,200,217.5,-235,217.5,97.5,-115,120,120,190,205,212.5,212.5,550,1994
12,M,Jeffry Book,SBD,M-C,66,Single-ply,URI,65.2,170,182.5,-195,182.5,120,132.5,140,140,175,190,200,200,522.5,1994
13,M,Jacob Keesee,SBD,M-C,66,Single-ply,TMC,64.4,175,-182.5,190,190,102.5,112.5,120,120,175,185,197.5,197.5,507.5,1995
14,M,Parth Patel,SBD,M-C,66,Single-ply,UTX,64.6,172.5,187.5,197.5,197.5,-105,105,122.5,122.5,-172.5,187.5,-200,187.5,507.5,1995
15,M,Nicholas DeSantis,SBD,M-C,66,Single-ply,NEU,65.3,190,200,205,205,92.5,97.5,105,105,185,197.5,-205,197.5,507.5,1993
16,M,Zach Appelbaum,SBD,M-C,66,Single-ply,PSU,63.8,-175,175,-185,175,115,120,130,130,187.5,200,-210,200,505,
17,M,Ryan Devine,SBD,M-C,66,Single-ply,JC,65,157.5,165,-175,165,117.5,125,127.5,127.5,167.5,172.5,182.5,182.5,475,1994
18,M,Patrick Piedad,SBD,M-C,66,Single-ply,VMI,65.5,145,162.5,-185,162.5,107.5,-112.5,-112.5,107.5,175,-190,190,190,460,1994
19,M,Stephen Guse,SBD,M-C,66,Single-ply,VMI,65,147.5,-165,-165,147.5,115,-122.5,-122.5,115,192.5,-205,-205,192.5,455,1993
20,M,Mitchell Sanchez,SBD,M-C,66,Single-ply,SHSU,65.4,155,170,-180,170,92.5,97.5,102.5,102.5,165,-175,175,175,447.5,1994
1,M,Blake Lehew,SBD,M-C,74,Single-ply,TAM,73.6,260,275,-280,275,192.5,197.5,-207.5,197.5,257.5,267.5,285,285,757.5,1995
2,M,Aaron Pomerantz,SBD,M-C,74,Single-ply,UTX,73.3,237.5,245,262.5,262.5,-230,-230,230,230,227.5,240,-255,240,732.5,1995
3,M,Taylor Nox,SBD,M-C,74,Single-ply,SELU,73.9,245,-260,-260,245,-177.5,177.5,185,185,250,272.5,-280,272.5,702.5,1993
4,M,Benjamin Etringer,SBD,M-C,74,Single-ply,USNA,73.9,260,-275,280,280,165,-175,-175,165,-250,250,-265,250,695,1992
5,M,Thomas Evans,SBD,M-C,74,Single-ply,USMA,73.7,242.5,-260,260,260,152.5,-162.5,-162.5,152.5,250,277.5,-282.5,277.5,690,1991
6,M,Angel Moreno,SBD,M-C,74,Single-ply,UTSA,73.4,242.5,257.5,-265,257.5,175,180,-185,180,225,232.5,237.5,237.5,675,1996
7,M,Andrew Sandoval,SBD,M-C,74,Single-ply,UTSA,72.7,235,-245,-245,235,-185,185,-190,185,237.5,245,-250,245,665,1992
8,M,Ian MacPherson,SBD,M-C,74,Single-ply,BC,73.3,255,267.5,275,275,150,157.5,162.5,162.5,210,227.5,-237.5,227.5,665,1994
9,M,Arthur Bui,SBD,M-C,74,Single-ply,GIT,73.1,247.5,-265,-265,247.5,-155,155,165,165,227.5,247.5,-260,247.5,660,1992
10,M,Neil Steinmetz,SBD,M-C,74,Single-ply,UWPK,73.1,-252.5,252.5,-262.5,252.5,-157.5,157.5,-165,157.5,230,240,245,245,655,1991
11,M,Joe Francisco #2,SBD,M-C,74,Single-ply,USNA,73.3,235,247.5,255,255,-135,135,142.5,142.5,235,-245,250,250,647.5,
12,M,Austin Martin #1,SBD,M-C,74,Single-ply,USMA,71,205,222.5,227.5,227.5,142.5,152.5,-155,152.5,215,250,-257.5,250,630,
13,M,Clinton Kinley,SBD,M-C,74,Single-ply,LSU,73.9,-245,245,-247.5,245,145,152.5,160,160,225,-235,-235,225,630,1996
14,M,James Windham,SBD,M-C,74,Single-ply,LATU,73.4,235,-250,-250,235,162.5,167.5,-170,167.5,220,-227.5,-232.5,220,622.5,1994
15,M,Michael Vecchio #1,SBD,M-C,74,Single-ply,PSU,72.8,227.5,232.5,237.5,237.5,-130,132.5,140,140,235,242.5,-250,242.5,620,1991
16,M,Hugo Ceja,SBD,M-C,74,Single-ply,LMU,73,190,205,220,220,145,150,-155,150,240,-250,-250,240,610,1993
17,M,Nicholas Anzalone,SBD,M-C,74,Single-ply,LSU,73.7,-222.5,225,232.5,232.5,-132.5,132.5,140,140,225,-232.5,-232.5,225,597.5,1994
18,M,Tony Mathews,SBD,M-C,74,Single-ply,IUBL,73.5,200,212.5,220,220,147.5,152.5,157.5,157.5,195,207.5,-220,207.5,585,1995
19,M,Tanner Surratt,SBD,M-C,74,Single-ply,UHD,72,205,-227.5,-227.5,205,140,150,-160,150,205,227.5,-235,227.5,582.5,1994
20,M,Roy Apostle,SBD,M-C,74,Single-ply,NEU,72.8,227.5,-235,235,235,107.5,115,120,120,215,227.5,-237.5,227.5,582.5,1991
21,M,Gustavo Maldonado,SBD,M-C,74,Single-ply,SHSU,72.2,-217.5,217.5,-227.5,217.5,102.5,110,117.5,117.5,220,230,240,240,575,1993
22,M,Jamie Reiss,SBD,M-C,74,Single-ply,ULL,73.4,210,227.5,-240,227.5,-135,135,-140,135,195,212.5,-227.5,212.5,575,1992
23,M,Wilson Yeung,SBD,M-C,74,Single-ply,UGA,71.9,205,-222.5,-222.5,205,135,147.5,160,160,192.5,200,-207.5,200,565,1994
24,M,Brendan Perry,SBD,M-C,74,Single-ply,USNA,73.3,-190,200,205,205,-155,155,160,160,190,200,-212.5,200,565,1992
25,M,Colin Capparelle,SBD,M-C,74,Single-ply,URI,72.6,192.5,202.5,-212.5,202.5,-135,135,-142.5,135,190,200,210,210,547.5,1994
26,M,Michael Lake,SBD,M-C,74,Single-ply,FGCU,73.4,185,195,205,205,140,-147.5,147.5,147.5,185,195,-205,195,547.5,1992
27,M,Daniel Reagan,SBD,M-C,74,Single-ply,URI,73.4,185,-192.5,-192.5,185,115,-120,120,120,215,227.5,-237.5,227.5,532.5,1994
28,M,TJ Binkowski,SBD,M-C,74,Single-ply,USMA,73.5,192.5,-205,205,205,140,-152.5,-152.5,140,180,187.5,-205,187.5,532.5,1994
29,M,Peter Duran,SBD,M-C,74,Single-ply,TAM,70.8,170,182.5,195,195,115,120,122.5,122.5,195,202.5,212.5,212.5,530,
30,M,Micheal Hollar,SBD,M-C,74,Single-ply,USNA,72.7,-155,165,185,185,152.5,-160,-160,152.5,-162.5,185,190,190,527.5,1991
31,M,Joshua Sampsell,SBD,M-C,74,Single-ply,PSU,73.3,195,205,215,215,125,-135,-135,125,175,185,-195,185,525,1993
32,M,Jason Poling,SBD,M-C,74,Single-ply,VMI,73.6,175,187.5,195,195,115,122.5,-132.5,122.5,175,187.5,-195,187.5,505,1995
33,M,Chris Galatoire,SBD,M-C,74,Single-ply,UHD,73,165,-190,-190,165,137.5,-145,-145,137.5,165,182.5,195,195,497.5,
34,M,Dominique Tan,SBD,M-C,74,Single-ply,USMA,73.2,190,-207.5,207.5,207.5,-130,-130,-130,,207.5,-227.5,-227.5,207.5,415,1992
35,M,Jory Heath,SBD,M-C,74,Single-ply,USMA,73.9,-215,-237.5,-237.5,,-165,165,-175,165,227.5,250,-272.5,250,415,1993
1,M,Coy Jorden,SBD,M-C,83,Single-ply,UTSA,82.1,265,-280,290,290,190,195,-200,195,265,280,287.5,287.5,772.5,1996
2,M,Mauricio Valdez,SBD,M-C,83,Single-ply,UTSA,81.9,265,280,285,285,190,195,-200,195,-267.5,270,280,280,760,1994
3,M,James Marcotte,SBD,M-C,83,Single-ply,URI,82.5,260,-272.5,272.5,272.5,215,227.5,-233,227.5,227.5,250,-252.5,250,750,1991
4,M,Michael Pyon,SBD,M-C,83,Single-ply,UTX,81.9,257.5,-272.5,272.5,272.5,190,197.5,-205,197.5,262.5,277.5,-280,277.5,747.5,1991
5,M,Conor Sullivan,SBD,M-C,83,Single-ply,LSU,82.1,265,272.5,275,275,177.5,182.5,185,185,265,-272.5,-272.5,265,725,1993
6,M,James Guillory,SBD,M-C,83,Single-ply,ULL,82.3,230,247.5,-265,247.5,210,225,-235,225,220,242.5,-255,242.5,715,1994
7,M,Synjen Marrocco,SBD,M-C,83,Single-ply,NEU,80.8,265,-280,-285,265,162.5,-167.5,170,170,252.5,265,-280,265,700,1991
8,M,Andrew Reiss,SBD,M-C,83,Single-ply,ULL,81.9,210,230,247.5,247.5,197.5,210,220,220,210,232.5,-240,232.5,700,1994
9,M,Jonathan Voltaire,SBD,M-C,83,Single-ply,TAM,82.1,240,255,265,265,145,157.5,165,165,250,270,-295,270,700,1995
10,M,Khalid Schuler,SBD,M-C,83,Single-ply,UTSA,81.9,260,270,-275,270,140,145,-150,145,-252.5,257.5,270,270,685,1996
11,M,Jeremiah Velasco,SBD,M-C,83,Single-ply,TAM,81.6,237.5,252.5,260,260,142.5,155,-160,155,240,252.5,267.5,267.5,682.5,1995
12,M,Mario Davila,SBD,M-C,83,Single-ply,UTSA,81.7,250,260,272.5,272.5,150,155,162.5,162.5,-225,230,-235,230,665,
13,M,Anthony White #3,SBD,M-C,83,Single-ply,USNA,76.4,227.5,240,-255,240,175,185,192.5,192.5,207.5,217.5,227.5,227.5,660,1992
14,M,Branden Bowers,SBD,M-C,83,Single-ply,LATU,81.6,237.5,252.5,-262.5,252.5,-152.5,152.5,160,160,220,230,245,245,657.5,
15,M,Jonathan Lwowski,SBD,M-C,83,Single-ply,UTSA,81.9,247.5,-252.5,-257.5,247.5,142.5,-152.5,-152.5,142.5,255,267.5,-272.5,267.5,657.5,1994
16,M,Thomas Gottschalk,SBD,M-C,83,Single-ply,URI,82.3,237.5,247.5,-252.5,247.5,165,175,-180,175,-150,180,227.5,227.5,650,1994
17,M,James Faso,SBD,M-C,83,Single-ply,NEU,81.1,222.5,227.5,237.5,237.5,130,135,142.5,142.5,227.5,240,250,250,630,1992
18,M,Yuuki Sato,SBD,M-C,83,Single-ply,NEU,79.4,225,235,245,245,-140,140,147.5,147.5,215,230,-242.5,230,622.5,1994
19,M,Travis Theall,SBD,M-C,83,Single-ply,LSU,80.9,212.5,222.5,235,235,122.5,132.5,142.5,142.5,220,230,240,240,617.5,1995
20,M,Joshua Bowen,SBD,M-C,83,Single-ply,VMI,81.9,215,230,235,235,-137.5,137.5,145,145,230,235,-242.5,235,615,1994
21,M,Christopher Lapniewski,SBD,M-C,83,Single-ply,USM,81.6,-215,217.5,230,230,-147.5,147.5,155,155,215,222.5,227.5,227.5,612.5,1993
22,M,Adam Tuppen,SBD,M-C,83,Single-ply,UTX,81.9,212.5,222.5,232.5,232.5,142.5,152.5,162.5,162.5,-205,215,-227.5,215,610,1994
23,M,Isaac Rynowecer,SBD,M-C,83,Single-ply,NEU,82.4,-212.5,-212.5,212.5,212.5,155,-162.5,-162.5,155,217.5,230,242.5,242.5,610,1993
24,M,Sung Chang,SBD,M-C,83,Single-ply,VMI,81.2,190,200,215,215,-142.5,142.5,150,150,215,230,235,235,600,1994
25,M,Brad Anuszkiewwicz,SBD,M-C,83,Single-ply,VMI,81.3,205,220,230,230,140,-145,145,145,215,225,-227.5,225,600,
26,M,Joshua Williams,SBD,M-C,83,Single-ply,ASU,80,217.5,232.5,240,240,120,130,142.5,142.5,200,212.5,-227.5,212.5,595,1995
27,M,Dominic Russo,SBD,M-C,83,Single-ply,LSU,81.5,225,232.5,-237.5,232.5,142.5,150,-155,150,205,-220,,205,587.5,1994
28,M,Jackson Jennings,SBD,M-C,83,Single-ply,MCKU,82.2,207.5,217.5,220,220,-137.5,142.5,-155,142.5,205,222.5,-230,222.5,585,1995
29,M,Cody Damewood,SBD,M-C,83,Single-ply,VMI,77.9,210,215,-227.5,215,122.5,135,-142.5,135,222.5,232.5,-242.5,232.5,582.5,1994
30,M,Connor Alleman,SBD,M-C,83,Single-ply,LSU,80.8,215,227.5,-242.5,227.5,115,122.5,-132.5,122.5,225,-237.5,-250,225,575,1994
31,M,Wilson Mefford,SBD,M-C,83,Single-ply,NEU,81.1,200,205,215,215,145,-150,-150,145,210,-220,-220,210,570,1992
38,M,John Morrow,SBD,M-C,83,Single-ply,USNA,80.4,265,275,285,285,-152.5,-152.5,-152.5,,-265,-265,265,265,550,1992
32,M,Nathaniel Gardner,SBD,M-C,83,Single-ply,LATU,80.1,-190,190,202.5,202.5,85,-92.5,-92.5,85,242.5,250,260,260,547.5,1995
33,M,Ian Doxsee,SBD,M-C,83,Single-ply,NEU,79.3,207.5,215,-222.5,215,130,135,140,140,190,,,190,545,1992
34,M,Joel Hunter,SBD,M-C,83,Single-ply,USNA,80.7,182.5,192.5,202.5,202.5,-145,145,-155,145,182.5,195,-205,195,542.5,1994
35,M,Eli Carlson,SBD,M-C,83,Single-ply,USNA,77.3,190,197.5,-200,197.5,-125,-125,125,125,205,212.5,-220,212.5,535,1996
36,M,Jordan Larson,SBD,M-C,83,Single-ply,NEU,81.4,-207.5,207.5,-215,207.5,102.5,107.5,-112.5,107.5,192.5,202.5,207.5,207.5,522.5,1994
37,M,Ryan Johnson,SBD,M-C,83,Single-ply,ULL,79.3,170,182.5,195,195,110,120,130,130,160,175,192.5,192.5,517.5,2001
39,M,Blaise Badway,SBD,M-C,83,Single-ply,USMA,80.5,192.5,205,-227.5,205,-142.5,-142.5,-142.5,,227.5,250,-260,250,455,1993
40,M,Bret Wagner,SBD,M-C,83,Single-ply,USAFA,81.6,180,190,,190,130,137.5,142.5,142.5,-190,-190,,,332.5,1996
41,M,Scott Conway,SB,M-C,83,Single-ply,NEU,82.1,260,-267.5,-267.5,260,-142.5,-142.5,-142.5,,,,,,260,1992
1,M,Curt Allen,SBD,M-C,93,Single-ply,USNA,92,290,305,-320,305,227.5,235,240,240,275,282.5,295,295,840,1992
2,M,James Rigsby,SBD,M-C,93,Single-ply,FGCU,88.8,307.5,320,-327.5,320,-220,-220,220,220,272.5,287.5,-300,287.5,827.5,1995
3,M,Jordan Glenn,SBD,M-C,93,Single-ply,SHSU,88.1,282.5,292.5,300,300,-200,200,207.5,207.5,300,312.5,-320,312.5,820,1993
4,M,Abram Guerra,SBD,M-C,93,Single-ply,TAM,91.3,295,-317.5,-317.5,295,-210,220,-230,220,262.5,282.5,-290,282.5,797.5,1995
5,M,Bryson Randall,SBD,M-C,93,Single-ply,USMA,91.2,262.5,277.5,282.5,282.5,192.5,207.5,215,215,265,280,297.5,297.5,795,1994
6,M,Michael Davis #1,SBD,M-C,93,Single-ply,UTX,92,290,302.5,317.5,317.5,172.5,182.5,-187.5,182.5,295,-307.5,-307.5,295,795,1995
7,M,Thomas Reilly,SBD,M-C,93,Single-ply,NEU,90.8,285,300,310,310,180,187.5,192.5,192.5,240,252.5,265,265,767.5,1992
8,M,Landon Chastant,SBD,M-C,93,Single-ply,LSU,90.3,-275,-275,275,275,182.5,190,-197.5,190,-285,-285,285,285,750,1991
9,M,Christian Baldoni,SBD,M-C,93,Single-ply,PSU,89.3,280,-292.5,292.5,292.5,190,-197.5,-197.5,190,237.5,250,-257.5,250,732.5,1993
10,M,Tyler Martinez,SBD,M-C,93,Single-ply,ULL,90.4,237.5,250,262.5,262.5,182.5,190,197.5,197.5,230,255,-260,255,715,1992
11,M,Clayton Barone,SBD,M-C,93,Single-ply,USMA,92.7,-245,245,-272.5,245,187.5,192.5,195,195,-250,257.5,-272.5,257.5,697.5,1992
12,M,Johnny Villani,SBD,M-C,93,Single-ply,VMI,92.6,-255,-255,255,255,155,-167.5,-167.5,155,252.5,272.5,282.5,282.5,692.5,1992
13,M,Carter Fitzgerald,SBD,M-C,93,Single-ply,UGA,90,235,247.5,255,255,145,162.5,-175,162.5,250,265,272.5,272.5,690,1995
14,M,Nicolas Recio,SBD,M-C,93,Single-ply,TAM,90.7,225,240,257.5,257.5,175,180,185,185,225,247.5,-260,247.5,690,1995
15,M,Eric Johnson,SBD,M-C,93,Single-ply,VMI,87.8,260,272.5,-287.5,272.5,-170,170,-177.5,170,237.5,-272.5,-272.5,237.5,680,1996
16,M,Leonidas Brooks,SBD,M-C,93,Single-ply,LATU,87.8,230,245,-252.5,245,-185,-185,185,185,237.5,245,-262.5,245,675,1995
17,M,Spencer Grubb,SBD,M-C,93,Single-ply,FGCU,88.9,245,-255,,245,-165,-170,170,170,-227.5,240,257.5,257.5,672.5,1994
18,M,Devin Lane,SBD,M-C,93,Single-ply,NEU,88.9,242.5,252.5,257.5,257.5,160,165,170,170,235,-240,240,240,667.5,1995
19,M,Alex Harbeson,SBD,M-C,93,Single-ply,USNA,92.3,245,255,-262.5,255,165,175,185,185,202.5,215,-225,215,655,1992
20,M,Carter Burn,SBD,M-C,93,Single-ply,USNA,91.5,215,230,235,235,130,140,-150,140,250,260,272.5,272.5,647.5,1996
21,M,Alex Vignone,SBD,M-C,93,Single-ply,PSU,91,232.5,242.5,255,255,145,147.5,150,150,220,235,-247.5,235,640,1994
22,M,Bohao Cheng,SBD,M-C,93,Single-ply,TAM,92,232.5,-250,250,250,145,-155,-155,145,225,240,-250,240,635,1994
23,M,Horacio Cortez,SBD,M-C,93,Single-ply,LATU,92.5,237.5,-252.5,-262.5,237.5,147.5,-155,-155,147.5,242.5,250,-265,250,635,1991
24,M,Hunter Scothorn,SBD,M-C,93,Single-ply,VMI,86.6,-207.5,-207.5,207.5,207.5,142.5,150,160,160,250,262.5,-272.5,262.5,630,1993
25,M,Brandon Noble,SBD,M-C,93,Single-ply,LSU,89.7,215,222.5,230,230,-152.5,152.5,-157.5,152.5,215,225,235,235,617.5,1995
26,M,Craig Welniak,SBD,M-C,93,Single-ply,USNA,89.8,-210,220,-235,220,130,140,-145,140,237.5,247.5,257.5,257.5,617.5,1994
27,M,Korneljus Barsauskas,SBD,M-C,93,Single-ply,NEU,91.9,245,252.5,-257.5,252.5,147.5,-152.5,-152.5,147.5,217.5,-227.5,-227.5,217.5,617.5,
28,M,Sean Peace,SBD,M-C,93,Single-ply,UHD,92.5,192.5,-212.5,220,220,142.5,155,-167.5,155,212.5,227.5,237.5,237.5,612.5,1994
29,M,Seth Watlington,SBD,M-C,93,Single-ply,USNA,86.6,215,-225,230,230,135,145,-150,145,-235,235,-242.5,235,610,1994
30,M,Cooper Lemoine,SBD,M-C,93,Single-ply,LSU,90.4,-215,215,222.5,222.5,155,-165,-165,155,212.5,227.5,-237.5,227.5,605,1995
31,M,Thomas Keogh,SBD,M-C,93,Single-ply,PSU,90.9,187.5,197.5,205,205,137.5,145,-152.5,145,215,227.5,237.5,237.5,587.5,1994
32,M,Alex Pihlak,SBD,M-C,93,Single-ply,PSU,92,187.5,197.5,-210,197.5,-132.5,135,142.5,142.5,217.5,230,242.5,242.5,582.5,1991
33,M,Ian Gardocki,SBD,M-C,93,Single-ply,PSU,87.9,197.5,205,-212.5,205,135,142.5,150,150,217.5,225,-232.5,225,580,1992
34,M,Al Roth,SBD,M-C,93,Single-ply,URI,91.1,260,-267.5,-267.5,260,85,112.5,-150,112.5,100,150,200,200,572.5,1993
35,M,Gage Bush,SBD,M-C,93,Single-ply,MCKU,92,182.5,-192.5,-192.5,182.5,137.5,145,155,155,205,222.5,-240,222.5,560,1995
41,M,Richard Peña Jr,SBD,M-C,93,Single-ply,UTSA,91.7,-317.5,325,-327.5,325,217.5,-235,235,235,-265,-265,-265,,560,1994
36,M,Ivan Gomez,SBD,M-C,93,Single-ply,UHD,90.3,192.5,-215,-215,192.5,145,152.5,165,165,182.5,190,-205,190,547.5,1995
40,M,Matt Cassista,SBD,M-C,93,Single-ply,NEU,91.6,305,315,320,320,-200,200,207.5,207.5,-280,-290,-290,,527.5,1992
37,M,Fernando Delarosa,SBD,M-C,93,Single-ply,USNA,89.7,220,-230,-230,220,-145,-145,-145,,215,-225,-225,215,435,
42,M,Gabe Emerson,SBD,M-C,93,Single-ply,LSU,92.1,-250,-250,-250,,135,140,-145,140,-260,-260,260,260,400,
38,M,Morgan Menaker,SBD,M-C,93,Single-ply,VMI,90,-215,-237.5,-237.5,,127.5,142.5,150,150,227.5,242.5,-260,242.5,392.5,1995
39,M,Andrew Bator,SB,M-C,93,Single-ply,BU,90.6,285,-300,-300,285,-205,-205,-205,,,,,,285,1996
1,M,Nathan Westbrook,SBD,M-C,105,Single-ply,TAM,101.8,310,320,-330,320,225,235,242.5,242.5,302.5,322.5,-330,322.5,885,1992
2,M,Mitchell Fountain,SBD,M-C,105,Single-ply,LSU,101.5,-327.5,327.5,337.5,337.5,-197.5,197.5,207.5,207.5,317.5,-335,-340,317.5,862.5,1995
3,M,Brennan Riche,SBD,M-C,105,Single-ply,ULL,104.7,292.5,312.5,322.5,322.5,-230,230,242.5,242.5,255,275,-300,275,840,1992
4,M,Jordan Plantiko,SBD,M-C,105,Single-ply,UWW,93.5,300,315,325,325,197.5,212.5,220,220,292.5,-307.5,-310,292.5,837.5,1996
5,M,Connor Senft,SBD,M-C,105,Single-ply,PSU,101.2,-317.5,332.5,-342.5,332.5,247.5,252.5,257.5,257.5,227.5,242.5,-247.5,242.5,832.5,1993
6,M,Jacob Weiss,SBD,M-C,105,Single-ply,USMA,101.4,282.5,-300,-300,282.5,227.5,242.5,-257.5,242.5,272.5,-295,-310,272.5,797.5,1995
7,M,Ruben Sanchez,SBD,M-C,105,Single-ply,UTT,104.4,245,265,277.5,277.5,190,202.5,220,220,240,267.5,285,285,782.5,1994
8,M,George Pena,SBD,M-C,105,Single-ply,UTSA,103,287.5,-305,-305,287.5,202.5,215,-225,215,262.5,272.5,-282.5,272.5,775,1992
9,M,Paul Alabi,SBD,M-C,105,Single-ply,UTSA,103.4,-275,275,-300,275,-192.5,-192.5,197.5,197.5,265,282.5,290,290,762.5,1993
10,M,Jonah Noeldner,SBD,M-C,105,Single-ply,USAFA,104.3,285,-295,295,295,175,-182.5,182.5,182.5,285,-295,-295,285,762.5,1995
11,M,Matt Hughes,SBD,M-C,105,Single-ply,NEU,102.5,257.5,-272.5,272.5,272.5,187.5,195,-197.5,195,255,267.5,-277.5,267.5,735,1993
12,M,Anthony Adams,SBD,M-C,105,Single-ply,USMA,99.4,237.5,260,270,270,177.5,-185,-185,177.5,272.5,-305,-315,272.5,720,1992
13,M,Steven Fritsch,SBD,M-C,105,Single-ply,MCKU,101.9,250,-265,272.5,272.5,145,170,187.5,187.5,260,-277.5,-280,260,720,1994
14,M,Nicholas Nero,SBD,M-C,105,Single-ply,USMA,101.6,240,262.5,-267.5,262.5,205,-217.5,-217.5,205,235,250,-260,250,717.5,1992
15,M,Logan Herrington,SBD,M-C,105,Single-ply,SHSU,100.4,225,237.5,247.5,247.5,155,165,172.5,172.5,260,275,285,285,705,1994
16,M,DaMikal Crow,SBD,M-C,105,Single-ply,LSU,97.7,255,-265,270,270,-152.5,-152.5,152.5,152.5,255,267.5,280,280,702.5,1994
17,M,Paul Kemper,SBD,M-C,105,Single-ply,PSU,102,270,-280,-280,270,185,-195,195,195,230,-240,-240,230,695,1994
18,M,Drake Culbreth,SBD,M-C,105,Single-ply,LSU,100.4,265,275,-285,275,155,165,-172.5,165,237.5,247.5,-262.5,247.5,687.5,1989
19,M,Andrew Wing,SBD,M-C,105,Single-ply,USMA,101.1,227.5,250,-277.5,250,170,-187.5,-190,170,240,260,-272.5,260,680,1989
20,M,Sam Choi,SBD,M-C,105,Single-ply,NEU,95.5,225,237.5,250,250,155,160,167.5,167.5,220,232.5,240,240,657.5,1991
21,M,Richard Morgan,SBD,M-C,105,Single-ply,LATU,101.2,-232.5,-232.5,232.5,232.5,175,180,-182.5,180,242.5,-255,-255,242.5,655,1989
22,M,Jacques Honore,SBD,M-C,105,Single-ply,LATU,101.1,225,240,-265,240,150,162.5,175,175,220,230,235,235,650,1993
23,M,Keith Osayande,SBD,M-C,105,Single-ply,GIT,102.1,212.5,222.5,230,230,122.5,132.5,142.5,142.5,245,-265,272.5,272.5,645,1992
24,M,Aly Mohamed,SBD,M-C,105,Single-ply,PSU,104,222.5,232.5,240,240,122.5,127.5,135,135,-227.5,-240,257.5,257.5,632.5,1995
25,M,Shawn Gardner,SBD,M-C,105,Single-ply,VMI,100.8,215,237.5,-250,237.5,142.5,152.5,-160,152.5,210,230,235,235,625,1994
26,M,Grant Senft,SBD,M-C,105,Single-ply,PSU,102.4,230,-240,240,240,-140,140,-142.5,140,215,227.5,-232.5,227.5,607.5,1995
27,M,Mark Matthews,SBD,M-C,105,Single-ply,PSU,101.7,205,210,-215,210,152.5,157.5,160,160,220,232.5,-237.5,232.5,602.5,1994
28,M,Josh Miller,SBD,M-C,105,Single-ply,SHSU,103.9,220,230,-235,230,135,-147.5,-147.5,135,215,225,-230,225,590,1995
29,M,Justin Trow,SBD,M-C,105,Single-ply,SHSU,100.5,215,-230,-230,215,125,135,-140,135,215,-230,-230,215,565,1996
32,M,Treyvon Sims,SBD,M-C,105,Single-ply,LATU,104.9,-285,-285,-285,,175,-180,180,180,265,272.5,280,280,460,1994
30,M,Patrick Robichaux,SBD,M-C,105,Single-ply,LSU,96.6,-250,-252.5,-252.5,,147.5,155,157.5,157.5,270,282.5,290,290,447.5,1993
DQ,M,Vahe Missirian,SBD,M-C,105,Single-ply,NEU,104.4,-330,-330,-330,,-215,,,,,,,,,1991
1,M,Scott Dobbins,SBD,M-C,120,Single-ply,TAM,118.2,357.5,377.5,385.5,385.5,247.5,255,-260,255,290,307.5,317.5,317.5,958,1992
2,M,Jesse Burttschell,SBD,M-C,120,Single-ply,TAM,118,305,-320,-320,305,250,260,-267.5,260,-295,295,310,310,875,1993
3,M,Tristan Nazelrod,SBD,M-C,120,Single-ply,FSU,116.4,292.5,310,325,325,-237.5,237.5,252.5,252.5,270,280,295,295,872.5,1996
4,M,Boomer Covington,SBD,M-C,120,Single-ply,FGCU,117.8,-310,320,332.5,332.5,-265,267.5,-272.5,267.5,245,255,-275,255,855,1993
5,M,Faithful Alabi,SBD,M-C,120,Single-ply,UTSA,117.9,307.5,320,-332.5,320,195,205,-210,205,-287.5,287.5,302.5,302.5,827.5,1995
6,M,Chris Hughes #2,SBD,M-C,120,Single-ply,NEU,108.9,325,342.5,-355,342.5,190,200,207.5,207.5,265,-275,275,275,825,1993
7,M,Matthew Martino #1,SBD,M-C,120,Single-ply,USMA,113.7,295,-317.5,-325,295,207.5,-222.5,222.5,222.5,235,-262.5,-262.5,235,752.5,1993
8,M,Lee Kantowski,SBD,M-C,120,Single-ply,USMA,113.2,245,272.5,-285,272.5,170,182.5,-187.5,182.5,245,-272.5,272.5,272.5,727.5,1995
9,M,Michael Butler,SBD,M-C,120,Single-ply,UTSA,108.4,260,272.5,277.5,277.5,155,-160,160,160,240,245,-250,245,682.5,1990
10,M,Erik Golabek,SBD,M-C,120,Single-ply,PSU,108.9,265,280,-295,280,180,,,180,185,,,185,645,1993
11,M,Jose Alaniz,SBD,M-C,120,Single-ply,SHSU,118,220,232.5,-240,232.5,147.5,160,167.5,167.5,210,227.5,235,235,635,1993
12,M,Travis Pierson,SBD,M-C,120,Single-ply,PSU,119.7,250,260,-270,260,175,-182.5,-182.5,175,200,-202.5,,200,635,1994
14,M,Chris Clary,SBD,M-C,120,Single-ply,LATU,114.4,237.5,260,277.5,277.5,-165,-175,-175,,225,235,250,250,527.5,1990
13,M,Seth Kirchner,SBD,M-C,120,Single-ply,USMA,105.8,-240,240,-262.5,240,135,150,-162.5,150,-250,-272.5,-272.5,,390,1995
15,M,Andre Sigure,SB,M-C,120,Single-ply,ULL,116.4,320,342.5,-360,342.5,-210,-227.5,-227.5,,,,,,342.5,1992
DQ,M,Camaran Henson,SBD,M-C,120,Single-ply,USNA,118,,,,,,,,,,,,,,
DQ,M,Pooser Hunter,SBD,M-C,120,Single-ply,LFU,118.2,-342.5,-342.5,-342.5,,-217.5,,,,,,,,,1994
1,M,Stephen King,SBD,M-C,120+,Single-ply,NEU,149.3,365,387.5,-400,387.5,285,300,312.5,312.5,275,300,310,310,1010,1992
2,M,Tim Johnson,SBD,M-C,120+,Single-ply,LSU,132.3,-360,360,-372.5,360,230,240,-250,240,325,-337.5,-337.5,325,925,1993
3,M,John Caruso,SBD,M-C,120+,Single-ply,UNT,132,325,335,-347.5,335,255,-267.5,267.5,267.5,280,287.5,-295,287.5,890,1993
4,M,Matt Sohmer,SBD,M-C,120+,Single-ply,SNYC,122,345,367.5,372.5,372.5,120,-130,130,130,327.5,-348,-348,327.5,830,1993
5,M,Matthew Harper,SBD,M-C,120+,Single-ply,BPCC,127.9,277.5,292.5,-297.5,292.5,200,-222.5,222.5,222.5,255,257.5,-280,257.5,772.5,1984
6,M,Jerry Nduji,SBD,M-C,120+,Single-ply,UTX,131.5,-285,290,-300,290,180,192.5,205,205,262.5,-272.5,-272.5,262.5,757.5,1995
7,M,Jaime Villa,SBD,M-C,120+,Single-ply,UHD,127.1,-265,-265,265,265,235,-242.5,-242.5,235,230,242.5,-260,242.5,742.5,1990
8,M,James Rowe,SBD,M-C,120+,Single-ply,GSoU,123,272.5,285,-295,285,162.5,170,180,180,240,245,247.5,247.5,712.5,1994
9,M,Tyler Bergeron,SBD,M-C,120+,Single-ply,ULL,156.4,232.5,257.5,272.5,272.5,175,187.5,200,200,220,240,-252.5,240,712.5,1993
10,M,David Schlieker,SBD,M-C,120+,Single-ply,MCKU,134.5,-250,260,-275,260,145,-155,-155,145,275,-300,,275,680,1996
11,M,Alex Fletcher,SBD,M-C,120+,Single-ply,USMA,126,-205,205,-235,205,180,197.5,210,210,235,260,-272.5,260,675,1992
12,M,Zachary Neuschaefer,SBD,M-C,120+,Single-ply,NEU,126.8,245,257.5,270,270,-167.5,167.5,177.5,177.5,190,202.5,-227.5,202.5,650,1992
13,M,Cody Kennedy,SB,M-C,120+,Single-ply,LATU,125.7,245,260,-272.5,260,-260,260,,260,,,,,520,1995
1,F,Tiffany Vu,SBD,F-C,43,Single-ply,UTX,42.4,107.5,117.5,122.5,122.5,52.5,57.5,-60,57.5,130,140,-148,140,320,1992
2,F,Brittany Basco,SBD,F-C,43,Single-ply,LSU,42.9,95,-110,-110,95,42.5,47.5,50,50,105,112.5,-120,112.5,257.5,1995
3,F,Lia Ranalli,SBD,F-C,43,Single-ply,PSU,42.9,-87.5,87.5,92.5,92.5,35,40,42.5,42.5,75,82.5,90,90,225,1994
4,F,Loutori Williams,SBD,F-C,43,Single-ply,ULL,42.3,67.5,75,82.5,82.5,40,45,-50,45,75,82.5,-97.5,82.5,210,1995
5,F,Paola Barbieri,SBD,F-C,43,Single-ply,UTX,42.1,67.5,-72.5,72.5,72.5,30,35,-37.5,35,72.5,82.5,-102.5,82.5,190,1994
1,F,Allegra Hudson,SBD,F-C,47,Single-ply,UTSA,46.7,137.5,145,-152.5,145,60,65,70,70,140,145,150,150,365,1994
2,F,Lauren Deniger,SBD,F-C,47,Single-ply,ULL,46.7,125,-132.5,132.5,132.5,80,87.5,-92.5,87.5,117.5,125,-142.5,125,345,1993
3,F,Bryanna Ybarra,SBD,F-C,47,Single-ply,UTX,46.9,115,125,135,135,67.5,72.5,75,75,100,-105,105,105,315,1992
4,F,Sarah Cruz-Ortiz,SBD,F-C,47,Single-ply,PSU,45,110,-115,-115,110,57.5,60,-62.5,60,120,127.5,-135,127.5,297.5,1994
5,F,Diane Chau,SBD,F-C,47,Single-ply,UTX,46.1,100,107.5,115,115,47.5,52.5,55,55,110,117.5,-122.5,117.5,287.5,1996
6,F,Ashley Guzman,SBD,F-C,47,Single-ply,UTX,46.4,107.5,-112.5,115,115,52.5,57.5,-60,57.5,107.5,115,-122.5,115,287.5,1995
7,F,Yazmin Trujillo,SBD,F-C,47,Single-ply,UHD,46,82.5,95,100,100,45,50,-55,50,82.5,105,110,110,260,1995
8,F,Clarrissa Johnson,SBD,F-C,47,Single-ply,LATU,46.5,92.5,-107.5,107.5,107.5,-42.5,-42.5,45,45,85,92.5,97.5,97.5,250,1994
1,F,Gabrielle Hurley,SBD,F-C,52,Single-ply,UTX,50.9,125,137.5,145,145,70,75,80,80,122.5,135,140,140,365,1994
2,F,Micah de Valle,SBD,F-C,52,Single-ply,UTX,51.6,115,125,-132.5,125,65,70,75,75,122.5,140,-145,140,340,1994
3,F,Renee Frohnert,SBD,F-C,52,Single-ply,PSU,51.2,117.5,125,-130,125,62.5,-67.5,-67.5,62.5,105,112.5,-117.5,112.5,300,1993
4,F,Savannah Gray,SBD,F-C,52,Single-ply,LSU,51.4,110,117.5,-122.5,117.5,47.5,52.5,-55,52.5,110,-117.5,120,120,290,1995
5,F,Kristen Lobo,SBD,F-C,52,Single-ply,NEU,50.9,97.5,105,110,110,50,-55,55,55,115,-122.5,-125,115,280,1995
6,F,Quinequa Hughes,SBD,F-C,52,Single-ply,HCC,47.1,97.5,-102.5,-102.5,97.5,35,42.5,-47.5,42.5,97.5,107.5,120,120,260,1995
7,F,Salena Chiep,SBD,F-C,52,Single-ply,VMI,51,85,95,97.5,97.5,42.5,-47.5,47.5,47.5,92.5,105,115,115,260,1994
8,F,Casey Landry,SBD,F-C,52,Single-ply,NEU,51.6,97.5,-102.5,-102.5,97.5,37.5,40,47.5,47.5,105,110,112.5,112.5,257.5,1993
9,F,Courtney Halsell,SBD,F-C,52,Single-ply,ULL,52,95,102.5,-112.5,102.5,55,-60,-60,55,92.5,100,-110,100,257.5,1996
10,F,Nicole Robichaux,SBD,F-C,52,Single-ply,ULL,50.2,77.5,85,92.5,92.5,45,50,57.5,57.5,80,87.5,95,95,245,1996
11,F,Emily Hawkins,SBD,F-C,52,Single-ply,FGCU,48.8,62.5,70,-82.5,70,40,45,-50,45,80,87.5,90,90,205,1994
12,F,Victoria Vargas,SB,F-C,52,Single-ply,UTSA,50.6,152.5,165,-175,165,-115,-115,-115,,,,,,165,1994
1,F,Kimberly Johnson,SBD,F-C,57,Single-ply,UWGB,55,152.5,162.5,172.5,172.5,92.5,100,107.5,107.5,155,165,175,175,455,1994
2,F,Emily Cassista,SBD,F-C,57,Single-ply,NEU,54.7,155,-165,-165,155,102.5,107.5,110,110,147.5,155,162.5,162.5,427.5,1992
3,F,Erin Stevenson,SBD,F-C,57,Single-ply,BSU,56.8,162.5,175,177.5,177.5,97.5,-107.5,-107.5,97.5,145,152.5,-157.5,152.5,427.5,1993
4,F,Alyssa Gaitan,SBD,F-C,57,Single-ply,ASU,56.8,142.5,150,157.5,157.5,-77.5,77.5,-82.5,77.5,150,-162.5,-162.5,150,385,1995
5,F,Jennifer Richardson,SBD,F-C,57,Single-ply,TAM,56.3,137.5,145,150,150,70,-77.5,77.5,77.5,145,147.5,155,155,382.5,1994
6,F,Jeannette Cohen,SBD,F-C,57,Single-ply,PSU,56.8,142.5,145,147.5,147.5,77.5,82.5,85,85,145,150,-155,150,382.5,1993
7,F,Jay'sun Moore,SBD,F-C,57,Single-ply,UTX,56.3,-120,120,125,125,80,85,90,90,140,150,157.5,157.5,372.5,1996
8,F,Jeliena Courville,SBD,F-C,57,Single-ply,NSU,56.9,132.5,137.5,-140,137.5,85,-87.5,-87.5,85,137.5,147.5,-155,147.5,370,1993
9,F,Krystin Krodle,SBD,F-C,57,Single-ply,TAM,56.1,137.5,-145,-145,137.5,87.5,-90,90,90,127.5,135,-150,135,362.5,1994
10,F,Caitlyn Buck,SBD,F-C,57,Single-ply,ASU,56.1,125,132.5,-137.5,132.5,60,67.5,70,70,125,140,142.5,142.5,345,1994
11,F,Lauren Lumague,SBD,F-C,57,Single-ply,UTX,56.6,120,125,130,130,67.5,70,72.5,72.5,127.5,-137.5,-137.5,127.5,330,1994
12,F,Richelle George,SBD,F-C,57,Single-ply,ULL,56.4,102.5,110,115,115,-80,80,87.5,87.5,105,117.5,-122.5,117.5,320,1994
13,F,Angelica Garcia,SBD,F-C,57,Single-ply,PSU,56.6,105,-112.5,112.5,112.5,57.5,-60,60,60,122.5,130,137.5,137.5,310,1995
14,F,Kaitlyn Mulkey,SBD,F-C,57,Single-ply,TAM,55.8,100,102.5,107.5,107.5,-55,-55,55,55,-127.5,127.5,132.5,132.5,295,1995
15,F,Carol Champion,SBD,F-C,57,Single-ply,USAFA,56.8,85,95,107.5,107.5,50,55,-60,55,105,115,-125,115,277.5,1993
16,F,Megan Kupser,SBD,F-C,57,Single-ply,FGCU,55.5,-90,102.5,-115,102.5,45,50,-55,50,90,97.5,110,110,262.5,1995
17,F,Sarah Use,SBD,F-C,57,Single-ply,ULL,55.4,90,-92.5,97.5,97.5,45,50,55,55,92.5,102.5,-107.5,102.5,255,1994
18,F,Jennifer Ramirez,SBD,F-C,57,Single-ply,UTSA,55.9,-115,-117.5,-117.5,,-52.5,52.5,-55,52.5,110,120,130,130,182.5,1997
19,F,Michelle Ryan,SBD,F-C,57,Single-ply,NEU,56.9,-145,-145,-147.5,,85,-92.5,-95,85,87.5,92.5,-112.5,92.5,177.5,1994
1,F,Eliraz Katz,SBD,F-C,63,Single-ply,PSU,62.2,165,172.5,180,180,77.5,82.5,-87.5,82.5,155,167.5,175,175,437.5,1989
2,F,Giovanna Ortega,SBD,F-C,63,Single-ply,UTSA,59.1,167.5,177.5,-186,177.5,82.5,-92.5,92.5,92.5,160,165,-170,165,435,1994
3,F,Sophia Veiras,SBD,F-C,63,Single-ply,NEU,61.3,155,-160,162.5,162.5,95,100,103,103,152.5,160,-165,160,425.5,1991
4,F,Jordan Green,SBD,F-C,63,Single-ply,NEU,60.1,152.5,157.5,-160,157.5,-90,90,95,95,147.5,155,160,160,412.5,1993
5,F,Christina Pollick,SBD,F-C,63,Single-ply,PSU,62.6,152.5,-160,167.5,167.5,-90,-90,90,90,140,147.5,155,155,412.5,1993
6,F,Alexandria Rosales,SBD,F-C,63,Single-ply,TAMK,63,-152.5,155,162.5,162.5,80,-85,85,85,142.5,152.5,-167.5,152.5,400,1990
7,F,Perrish Dragovits,SBD,F-C,63,Single-ply,ICC,61.8,145,-155,160,160,-65,67.5,72.5,72.5,137.5,142.5,147.5,147.5,380,1995
8,F,Gabriella Grant,SBD,F-C,63,Single-ply,UTX,62.3,132.5,142.5,150,150,82.5,90,97.5,97.5,132.5,-150,-150,132.5,380,1994
9,F,Kristina Torres,SBD,F-C,63,Single-ply,UTX,59,135,142.5,150,150,60,70,77.5,77.5,135,147.5,-152.5,147.5,375,1993
10,F,Samantha LaCoe,SBD,F-C,63,Single-ply,LWC,62,137.5,145,152.5,152.5,65,-72.5,-72.5,65,137.5,147.5,155,155,372.5,1991
11,F,Sheila Zare,SBD,F-C,63,Single-ply,UTX,60.9,110,117.5,125,125,75,82.5,87.5,87.5,130,147.5,155,155,367.5,1994
12,F,Breanna Johnson,SBD,F-C,63,Single-ply,FGCU,59.8,105,112.5,117.5,117.5,77.5,85,95,95,110,127.5,-137.5,127.5,340,1996
13,F,Samantha Neal,SBD,F-C,63,Single-ply,UTX,61.7,-117.5,117.5,122.5,122.5,72.5,75,80,80,120,130,-137.5,130,332.5,1992
14,F,Mia Cano,SBD,F-C,63,Single-ply,UTMP,60.6,122.5,-130,-130,122.5,67.5,-72.5,72.5,72.5,135,-147.5,-147.5,135,330,1996
15,F,Amanda Bowker,SBD,F-C,63,Single-ply,ASU,62.2,107.5,120,-137.5,120,67.5,77.5,-82.5,77.5,107.5,115,122.5,122.5,320,1991
16,F,Cameron King,SBD,F-C,63,Single-ply,UTSA,61.4,-130,135,140,140,57.5,-60,-60,57.5,105,112.5,120,120,317.5,1994
17,F,Victoria Pizzitola,SBD,F-C,63,Single-ply,TAM,61.6,107.5,-115,115,115,65,-70,72.5,72.5,110,117.5,-122.5,117.5,305,1992
18,F,Mary Clark,SBD,F-C,63,Single-ply,UCLA,59.9,-90,97.5,100,100,62.5,67.5,70,70,120,-137.5,-137.5,120,290,1994
19,F,Megan Reilly #2,SBD,F-C,63,Single-ply,NEU,61.2,-107.5,107.5,-112.5,107.5,65,67.5,-70,67.5,100,-105,105,105,280,1996
20,F,Kate Murdock,SBD,F-C,63,Single-ply,NEU,62.2,102.5,-107.5,-107.5,102.5,55,57.5,-62.5,57.5,102.5,110,115,115,275,
21,F,Rachael McFarland,SBD,F-C,63,Single-ply,SHSU,62.5,92.5,-102.5,-102.5,92.5,55,-60,60,60,92.5,105,115,115,267.5,1995
22,F,Sonia Beri,SBD,F-C,63,Single-ply,MCKU,62.7,82.5,90,95,95,62.5,-70,-70,62.5,107.5,-127.5,-127.5,107.5,265,1991
23,F,Gina Lamm,SBD,F-C,63,Single-ply,PSU,61.2,90,97.5,-105,97.5,50,-55,-55,50,92.5,102.5,112.5,112.5,260,1994
25,F,Celina Romera,SBD,F-C,63,Single-ply,FGCU,62.3,-147.5,-152.5,-152.5,,100,-105,-105,100,142.5,150,-157.5,150,250,1993
24,F,Lauren Brodie,SBD,F-C,63,Single-ply,USAFA,61.4,135,-140,145,145,-65,65,-70,65,-162.5,-162.5,-162.5,,210,1994
1,F,Dakota Young,SBD,F-C,72,Single-ply,UTSA,70.5,200,210,-212.5,210,92.5,100,102.5,102.5,192.5,-197.5,-197.5,192.5,505,1996
2,F,Erika Myers,SBD,F-C,72,Single-ply,NEU,70.4,177.5,187.5,192.5,192.5,110,115,120,120,177.5,185,-192.5,185,497.5,1990
3,F,Denisha Melancon,SBD,F-C,72,Single-ply,ULL,67.8,155,170,-177.5,170,85,92.5,100,100,172.5,187.5,195,195,465,1996
4,F,Dominique McGaha,SBD,F-C,72,Single-ply,UTX,71.1,165,177.5,-185,177.5,87.5,92.5,95,95,175,182.5,192.5,192.5,465,1994
5,F,Laquanda Moffett,SBD,F-C,72,Single-ply,USM,71.7,170,180,-185,180,75,85,-90,85,180,190,-202.5,190,455,1994
6,F,Briana Villarreal,SBD,F-C,72,Single-ply,UHD,68.6,-172.5,172.5,-177.5,172.5,77.5,82.5,-87.5,82.5,-175,177.5,187.5,187.5,442.5,1993
7,F,Skyler Briggs,SBD,F-C,72,Single-ply,USNA,68.7,162.5,170,-177.5,170,112.5,-120,-120,112.5,160,-167.5,-175,160,442.5,1995
8,F,Cierra Bernard,SBD,F-C,72,Single-ply,USM,69.6,155,-165,167.5,167.5,85,90,95,95,155,-165,172.5,172.5,435,1994
9,F,Ashley Gicas,SBD,F-C,72,Single-ply,LSU,70.9,147.5,157.5,-167.5,157.5,110,-115,115,115,137.5,145,150,150,422.5,1995
10,F,Kelsey McCarthy,SBD,F-C,72,Single-ply,NEU,67.3,160,165,167.5,167.5,-82.5,85,90,90,150,155,162.5,162.5,420,1992
11,F,Hannah Malcomb,SBD,F-C,72,Single-ply,TAM,71.4,167.5,172.5,177.5,177.5,-80,80,90,90,145,152.5,-162.5,152.5,420,1992
12,F,Hannah Ghindea,SBD,F-C,72,Single-ply,LSU,69.3,-157.5,160,-172.5,160,75,80,85,85,160,170,-182.5,170,415,1992
13,F,Nicole Maalouf,SBD,F-C,72,Single-ply,NEU,71.1,130,137.5,-145,137.5,100,-105,-105,100,137.5,145,150,150,387.5,1994
14,F,Maria Toledo,SBD,F-C,72,Single-ply,SHSU,71.6,145,157.5,165,165,67.5,75,77.5,77.5,130,140,145,145,387.5,1993
15,F,Danielle Burton,SBD,F-C,72,Single-ply,NEU,70.4,145,152.5,-160,152.5,75,-80,80,80,137.5,145,-155,145,377.5,1992
16,F,Jalyn Holt,SBD,F-C,72,Single-ply,UTX,68.8,142.5,147.5,152.5,152.5,62.5,67.5,-70,67.5,137.5,155,-162.5,155,375,1993
17,F,Lindsey Raker,SBD,F-C,72,Single-ply,MCKU,71,-117.5,122.5,-137.5,122.5,70,-77.5,77.5,77.5,-162.5,162.5,-172.5,162.5,362.5,1995
18,F,Logan Himich,SBD,F-C,72,Single-ply,PSU,70.1,150,-160,-160,150,55,60,-65,60,132.5,140,150,150,360,1993
19,F,Jennifer Fofi,SBD,F-C,72,Single-ply,PSU,66.2,137.5,147.5,157.5,157.5,57.5,-60,60,60,110,122.5,130,130,347.5,1995
20,F,Ashley Vasquez,SBD,F-C,72,Single-ply,SHSU,71.5,130,-137.5,-137.5,130,70,-77.5,-77.5,70,142.5,-157.5,-157.5,142.5,342.5,1994
21,F,Miranda De La Morena,SBD,F-C,72,Single-ply,SHSU,68.8,92.5,102.5,112.5,112.5,65,72.5,-75,72.5,125,137.5,152.5,152.5,337.5,1993
22,F,Jordan Galehan,SBD,F-C,72,Single-ply,GStU,70.5,107.5,117.5,125,125,80,85,90,90,107.5,120,-135,120,335,1989
23,F,Marisa Lara,SBD,F-C,72,Single-ply,PSU,66.4,102.5,115,125,125,60,65,-70,65,122.5,132.5,135,135,325,1994
24,F,Sara Pelletier,SBD,F-C,72,Single-ply,PSU,63.1,135,-140,-140,135,-60,60,-62.5,60,105,120,125,125,320,1994
25,F,Tessa Peixoto,SBD,F-C,72,Single-ply,NEU,70.4,120,127.5,132.5,132.5,62.5,67.5,70,70,117.5,-122.5,-122.5,117.5,320,1994
26,F,Anna Barratt,SBD,F-C,72,Single-ply,UTX,70.6,115,122.5,-125,122.5,55,-60,60,60,127.5,132.5,135,135,317.5,1994
27,F,Shelby David,SBD,F-C,72,Single-ply,SLCC,63.9,100,110,120,120,57.5,65,70,70,107.5,120,-130,120,310,1996
28,F,Mackenzie Harrman,SBD,F-C,72,Single-ply,VMI,69.2,110,-117.5,117.5,117.5,65,-80,-80,65,117.5,127.5,-137.5,127.5,310,
29,F,Darian Dawkins,SBD,F-C,72,Single-ply,TAM,69.9,-117.5,117.5,120,120,-72.5,-72.5,72.5,72.5,117.5,-122.5,-122.5,117.5,310,1995
30,F,Cearra Darnell,SBD,F-C,72,Single-ply,SHSU,66.7,105,115,-122.5,115,60,67.5,72.5,72.5,97.5,110,120,120,307.5,1996
31,F,Imo Akpan,SBD,F-C,72,Single-ply,LMU,71.4,-90,100,110,110,45,57.5,-70,57.5,67.5,100,117.5,117.5,285,1995
32,F,Amber Woodard,SBD,F-C,72,Single-ply,VMI,71.8,62.5,85,92.5,92.5,52.5,-62.5,62.5,62.5,-105,107.5,120,120,275,1994
36,F,Emily Fisher,SBD,F-C,72,Single-ply,LSU,70.5,120,125,-130,125,-77.5,-77.5,-77.5,,132.5,142.5,-155,142.5,267.5,1995
40,F,Mallory Stout,SBD,F-C,72,Single-ply,LSU,71.9,-180,-180,-180,,75,-80,-80,75,172.5,182.5,-187.5,182.5,257.5,1994
34,F,Helen Ramsay,SBD,F-C,72,Single-ply,NEU,66.5,125,-132.5,132.5,132.5,77.5,82.5,87.5,87.5,-140,-140,-140,,220,1993
39,F,Erin Kreher,SBD,F-C,72,Single-ply,PSU,71.6,-145,-145,-145,,-72.5,72.5,-75,72.5,127.5,135,142.5,142.5,215,1994
38,F,Magdiel Alvarez,SBD,F-C,72,Single-ply,UTSA,71.4,-147.5,-147.5,-147.5,,62.5,65,67.5,67.5,110,-120,120,120,187.5,1996
37,F,Tessa Smith,SBD,F-C,72,Single-ply,VMI,71.3,-105,-120,-120,,57.5,67.5,-82.5,67.5,-102.5,-112.5,-117.5,,67.5,1992
DQ,F,Danielle Ross,SBD,F-C,72,Single-ply,UTSA,65.9,-152.5,-162.5,-162.5,,-105,-105,-105,,,,,,,1995
DQ,F,Teagan Schwab,SBD,F-C,72,Single-ply,MCKU,69.3,-157.5,-157.5,-157.5,,-72.5,,,,,,,,,1996
1,F,Mariah Hamm,SBD,F-C,84,Single-ply,UWEC,83.7,220,232.5,240.5,240.5,130,140,145.5,145.5,177.5,192.5,200,200,586,1992
2,F,Monet Bland,SBD,F-C,84,Single-ply,NEU,82.6,-217.5,217.5,-227.5,217.5,95,-100,100,100,205,-215,-215,205,522.5,1991
3,F,Sarah Davis #1,SBD,F-C,84,Single-ply,TAM,82.9,170,-180,-180,170,110,117.5,122.5,122.5,170,182.5,187.5,187.5,480,1995
4,F,Julia Shropshire,SBD,F-C,84,Single-ply,USM,81.8,177.5,192.5,-205,192.5,75,82.5,92.5,92.5,150,160,170,170,455,1994
5,F,Cheyenne Liles,SBD,F-C,84,Single-ply,TAM,80.9,-170,170,175,175,87.5,92.5,97.5,97.5,160,175,-182.5,175,447.5,1996
6,F,Claire McKenzie,SBD,F-C,84,Single-ply,UTX,81.6,165,-177.5,-177.5,165,87.5,97.5,-102.5,97.5,175,185,-187.5,185,447.5,1994
7,F,Christie Civetta,SBD,F-C,84,Single-ply,NEU,81.4,160,167.5,172.5,172.5,-107.5,107.5,-110,107.5,160,-165,-165,160,440,1992
8,F,Destiny Kliebert,SBD,F-C,84,Single-ply,ULL,76.5,130,142.5,152.5,152.5,-85,90,95,95,142.5,160,-162.5,160,407.5,1995
9,F,Jessi Robelot,SBD,F-C,84,Single-ply,LSU,82.9,172.5,-180,-180,172.5,-77.5,77.5,-80,77.5,147.5,-155,157.5,157.5,407.5,1993
10,F,Kenda Wittenburg,SBD,F-C,84,Single-ply,TAM,83.4,140,147.5,155,155,72.5,80,-82.5,80,145,150,162.5,162.5,397.5,1996
11,F,Caitlyn Hester,SBD,F-C,84,Single-ply,NEU,80.2,132.5,140,145,145,80,85,90,90,142.5,147.5,155,155,390,1992
12,F,Keya Brandon,SBD,F-C,84,Single-ply,LSU,73.4,147.5,-152.5,155,155,60,-65,67.5,67.5,142.5,150,157.5,157.5,380,1992
13,F,Halle Russell,SBD,F-C,84,Single-ply,NEU,73.3,137.5,145,150,150,95,100,-102.5,100,117.5,-122.5,122.5,122.5,372.5,1996
14,F,Kelly Yates,SBD,F-C,84,Single-ply,LSU,76.6,120,130,-137.5,130,60,65,70,70,147.5,155,165,165,365,1993
15,F,Collette Grandison,SBD,F-C,84,Single-ply,MCKU,83.1,117.5,125,-137.5,125,70,77.5,82.5,82.5,137.5,147.5,-155,147.5,355,1996
16,F,Shannon Croatto,SBD,F-C,84,Single-ply,NEU,74,137.5,145,-150,145,65,67.5,-70,67.5,130,135,140,140,352.5,1995
17,F,Iraida Garcia #1,SBD,F-C,84,Single-ply,TAM,80.3,120,125,-130,125,-85,85,87.5,87.5,125,127.5,130,130,342.5,1995
18,F,Amber Knight,SBD,F-C,84,Single-ply,ULM,80.5,130,137.5,-145,137.5,65,-70,70,70,130,135,-142.5,135,342.5,1996
19,F,Ronnekia Johnson,SBD,F-C,84,Single-ply,ULL,83.3,95,105,112.5,112.5,67.5,-75,75,75,107.5,120,127.5,127.5,315,1995
20,F,Corinne Bowers,SBD,F-C,84,Single-ply,NEU,79.6,117.5,-122.5,122.5,122.5,67.5,72.5,75,75,115,-120,-120,115,312.5,1995
1,F,Ashleigh Andrews,SBD,F-C,84+,Single-ply,TAM,93.1,215,222.5,227.5,227.5,155,165,-175,165,180,190,202.5,202.5,595,1994
2,F,Jaelynn Clark,SBD,F-C,84+,Single-ply,UTSA,118.2,235,-242.5,242.5,242.5,135,-140,140,140,207.5,-212.5,-215,207.5,590,1996
3,F,Binglei Zhou,SBD,F-C,84+,Single-ply,NEU,97.9,-210,-210,210,210,90,92.5,-95,92.5,175,182.5,200,200,502.5,1994
4,F,Priscilla Perez,SBD,F-C,84+,Single-ply,UHD,116.4,-177.5,177.5,197.5,197.5,120,127.5,137.5,137.5,145,150,-165,150,485,1995
5,F,Amber Blankemeyer,SBD,F-C,84+,Single-ply,UHD,112.5,167.5,177.5,187.5,187.5,95,100,107.5,107.5,160,-167.5,-167.5,160,455,1995
6,F,Allison Garcia,SBD,F-C,84+,Single-ply,UTSA,121.7,150,205,-212.5,205,67.5,-110,-112.5,67.5,167.5,175,-185,175,447.5,1995
7,F,Alexandra García,SBD,F-C,84+,Single-ply,UTSA,120.4,175,182.5,190,190,-87.5,87.5,92.5,92.5,147.5,155,-162.5,155,437.5,1995
8,F,Raven Nichols,SBD,F-C,84+,Single-ply,LSU,147.3,150,160,172.5,172.5,72.5,80,-87.5,80,130,137.5,142.5,142.5,395,1996
9,F,Alyssa Babineaux,SBD,F-C,84+,Single-ply,ULL,117.4,132.5,147.5,157.5,157.5,77.5,-87.5,87.5,87.5,107.5,125,132.5,132.5,377.5,1994
10,F,Moriah Buckwalter,SBD,F-C,84+,Single-ply,NEU,95.2,142.5,150,157.5,157.5,-85,85,-90,85,127.5,-135,-140,127.5,370,1995
11,F,Anna Gailius,SBD,F-C,84+,Single-ply,MCKU,88.5,105,115,130,130,82.5,-95,-95,82.5,137.5,147.5,-157.5,147.5,360,1995
12,F,Hannah Poynter,SBD,F-C,84+,Single-ply,GGC,101,125,132.5,140,140,92.5,97.5,102.5,102.5,105,115,-125,115,357.5,1996
