Division,WeightClassKg,Place,Name,Team,BodyweightKg,Best3SquatKg,Best3BenchKg,Best3DeadliftKg,TotalKg,Equipment,Event,Sex
Boys,51.71,1,Daniel Salinas,Chico,51.71,127.01,65.77,145.15,337.93,Single-ply,SBD,M
Boys,59.87,1,Zack Allen,Ponder,55.88,129.27,70.31,122.47,322.05,Single-ply,SBD,M
Boys,59.87,1,Issiah Meening,Chico,59.51,142.88,86.18,142.88,371.95,Single-ply,SBD,M
Boys,59.87,2,Jared Fredman,Ponder,58.47,151.95,72.57,136.08,360.61,Single-ply,SBD,M
Boys,59.87,3,Derek Creeks,Chico,59.78,117.93,70.31,136.08,324.32,Single-ply,SBD,M
Boys,59.87,DQ,Marcus Sampson,Ponder,59.24,131.54,,,,Single-ply,SBD,M
Boys,67.13,1,Ivan Karabonoff,Peaster,65.73,190.51,97.52,199.58,487.61,Single-ply,SBD,M
Boys,67.13,2,Grayson Cobb,Paradise,66.18,158.76,81.65,172.37,412.77,Single-ply,SBD,M
Boys,74.84,3,Ryan Weides,Ponder,67.18,151.95,86.18,161.03,399.16,Single-ply,SBD,M
Boys,74.84,4,Jacob Mogus,Bridgeport,67.36,151.95,68.04,147.42,367.41,Single-ply,SBD,M
Boys,67.13,5,Alex Cordova,Bridgeport,65.18,127.01,86.18,129.27,342.46,Single-ply,SBD,M
Boys,74.84,1,Darrion Riggs,Chico,71.3,190.51,104.33,183.7,478.54,Single-ply,SBD,M
Boys,74.84,2,Roger Mastin,Bridgeport,72.39,142.88,88.45,170.1,401.43,Single-ply,SBD,M
Boys,74.84,3,Tyler Raby,Bridgeport,71.76,136.08,81.65,167.83,385.55,Single-ply,SBD,M
Boys,82.1,1,Nick Maddison,Peaster,77.43,195.04,108.86,167.83,471.74,Single-ply,SBD,M
Boys,82.1,2,Magnum Sampson,Ponder,77.61,183.7,90.72,179.17,453.59,Single-ply,SBD,M
Boys,82.1,3,Austin Bennett,Ponder,80.92,176.9,97.52,163.29,437.72,Single-ply,SBD,M
Boys,82.1,4,Hunter Ferryman,Ponder,78.34,176.9,99.79,140.61,417.3,Single-ply,SBD,M
Boys,82.1,5,Cole Gardner,Ponder,75.43,138.35,72.57,158.76,369.68,Single-ply,SBD,M
Boys,89.81,1,Cameron Schulte,Boyd,86,197.31,104.33,199.58,501.22,Single-ply,SBD,M
Boys,89.81,2,Cameron Starnes,Chico,87.27,208.65,115.67,172.37,496.68,Single-ply,SBD,M
Boys,89.81,3,Ben Dankesreiter,Ponder,88.63,204.12,97.52,158.76,460.4,Single-ply,SBD,M
Boys,89.81,4,Abraham Espinosa,Chico,83.42,145.15,90.72,163.29,399.16,Single-ply,SBD,M
Boys,99.79,1,Allen Mullis,Ponder,98.93,210.92,142.88,185.97,539.77,Single-ply,SBD,M
Boys,99.79,2,Tyler Jennings,Bridgeport,96.57,176.9,122.47,172.37,471.74,Single-ply,SBD,M
Boys,99.79,3,Mitch Fruth,Ponder,90.81,172.37,90.72,158.76,421.84,Single-ply,SBD,M
Boys,99.79,4,Wesley Fitzgerald,Bridgeport,97.16,142.88,83.91,158.76,385.55,Single-ply,SBD,M
Boys,109.77,1,Chance Pierce,Bridgeport,105.28,158.76,115.67,197.31,471.74,Single-ply,SBD,M
Boys,109.77,2,Justin Wagner,Ponder,106.14,206.38,90.72,158.76,455.86,Single-ply,SBD,M
Boys,124.74,1,Bronson Burks,Bridgeport,121.61,238.14,131.54,235.87,605.55,Single-ply,SBD,M
Boys,124.74,2,Jimmy Schuetz,Chico,122.65,240.4,124.74,217.72,582.87,Single-ply,SBD,M
Boys,124.74,3,Colby Lowe,Peaster,118.48,77.11,77.11,102.06,256.28,Single-ply,SBD,M
Boys,124.74+,1,Tyler Melton,Chico,127.64,249.48,136.08,217.72,603.28,Single-ply,SBD,M
Boys,124.74+,2,Jacob Poole,Ponder,136.94,172.37,88.45,131.54,392.36,Single-ply,SBD,M
Boys,124.74+,DQ,Riley Carter #2,Ponder,138.98,,,,,Single-ply,SBD,M
Boys,,NS,Luke Miller,Paradise,,,,,,Single-ply,SBD,M
